/eos/user/j/jhall/BTagging/Productions/October19_ntuples/mc16a/user.jhall.410472.PhPy8EG.DAOD_FTAG2.e6348_a875_r9364_p3970.AT21.2.93_28.10.2019_mc16a_v1.0_output_root/user.jhall.19578465._000001.output.root
/eos/user/j/jhall/BTagging/Productions/October19_ntuples/mc16a/user.jhall.410472.PhPy8EG.DAOD_FTAG2.e6348_a875_r9364_p3970.AT21.2.93_28.10.2019_mc16a_v1.0_output_root/user.jhall.19578465._000002.output.root
/eos/user/j/jhall/BTagging/Productions/October19_ntuples/mc16a/user.jhall.410472.PhPy8EG.DAOD_FTAG2.e6348_a875_r9364_p3970.AT21.2.93_28.10.2019_mc16a_v1.0_output_root/user.jhall.19578465._000003.output.root
/eos/user/j/jhall/BTagging/Productions/October19_ntuples/mc16a/user.jhall.410472.PhPy8EG.DAOD_FTAG2.e6348_a875_r9364_p3970.AT21.2.93_28.10.2019_mc16a_v1.0_output_root/user.jhall.19578465._000004.output.root
/eos/user/j/jhall/BTagging/Productions/October19_ntuples/mc16a/user.jhall.410472.PhPy8EG.DAOD_FTAG2.e6348_a875_r9364_p3970.AT21.2.93_28.10.2019_mc16a_v1.0_output_root/user.jhall.19578465._000005.output.root
/eos/user/j/jhall/BTagging/Productions/October19_ntuples/mc16a/user.jhall.410472.PhPy8EG.DAOD_FTAG2.e6348_a875_r9364_p3970.AT21.2.93_28.10.2019_mc16a_v1.0_output_root/user.jhall.19578465._000006.output.root
/eos/user/j/jhall/BTagging/Productions/October19_ntuples/mc16a/user.jhall.410472.PhPy8EG.DAOD_FTAG2.e6348_a875_r9364_p3970.AT21.2.93_28.10.2019_mc16a_v1.0_output_root/user.jhall.19578465._000007.output.root
/eos/user/j/jhall/BTagging/Productions/October19_ntuples/mc16a/user.jhall.410472.PhPy8EG.DAOD_FTAG2.e6348_a875_r9364_p3970.AT21.2.93_28.10.2019_mc16a_v1.0_output_root/user.jhall.19578465._000008.output.root
/eos/user/j/jhall/BTagging/Productions/October19_ntuples/mc16a/user.jhall.410472.PhPy8EG.DAOD_FTAG2.e6348_a875_r9364_p3970.AT21.2.93_28.10.2019_mc16a_v1.0_output_root/user.jhall.19578465._000009.output.root
/eos/user/j/jhall/BTagging/Productions/October19_ntuples/mc16a/user.jhall.410472.PhPy8EG.DAOD_FTAG2.e6348_a875_r9364_p3970.AT21.2.93_28.10.2019_mc16a_v1.0_output_root/user.jhall.19578465._000010.output.root
/eos/user/j/jhall/BTagging/Productions/October19_ntuples/mc16a/user.jhall.410472.PhPy8EG.DAOD_FTAG2.e6348_a875_r9364_p3970.AT21.2.93_28.10.2019_mc16a_v1.0_output_root/user.jhall.19578465._000011.output.root
/eos/user/j/jhall/BTagging/Productions/October19_ntuples/mc16a/user.jhall.410472.PhPy8EG.DAOD_FTAG2.e6348_a875_r9364_p3970.AT21.2.93_28.10.2019_mc16a_v1.0_output_root/user.jhall.19578465._000012.output.root
/eos/user/j/jhall/BTagging/Productions/October19_ntuples/mc16a/user.jhall.410472.PhPy8EG.DAOD_FTAG2.e6348_a875_r9364_p3970.AT21.2.93_28.10.2019_mc16a_v1.0_output_root/user.jhall.19578465._000013.output.root
/eos/user/j/jhall/BTagging/Productions/October19_ntuples/mc16a/user.jhall.410472.PhPy8EG.DAOD_FTAG2.e6348_a875_r9364_p3970.AT21.2.93_28.10.2019_mc16a_v1.0_output_root/user.jhall.19578465._000014.output.root
/eos/user/j/jhall/BTagging/Productions/October19_ntuples/mc16a/user.jhall.410472.PhPy8EG.DAOD_FTAG2.e6348_a875_r9364_p3970.AT21.2.93_28.10.2019_mc16a_v1.0_output_root/user.jhall.19578465._000015.output.root
/eos/user/j/jhall/BTagging/Productions/October19_ntuples/mc16a/user.jhall.410472.PhPy8EG.DAOD_FTAG2.e6348_a875_r9364_p3970.AT21.2.93_28.10.2019_mc16a_v1.0_output_root/user.jhall.19578465._000016.output.root
/eos/user/j/jhall/BTagging/Productions/October19_ntuples/mc16a/user.jhall.410472.PhPy8EG.DAOD_FTAG2.e6348_a875_r9364_p3970.AT21.2.93_28.10.2019_mc16a_v1.0_output_root/user.jhall.19578465._000017.output.root
/eos/user/j/jhall/BTagging/Productions/October19_ntuples/mc16a/user.jhall.410472.PhPy8EG.DAOD_FTAG2.e6348_a875_r9364_p3970.AT21.2.93_28.10.2019_mc16a_v1.0_output_root/user.jhall.19578465._000018.output.root
/eos/user/j/jhall/BTagging/Productions/October19_ntuples/mc16a/user.jhall.410472.PhPy8EG.DAOD_FTAG2.e6348_a875_r9364_p3970.AT21.2.93_28.10.2019_mc16a_v1.0_output_root/user.jhall.19578465._000019.output.root
/eos/user/j/jhall/BTagging/Productions/October19_ntuples/mc16a/user.jhall.410472.PhPy8EG.DAOD_FTAG2.e6348_a875_r9364_p3970.AT21.2.93_28.10.2019_mc16a_v1.0_output_root/user.jhall.19578465._000020.output.root
/eos/user/j/jhall/BTagging/Productions/October19_ntuples/mc16a/user.jhall.410472.PhPy8EG.DAOD_FTAG2.e6348_a875_r9364_p3970.AT21.2.93_28.10.2019_mc16a_v1.0_output_root/user.jhall.19578465._000021.output.root
/eos/user/j/jhall/BTagging/Productions/October19_ntuples/mc16a/user.jhall.410472.PhPy8EG.DAOD_FTAG2.e6348_a875_r9364_p3970.AT21.2.93_28.10.2019_mc16a_v1.0_output_root/user.jhall.19578465._000022.output.root
/eos/user/j/jhall/BTagging/Productions/October19_ntuples/mc16a/user.jhall.410472.PhPy8EG.DAOD_FTAG2.e6348_a875_r9364_p3970.AT21.2.93_28.10.2019_mc16a_v1.0_output_root/user.jhall.19578465._000023.output.root
/eos/user/j/jhall/BTagging/Productions/October19_ntuples/mc16a/user.jhall.410472.PhPy8EG.DAOD_FTAG2.e6348_a875_r9364_p3970.AT21.2.93_28.10.2019_mc16a_v1.0_output_root/user.jhall.19578465._000024.output.root
/eos/user/j/jhall/BTagging/Productions/October19_ntuples/mc16a/user.jhall.410472.PhPy8EG.DAOD_FTAG2.e6348_a875_r9364_p3970.AT21.2.93_28.10.2019_mc16a_v1.0_output_root/user.jhall.19578465._000025.output.root
/eos/user/j/jhall/BTagging/Productions/October19_ntuples/mc16a/user.jhall.410472.PhPy8EG.DAOD_FTAG2.e6348_a875_r9364_p3970.AT21.2.93_28.10.2019_mc16a_v1.0_output_root/user.jhall.19578465._000026.output.root
/eos/user/j/jhall/BTagging/Productions/October19_ntuples/mc16a/user.jhall.410472.PhPy8EG.DAOD_FTAG2.e6348_a875_r9364_p3970.AT21.2.93_28.10.2019_mc16a_v1.0_output_root/user.jhall.19578465._000027.output.root
/eos/user/j/jhall/BTagging/Productions/October19_ntuples/mc16a/user.jhall.410472.PhPy8EG.DAOD_FTAG2.e6348_a875_r9364_p3970.AT21.2.93_28.10.2019_mc16a_v1.0_output_root/user.jhall.19578465._000028.output.root
/eos/user/j/jhall/BTagging/Productions/October19_ntuples/mc16a/user.jhall.410472.PhPy8EG.DAOD_FTAG2.e6348_a875_r9364_p3970.AT21.2.93_28.10.2019_mc16a_v1.0_output_root/user.jhall.19578465._000029.output.root
/eos/user/j/jhall/BTagging/Productions/October19_ntuples/mc16a/user.jhall.410472.PhPy8EG.DAOD_FTAG2.e6348_a875_r9364_p3970.AT21.2.93_28.10.2019_mc16a_v1.0_output_root/user.jhall.19578465._000030.output.root
/eos/user/j/jhall/BTagging/Productions/October19_ntuples/mc16a/user.jhall.410472.PhPy8EG.DAOD_FTAG2.e6348_a875_r9364_p3970.AT21.2.93_28.10.2019_mc16a_v1.0_output_root/user.jhall.19578465._000031.output.root
/eos/user/j/jhall/BTagging/Productions/October19_ntuples/mc16a/user.jhall.410472.PhPy8EG.DAOD_FTAG2.e6348_a875_r9364_p3970.AT21.2.93_28.10.2019_mc16a_v1.0_output_root/user.jhall.19578465._000033.output.root
/eos/user/j/jhall/BTagging/Productions/October19_ntuples/mc16a/user.jhall.410472.PhPy8EG.DAOD_FTAG2.e6348_a875_r9364_p3970.AT21.2.93_28.10.2019_mc16a_v1.0_output_root/user.jhall.19578465._000034.output.root
/eos/user/j/jhall/BTagging/Productions/October19_ntuples/mc16a/user.jhall.410472.PhPy8EG.DAOD_FTAG2.e6348_a875_r9364_p3970.AT21.2.93_28.10.2019_mc16a_v1.0_output_root/user.jhall.19578465._000035.output.root
/eos/user/j/jhall/BTagging/Productions/October19_ntuples/mc16a/user.jhall.410472.PhPy8EG.DAOD_FTAG2.e6348_a875_r9364_p3970.AT21.2.93_28.10.2019_mc16a_v1.0_output_root/user.jhall.19578465._000036.output.root
/eos/user/j/jhall/BTagging/Productions/October19_ntuples/mc16a/user.jhall.410472.PhPy8EG.DAOD_FTAG2.e6348_a875_r9364_p3970.AT21.2.93_28.10.2019_mc16a_v1.0_output_root/user.jhall.19578465._000037.output.root
/eos/user/j/jhall/BTagging/Productions/October19_ntuples/mc16a/user.jhall.410472.PhPy8EG.DAOD_FTAG2.e6348_a875_r9364_p3970.AT21.2.93_28.10.2019_mc16a_v1.0_output_root/user.jhall.19578465._000038.output.root
/eos/user/j/jhall/BTagging/Productions/October19_ntuples/mc16a/user.jhall.410472.PhPy8EG.DAOD_FTAG2.e6348_a875_r9364_p3970.AT21.2.93_28.10.2019_mc16a_v1.0_output_root/user.jhall.19578465._000039.output.root
/eos/user/j/jhall/BTagging/Productions/October19_ntuples/mc16a/user.jhall.410472.PhPy8EG.DAOD_FTAG2.e6348_a875_r9364_p3970.AT21.2.93_28.10.2019_mc16a_v1.0_output_root/user.jhall.19578465._000040.output.root
/eos/user/j/jhall/BTagging/Productions/October19_ntuples/mc16a/user.jhall.410472.PhPy8EG.DAOD_FTAG2.e6348_a875_r9364_p3970.AT21.2.93_28.10.2019_mc16a_v1.0_output_root/user.jhall.19578465._000041.output.root
/eos/user/j/jhall/BTagging/Productions/October19_ntuples/mc16a/user.jhall.410472.PhPy8EG.DAOD_FTAG2.e6348_a875_r9364_p3970.AT21.2.93_28.10.2019_mc16a_v1.0_output_root/user.jhall.19578465._000043.output.root
/eos/user/j/jhall/BTagging/Productions/October19_ntuples/mc16a/user.jhall.410472.PhPy8EG.DAOD_FTAG2.e6348_a875_r9364_p3970.AT21.2.93_28.10.2019_mc16a_v1.0_output_root/user.jhall.19578465._000044.output.root
/eos/user/j/jhall/BTagging/Productions/October19_ntuples/mc16a/user.jhall.410472.PhPy8EG.DAOD_FTAG2.e6348_a875_r9364_p3970.AT21.2.93_28.10.2019_mc16a_v1.0_output_root/user.jhall.19578465._000045.output.root
/eos/user/j/jhall/BTagging/Productions/October19_ntuples/mc16a/user.jhall.410472.PhPy8EG.DAOD_FTAG2.e6348_a875_r9364_p3970.AT21.2.93_28.10.2019_mc16a_v1.0_output_root/user.jhall.19578465._000046.output.root
/eos/user/j/jhall/BTagging/Productions/October19_ntuples/mc16a/user.jhall.410472.PhPy8EG.DAOD_FTAG2.e6348_a875_r9364_p3970.AT21.2.93_28.10.2019_mc16a_v1.0_output_root/user.jhall.19578465._000047.output.root
/eos/user/j/jhall/BTagging/Productions/October19_ntuples/mc16a/user.jhall.410472.PhPy8EG.DAOD_FTAG2.e6348_a875_r9364_p3970.AT21.2.93_28.10.2019_mc16a_v1.0_output_root/user.jhall.19578465._000049.output.root
/eos/user/j/jhall/BTagging/Productions/October19_ntuples/mc16a/user.jhall.410472.PhPy8EG.DAOD_FTAG2.e6348_a875_r9364_p3970.AT21.2.93_28.10.2019_mc16a_v1.0_output_root/user.jhall.19578465._000050.output.root
/eos/user/j/jhall/BTagging/Productions/October19_ntuples/mc16a/user.jhall.410472.PhPy8EG.DAOD_FTAG2.e6348_a875_r9364_p3970.AT21.2.93_28.10.2019_mc16a_v1.0_output_root/user.jhall.19578465._000051.output.root
/eos/user/j/jhall/BTagging/Productions/October19_ntuples/mc16a/user.jhall.410472.PhPy8EG.DAOD_FTAG2.e6348_a875_r9364_p3970.AT21.2.93_28.10.2019_mc16a_v1.0_output_root/user.jhall.19578465._000052.output.root
/eos/user/j/jhall/BTagging/Productions/October19_ntuples/mc16a/user.jhall.410472.PhPy8EG.DAOD_FTAG2.e6348_a875_r9364_p3970.AT21.2.93_28.10.2019_mc16a_v1.0_output_root/user.jhall.19578465._000053.output.root
/eos/user/j/jhall/BTagging/Productions/October19_ntuples/mc16a/user.jhall.410472.PhPy8EG.DAOD_FTAG2.e6348_a875_r9364_p3970.AT21.2.93_28.10.2019_mc16a_v1.0_output_root/user.jhall.19578465._000054.output.root
/eos/user/j/jhall/BTagging/Productions/October19_ntuples/mc16a/user.jhall.410472.PhPy8EG.DAOD_FTAG2.e6348_a875_r9364_p3970.AT21.2.93_28.10.2019_mc16a_v1.0_output_root/user.jhall.19578465._000055.output.root
/eos/user/j/jhall/BTagging/Productions/October19_ntuples/mc16a/user.jhall.410472.PhPy8EG.DAOD_FTAG2.e6348_a875_r9364_p3970.AT21.2.93_28.10.2019_mc16a_v1.0_output_root/user.jhall.19578465._000056.output.root
/eos/user/j/jhall/BTagging/Productions/October19_ntuples/mc16a/user.jhall.410472.PhPy8EG.DAOD_FTAG2.e6348_a875_r9364_p3970.AT21.2.93_28.10.2019_mc16a_v1.0_output_root/user.jhall.19578465._000057.output.root
/eos/user/j/jhall/BTagging/Productions/October19_ntuples/mc16a/user.jhall.410472.PhPy8EG.DAOD_FTAG2.e6348_a875_r9364_p3970.AT21.2.93_28.10.2019_mc16a_v1.0_output_root/user.jhall.19578465._000058.output.root
/eos/user/j/jhall/BTagging/Productions/October19_ntuples/mc16a/user.jhall.410472.PhPy8EG.DAOD_FTAG2.e6348_a875_r9364_p3970.AT21.2.93_28.10.2019_mc16a_v1.0_output_root/user.jhall.19578465._000060.output.root
/eos/user/j/jhall/BTagging/Productions/October19_ntuples/mc16a/user.jhall.410472.PhPy8EG.DAOD_FTAG2.e6348_a875_r9364_p3970.AT21.2.93_28.10.2019_mc16a_v1.0_output_root/user.jhall.19578465._000061.output.root
/eos/user/j/jhall/BTagging/Productions/October19_ntuples/mc16a/user.jhall.410472.PhPy8EG.DAOD_FTAG2.e6348_a875_r9364_p3970.AT21.2.93_28.10.2019_mc16a_v1.0_output_root/user.jhall.19578465._000062.output.root
/eos/user/j/jhall/BTagging/Productions/October19_ntuples/mc16a/user.jhall.410472.PhPy8EG.DAOD_FTAG2.e6348_a875_r9364_p3970.AT21.2.93_28.10.2019_mc16a_v1.0_output_root/user.jhall.19578465._000063.output.root
/eos/user/j/jhall/BTagging/Productions/October19_ntuples/mc16a/user.jhall.410472.PhPy8EG.DAOD_FTAG2.e6348_a875_r9364_p3970.AT21.2.93_28.10.2019_mc16a_v1.0_output_root/user.jhall.19578465._000064.output.root
/eos/user/j/jhall/BTagging/Productions/October19_ntuples/mc16a/user.jhall.410472.PhPy8EG.DAOD_FTAG2.e6348_a875_r9364_p3970.AT21.2.93_28.10.2019_mc16a_v1.0_output_root/user.jhall.19578465._000065.output.root
/eos/user/j/jhall/BTagging/Productions/October19_ntuples/mc16a/user.jhall.410472.PhPy8EG.DAOD_FTAG2.e6348_a875_r9364_p3970.AT21.2.93_28.10.2019_mc16a_v1.0_output_root/user.jhall.19578465._000066.output.root
/eos/user/j/jhall/BTagging/Productions/October19_ntuples/mc16a/user.jhall.410472.PhPy8EG.DAOD_FTAG2.e6348_a875_r9364_p3970.AT21.2.93_28.10.2019_mc16a_v1.0_output_root/user.jhall.19578465._000067.output.root
/eos/user/j/jhall/BTagging/Productions/October19_ntuples/mc16a/user.jhall.410472.PhPy8EG.DAOD_FTAG2.e6348_a875_r9364_p3970.AT21.2.93_28.10.2019_mc16a_v1.0_output_root/user.jhall.19578465._000068.output.root
/eos/user/j/jhall/BTagging/Productions/October19_ntuples/mc16a/user.jhall.410472.PhPy8EG.DAOD_FTAG2.e6348_a875_r9364_p3970.AT21.2.93_28.10.2019_mc16a_v1.0_output_root/user.jhall.19578465._000069.output.root
/eos/user/j/jhall/BTagging/Productions/October19_ntuples/mc16a/user.jhall.410472.PhPy8EG.DAOD_FTAG2.e6348_a875_r9364_p3970.AT21.2.93_28.10.2019_mc16a_v1.0_output_root/user.jhall.19578465._000070.output.root
/eos/user/j/jhall/BTagging/Productions/October19_ntuples/mc16a/user.jhall.410472.PhPy8EG.DAOD_FTAG2.e6348_a875_r9364_p3970.AT21.2.93_28.10.2019_mc16a_v1.0_output_root/user.jhall.19578465._000071.output.root
/eos/user/j/jhall/BTagging/Productions/October19_ntuples/mc16a/user.jhall.410472.PhPy8EG.DAOD_FTAG2.e6348_a875_r9364_p3970.AT21.2.93_28.10.2019_mc16a_v1.0_output_root/user.jhall.19578465._000072.output.root
/eos/user/j/jhall/BTagging/Productions/October19_ntuples/mc16a/user.jhall.410472.PhPy8EG.DAOD_FTAG2.e6348_a875_r9364_p3970.AT21.2.93_28.10.2019_mc16a_v1.0_output_root/user.jhall.19578465._000073.output.root
/eos/user/j/jhall/BTagging/Productions/October19_ntuples/mc16a/user.jhall.410472.PhPy8EG.DAOD_FTAG2.e6348_a875_r9364_p3970.AT21.2.93_28.10.2019_mc16a_v1.0_output_root/user.jhall.19578465._000075.output.root
/eos/user/j/jhall/BTagging/Productions/October19_ntuples/mc16a/user.jhall.410472.PhPy8EG.DAOD_FTAG2.e6348_a875_r9364_p3970.AT21.2.93_28.10.2019_mc16a_v1.0_output_root/user.jhall.19578465._000076.output.root
/eos/user/j/jhall/BTagging/Productions/October19_ntuples/mc16a/user.jhall.410472.PhPy8EG.DAOD_FTAG2.e6348_a875_r9364_p3970.AT21.2.93_28.10.2019_mc16a_v1.0_output_root/user.jhall.19578465._000077.output.root
/eos/user/j/jhall/BTagging/Productions/October19_ntuples/mc16a/user.jhall.410472.PhPy8EG.DAOD_FTAG2.e6348_a875_r9364_p3970.AT21.2.93_28.10.2019_mc16a_v1.0_output_root/user.jhall.19578465._000078.output.root
/eos/user/j/jhall/BTagging/Productions/October19_ntuples/mc16a/user.jhall.410472.PhPy8EG.DAOD_FTAG2.e6348_a875_r9364_p3970.AT21.2.93_28.10.2019_mc16a_v1.0_output_root/user.jhall.19578465._000079.output.root
/eos/user/j/jhall/BTagging/Productions/October19_ntuples/mc16a/user.jhall.410472.PhPy8EG.DAOD_FTAG2.e6348_a875_r9364_p3970.AT21.2.93_28.10.2019_mc16a_v1.0_output_root/user.jhall.19578465._000080.output.root
/eos/user/j/jhall/BTagging/Productions/October19_ntuples/mc16a/user.jhall.410472.PhPy8EG.DAOD_FTAG2.e6348_a875_r9364_p3970.AT21.2.93_28.10.2019_mc16a_v1.0_output_root/user.jhall.19578465._000081.output.root
/eos/user/j/jhall/BTagging/Productions/October19_ntuples/mc16a/user.jhall.410472.PhPy8EG.DAOD_FTAG2.e6348_a875_r9364_p3970.AT21.2.93_28.10.2019_mc16a_v1.0_output_root/user.jhall.19578465._000083.output.root
/eos/user/j/jhall/BTagging/Productions/October19_ntuples/mc16a/user.jhall.410472.PhPy8EG.DAOD_FTAG2.e6348_a875_r9364_p3970.AT21.2.93_28.10.2019_mc16a_v1.0_output_root/user.jhall.19578465._000084.output.root
/eos/user/j/jhall/BTagging/Productions/October19_ntuples/mc16a/user.jhall.410472.PhPy8EG.DAOD_FTAG2.e6348_a875_r9364_p3970.AT21.2.93_28.10.2019_mc16a_v1.0_output_root/user.jhall.19578465._000085.output.root
/eos/user/j/jhall/BTagging/Productions/October19_ntuples/mc16a/user.jhall.410472.PhPy8EG.DAOD_FTAG2.e6348_a875_r9364_p3970.AT21.2.93_28.10.2019_mc16a_v1.0_output_root/user.jhall.19578465._000086.output.root
/eos/user/j/jhall/BTagging/Productions/October19_ntuples/mc16a/user.jhall.410472.PhPy8EG.DAOD_FTAG2.e6348_a875_r9364_p3970.AT21.2.93_28.10.2019_mc16a_v1.0_output_root/user.jhall.19578465._000087.output.root
/eos/user/j/jhall/BTagging/Productions/October19_ntuples/mc16a/user.jhall.410472.PhPy8EG.DAOD_FTAG2.e6348_a875_r9364_p3970.AT21.2.93_28.10.2019_mc16a_v1.0_output_root/user.jhall.19578465._000088.output.root
/eos/user/j/jhall/BTagging/Productions/October19_ntuples/mc16a/user.jhall.410472.PhPy8EG.DAOD_FTAG2.e6348_a875_r9364_p3970.AT21.2.93_28.10.2019_mc16a_v1.0_output_root/user.jhall.19578465._000089.output.root
/eos/user/j/jhall/BTagging/Productions/October19_ntuples/mc16a/user.jhall.410472.PhPy8EG.DAOD_FTAG2.e6348_a875_r9364_p3970.AT21.2.93_28.10.2019_mc16a_v1.0_output_root/user.jhall.19578465._000090.output.root
/eos/user/j/jhall/BTagging/Productions/October19_ntuples/mc16a/user.jhall.410472.PhPy8EG.DAOD_FTAG2.e6348_a875_r9364_p3970.AT21.2.93_28.10.2019_mc16a_v1.0_output_root/user.jhall.19578465._000091.output.root
/eos/user/j/jhall/BTagging/Productions/October19_ntuples/mc16a/user.jhall.410472.PhPy8EG.DAOD_FTAG2.e6348_a875_r9364_p3970.AT21.2.93_28.10.2019_mc16a_v1.0_output_root/user.jhall.19578465._000092.output.root
/eos/user/j/jhall/BTagging/Productions/October19_ntuples/mc16a/user.jhall.410472.PhPy8EG.DAOD_FTAG2.e6348_a875_r9364_p3970.AT21.2.93_28.10.2019_mc16a_v1.0_output_root/user.jhall.19578465._000093.output.root
/eos/user/j/jhall/BTagging/Productions/October19_ntuples/mc16a/user.jhall.410472.PhPy8EG.DAOD_FTAG2.e6348_a875_r9364_p3970.AT21.2.93_28.10.2019_mc16a_v1.0_output_root/user.jhall.19578465._000094.output.root
/eos/user/j/jhall/BTagging/Productions/October19_ntuples/mc16a/user.jhall.410472.PhPy8EG.DAOD_FTAG2.e6348_a875_r9364_p3970.AT21.2.93_28.10.2019_mc16a_v1.0_output_root/user.jhall.19578465._000095.output.root
/eos/user/j/jhall/BTagging/Productions/October19_ntuples/mc16a/user.jhall.410472.PhPy8EG.DAOD_FTAG2.e6348_a875_r9364_p3970.AT21.2.93_28.10.2019_mc16a_v1.0_output_root/user.jhall.19578465._000096.output.root
/eos/user/j/jhall/BTagging/Productions/October19_ntuples/mc16a/user.jhall.410472.PhPy8EG.DAOD_FTAG2.e6348_a875_r9364_p3970.AT21.2.93_28.10.2019_mc16a_v1.0_output_root/user.jhall.19578465._000097.output.root
/eos/user/j/jhall/BTagging/Productions/October19_ntuples/mc16a/user.jhall.410472.PhPy8EG.DAOD_FTAG2.e6348_a875_r9364_p3970.AT21.2.93_28.10.2019_mc16a_v1.0_output_root/user.jhall.19578465._000098.output.root
/eos/user/j/jhall/BTagging/Productions/October19_ntuples/mc16a/user.jhall.410472.PhPy8EG.DAOD_FTAG2.e6348_a875_r9364_p3970.AT21.2.93_28.10.2019_mc16a_v1.0_output_root/user.jhall.19578465._000099.output.root
/eos/user/j/jhall/BTagging/Productions/October19_ntuples/mc16a/user.jhall.410472.PhPy8EG.DAOD_FTAG2.e6348_a875_r9364_p3970.AT21.2.93_28.10.2019_mc16a_v1.0_output_root/user.jhall.19578465._000100.output.root
/eos/user/j/jhall/BTagging/Productions/October19_ntuples/mc16a/user.jhall.410472.PhPy8EG.DAOD_FTAG2.e6348_a875_r9364_p3970.AT21.2.93_28.10.2019_mc16a_v1.0_output_root/user.jhall.19578465._000101.output.root
/eos/user/j/jhall/BTagging/Productions/October19_ntuples/mc16a/user.jhall.410472.PhPy8EG.DAOD_FTAG2.e6348_a875_r9364_p3970.AT21.2.93_28.10.2019_mc16a_v1.0_output_root/user.jhall.19578465._000102.output.root
/eos/user/j/jhall/BTagging/Productions/October19_ntuples/mc16a/user.jhall.410472.PhPy8EG.DAOD_FTAG2.e6348_a875_r9364_p3970.AT21.2.93_28.10.2019_mc16a_v1.0_output_root/user.jhall.19578465._000103.output.root
/eos/user/j/jhall/BTagging/Productions/October19_ntuples/mc16a/user.jhall.410472.PhPy8EG.DAOD_FTAG2.e6348_a875_r9364_p3970.AT21.2.93_28.10.2019_mc16a_v1.0_output_root/user.jhall.19578465._000104.output.root
/eos/user/j/jhall/BTagging/Productions/October19_ntuples/mc16a/user.jhall.410472.PhPy8EG.DAOD_FTAG2.e6348_a875_r9364_p3970.AT21.2.93_28.10.2019_mc16a_v1.0_output_root/user.jhall.19578465._000105.output.root
/eos/user/j/jhall/BTagging/Productions/October19_ntuples/mc16a/user.jhall.410472.PhPy8EG.DAOD_FTAG2.e6348_a875_r9364_p3970.AT21.2.93_28.10.2019_mc16a_v1.0_output_root/user.jhall.19578465._000106.output.root
/eos/user/j/jhall/BTagging/Productions/October19_ntuples/mc16a/user.jhall.410472.PhPy8EG.DAOD_FTAG2.e6348_a875_r9364_p3970.AT21.2.93_28.10.2019_mc16a_v1.0_output_root/user.jhall.19578465._000107.output.root
/eos/user/j/jhall/BTagging/Productions/October19_ntuples/mc16a/user.jhall.410472.PhPy8EG.DAOD_FTAG2.e6348_a875_r9364_p3970.AT21.2.93_28.10.2019_mc16a_v1.0_output_root/user.jhall.19578465._000108.output.root
/eos/user/j/jhall/BTagging/Productions/October19_ntuples/mc16a/user.jhall.410472.PhPy8EG.DAOD_FTAG2.e6348_a875_r9364_p3970.AT21.2.93_28.10.2019_mc16a_v1.0_output_root/user.jhall.19578465._000109.output.root
/eos/user/j/jhall/BTagging/Productions/October19_ntuples/mc16a/user.jhall.410472.PhPy8EG.DAOD_FTAG2.e6348_a875_r9364_p3970.AT21.2.93_28.10.2019_mc16a_v1.0_output_root/user.jhall.19578465._000110.output.root
/eos/user/j/jhall/BTagging/Productions/October19_ntuples/mc16a/user.jhall.410472.PhPy8EG.DAOD_FTAG2.e6348_a875_r9364_p3970.AT21.2.93_28.10.2019_mc16a_v1.0_output_root/user.jhall.19578465._000111.output.root
/eos/user/j/jhall/BTagging/Productions/October19_ntuples/mc16a/user.jhall.410472.PhPy8EG.DAOD_FTAG2.e6348_a875_r9364_p3970.AT21.2.93_28.10.2019_mc16a_v1.0_output_root/user.jhall.19578465._000112.output.root
/eos/user/j/jhall/BTagging/Productions/October19_ntuples/mc16a/user.jhall.410472.PhPy8EG.DAOD_FTAG2.e6348_a875_r9364_p3970.AT21.2.93_28.10.2019_mc16a_v1.0_output_root/user.jhall.19578465._000113.output.root
/eos/user/j/jhall/BTagging/Productions/October19_ntuples/mc16a/user.jhall.410472.PhPy8EG.DAOD_FTAG2.e6348_a875_r9364_p3970.AT21.2.93_28.10.2019_mc16a_v1.0_output_root/user.jhall.19578465._000114.output.root
/eos/user/j/jhall/BTagging/Productions/October19_ntuples/mc16a/user.jhall.410472.PhPy8EG.DAOD_FTAG2.e6348_a875_r9364_p3970.AT21.2.93_28.10.2019_mc16a_v1.0_output_root/user.jhall.19578465._000115.output.root
/eos/user/j/jhall/BTagging/Productions/October19_ntuples/mc16a/user.jhall.410472.PhPy8EG.DAOD_FTAG2.e6348_a875_r9364_p3970.AT21.2.93_28.10.2019_mc16a_v1.0_output_root/user.jhall.19578465._000116.output.root
/eos/user/j/jhall/BTagging/Productions/October19_ntuples/mc16a/user.jhall.410472.PhPy8EG.DAOD_FTAG2.e6348_a875_r9364_p3970.AT21.2.93_28.10.2019_mc16a_v1.0_output_root/user.jhall.19578465._000117.output.root
/eos/user/j/jhall/BTagging/Productions/October19_ntuples/mc16a/user.jhall.410472.PhPy8EG.DAOD_FTAG2.e6348_a875_r9364_p3970.AT21.2.93_28.10.2019_mc16a_v1.0_output_root/user.jhall.19578465._000118.output.root
/eos/user/j/jhall/BTagging/Productions/October19_ntuples/mc16a/user.jhall.410472.PhPy8EG.DAOD_FTAG2.e6348_a875_r9364_p3970.AT21.2.93_28.10.2019_mc16a_v1.0_output_root/user.jhall.19578465._000119.output.root
/eos/user/j/jhall/BTagging/Productions/October19_ntuples/mc16a/user.jhall.410472.PhPy8EG.DAOD_FTAG2.e6348_a875_r9364_p3970.AT21.2.93_28.10.2019_mc16a_v1.0_output_root/user.jhall.19578465._000120.output.root
/eos/user/j/jhall/BTagging/Productions/October19_ntuples/mc16a/user.jhall.410472.PhPy8EG.DAOD_FTAG2.e6348_a875_r9364_p3970.AT21.2.93_28.10.2019_mc16a_v1.0_output_root/user.jhall.19578465._000121.output.root
/eos/user/j/jhall/BTagging/Productions/October19_ntuples/mc16a/user.jhall.410472.PhPy8EG.DAOD_FTAG2.e6348_a875_r9364_p3970.AT21.2.93_28.10.2019_mc16a_v1.0_output_root/user.jhall.19578465._000123.output.root
/eos/user/j/jhall/BTagging/Productions/October19_ntuples/mc16a/user.jhall.410472.PhPy8EG.DAOD_FTAG2.e6348_a875_r9364_p3970.AT21.2.93_28.10.2019_mc16a_v1.0_output_root/user.jhall.19578465._000124.output.root
/eos/user/j/jhall/BTagging/Productions/October19_ntuples/mc16a/user.jhall.410472.PhPy8EG.DAOD_FTAG2.e6348_a875_r9364_p3970.AT21.2.93_28.10.2019_mc16a_v1.0_output_root/user.jhall.19578465._000125.output.root
/eos/user/j/jhall/BTagging/Productions/October19_ntuples/mc16a/user.jhall.410472.PhPy8EG.DAOD_FTAG2.e6348_a875_r9364_p3970.AT21.2.93_28.10.2019_mc16a_v1.0_output_root/user.jhall.19578465._000127.output.root
/eos/user/j/jhall/BTagging/Productions/October19_ntuples/mc16a/user.jhall.410472.PhPy8EG.DAOD_FTAG2.e6348_a875_r9364_p3970.AT21.2.93_28.10.2019_mc16a_v1.0_output_root/user.jhall.19578465._000131.output.root
/eos/user/j/jhall/BTagging/Productions/October19_ntuples/mc16a/user.jhall.410472.PhPy8EG.DAOD_FTAG2.e6348_a875_r9364_p3970.AT21.2.93_28.10.2019_mc16a_v1.0_output_root/user.jhall.19578465._000132.output.root
/eos/user/j/jhall/BTagging/Productions/October19_ntuples/mc16a/user.jhall.410472.PhPy8EG.DAOD_FTAG2.e6348_a875_r9364_p3970.AT21.2.93_28.10.2019_mc16a_v1.0_output_root/user.jhall.19578465._000133.output.root
/eos/user/j/jhall/BTagging/Productions/October19_ntuples/mc16a/user.jhall.410472.PhPy8EG.DAOD_FTAG2.e6348_a875_r9364_p3970.AT21.2.93_28.10.2019_mc16a_v1.0_output_root/user.jhall.19578465._000135.output.root
/eos/user/j/jhall/BTagging/Productions/October19_ntuples/mc16a/user.jhall.410472.PhPy8EG.DAOD_FTAG2.e6348_a875_r9364_p3970.AT21.2.93_28.10.2019_mc16a_v1.0_output_root/user.jhall.19578465._000136.output.root
/eos/user/j/jhall/BTagging/Productions/October19_ntuples/mc16a/user.jhall.410472.PhPy8EG.DAOD_FTAG2.e6348_a875_r9364_p3970.AT21.2.93_28.10.2019_mc16a_v1.0_output_root/user.jhall.19578465._000137.output.root
/eos/user/j/jhall/BTagging/Productions/October19_ntuples/mc16a/user.jhall.410472.PhPy8EG.DAOD_FTAG2.e6348_a875_r9364_p3970.AT21.2.93_28.10.2019_mc16a_v1.0_output_root/user.jhall.19578465._000138.output.root
/eos/user/j/jhall/BTagging/Productions/October19_ntuples/mc16a/user.jhall.410472.PhPy8EG.DAOD_FTAG2.e6348_a875_r9364_p3970.AT21.2.93_28.10.2019_mc16a_v1.0_output_root/user.jhall.19578465._000139.output.root
/eos/user/j/jhall/BTagging/Productions/October19_ntuples/mc16a/user.jhall.410472.PhPy8EG.DAOD_FTAG2.e6348_a875_r9364_p3970.AT21.2.93_28.10.2019_mc16a_v1.0_output_root/user.jhall.19578465._000140.output.root
/eos/user/j/jhall/BTagging/Productions/October19_ntuples/mc16a/user.jhall.410472.PhPy8EG.DAOD_FTAG2.e6348_a875_r9364_p3970.AT21.2.93_28.10.2019_mc16a_v1.0_output_root/user.jhall.19578465._000141.output.root
/eos/user/j/jhall/BTagging/Productions/October19_ntuples/mc16a/user.jhall.410472.PhPy8EG.DAOD_FTAG2.e6348_a875_r9364_p3970.AT21.2.93_28.10.2019_mc16a_v1.0_output_root/user.jhall.19578465._000142.output.root
/eos/user/j/jhall/BTagging/Productions/October19_ntuples/mc16a/user.jhall.410472.PhPy8EG.DAOD_FTAG2.e6348_a875_r9364_p3970.AT21.2.93_28.10.2019_mc16a_v1.0_output_root/user.jhall.19578465._000143.output.root
/eos/user/j/jhall/BTagging/Productions/October19_ntuples/mc16a/user.jhall.410472.PhPy8EG.DAOD_FTAG2.e6348_a875_r9364_p3970.AT21.2.93_28.10.2019_mc16a_v1.0_output_root/user.jhall.19578465._000144.output.root
/eos/user/j/jhall/BTagging/Productions/October19_ntuples/mc16a/user.jhall.410472.PhPy8EG.DAOD_FTAG2.e6348_a875_r9364_p3970.AT21.2.93_28.10.2019_mc16a_v1.0_output_root/user.jhall.19578465._000145.output.root
/eos/user/j/jhall/BTagging/Productions/October19_ntuples/mc16a/user.jhall.410472.PhPy8EG.DAOD_FTAG2.e6348_a875_r9364_p3970.AT21.2.93_28.10.2019_mc16a_v1.0_output_root/user.jhall.19578465._000146.output.root
/eos/user/j/jhall/BTagging/Productions/October19_ntuples/mc16a/user.jhall.410472.PhPy8EG.DAOD_FTAG2.e6348_a875_r9364_p3970.AT21.2.93_28.10.2019_mc16a_v1.0_output_root/user.jhall.19578465._000147.output.root
/eos/user/j/jhall/BTagging/Productions/October19_ntuples/mc16a/user.jhall.410472.PhPy8EG.DAOD_FTAG2.e6348_a875_r9364_p3970.AT21.2.93_28.10.2019_mc16a_v1.0_output_root/user.jhall.19578465._000148.output.root
/eos/user/j/jhall/BTagging/Productions/October19_ntuples/mc16a/user.jhall.410472.PhPy8EG.DAOD_FTAG2.e6348_a875_r9364_p3970.AT21.2.93_28.10.2019_mc16a_v1.0_output_root/user.jhall.19578465._000149.output.root
/eos/user/j/jhall/BTagging/Productions/October19_ntuples/mc16a/user.jhall.410472.PhPy8EG.DAOD_FTAG2.e6348_a875_r9364_p3970.AT21.2.93_28.10.2019_mc16a_v1.0_output_root/user.jhall.19578465._000151.output.root
/eos/user/j/jhall/BTagging/Productions/October19_ntuples/mc16a/user.jhall.410472.PhPy8EG.DAOD_FTAG2.e6348_a875_r9364_p3970.AT21.2.93_28.10.2019_mc16a_v1.0_output_root/user.jhall.19578465._000152.output.root
/eos/user/j/jhall/BTagging/Productions/October19_ntuples/mc16a/user.jhall.410472.PhPy8EG.DAOD_FTAG2.e6348_a875_r9364_p3970.AT21.2.93_28.10.2019_mc16a_v1.0_output_root/user.jhall.19578465._000153.output.root
/eos/user/j/jhall/BTagging/Productions/October19_ntuples/mc16a/user.jhall.410472.PhPy8EG.DAOD_FTAG2.e6348_a875_r9364_p3970.AT21.2.93_28.10.2019_mc16a_v1.0_output_root/user.jhall.19578465._000154.output.root
/eos/user/j/jhall/BTagging/Productions/October19_ntuples/mc16a/user.jhall.410472.PhPy8EG.DAOD_FTAG2.e6348_a875_r9364_p3970.AT21.2.93_28.10.2019_mc16a_v1.0_output_root/user.jhall.19578465._000155.output.root
/eos/user/j/jhall/BTagging/Productions/October19_ntuples/mc16a/user.jhall.410472.PhPy8EG.DAOD_FTAG2.e6348_a875_r9364_p3970.AT21.2.93_28.10.2019_mc16a_v1.0_output_root/user.jhall.19578465._000156.output.root
/eos/user/j/jhall/BTagging/Productions/October19_ntuples/mc16a/user.jhall.410472.PhPy8EG.DAOD_FTAG2.e6348_a875_r9364_p3970.AT21.2.93_28.10.2019_mc16a_v1.0_output_root/user.jhall.19578465._000157.output.root
/eos/user/j/jhall/BTagging/Productions/October19_ntuples/mc16a/user.jhall.410472.PhPy8EG.DAOD_FTAG2.e6348_a875_r9364_p3970.AT21.2.93_28.10.2019_mc16a_v1.0_output_root/user.jhall.19578465._000158.output.root
/eos/user/j/jhall/BTagging/Productions/October19_ntuples/mc16a/user.jhall.410472.PhPy8EG.DAOD_FTAG2.e6348_a875_r9364_p3970.AT21.2.93_28.10.2019_mc16a_v1.0_output_root/user.jhall.19578465._000159.output.root
/eos/user/j/jhall/BTagging/Productions/October19_ntuples/mc16a/user.jhall.410472.PhPy8EG.DAOD_FTAG2.e6348_a875_r9364_p3970.AT21.2.93_28.10.2019_mc16a_v1.0_output_root/user.jhall.19578465._000160.output.root
/eos/user/j/jhall/BTagging/Productions/October19_ntuples/mc16a/user.jhall.410472.PhPy8EG.DAOD_FTAG2.e6348_a875_r9364_p3970.AT21.2.93_28.10.2019_mc16a_v1.0_output_root/user.jhall.19578465._000161.output.root
/eos/user/j/jhall/BTagging/Productions/October19_ntuples/mc16a/user.jhall.410472.PhPy8EG.DAOD_FTAG2.e6348_a875_r9364_p3970.AT21.2.93_28.10.2019_mc16a_v1.0_output_root/user.jhall.19578465._000162.output.root
/eos/user/j/jhall/BTagging/Productions/October19_ntuples/mc16a/user.jhall.410472.PhPy8EG.DAOD_FTAG2.e6348_a875_r9364_p3970.AT21.2.93_28.10.2019_mc16a_v1.0_output_root/user.jhall.19578465._000163.output.root
/eos/user/j/jhall/BTagging/Productions/October19_ntuples/mc16a/user.jhall.410472.PhPy8EG.DAOD_FTAG2.e6348_a875_r9364_p3970.AT21.2.93_28.10.2019_mc16a_v1.0_output_root/user.jhall.19578465._000164.output.root
/eos/user/j/jhall/BTagging/Productions/October19_ntuples/mc16a/user.jhall.410472.PhPy8EG.DAOD_FTAG2.e6348_a875_r9364_p3970.AT21.2.93_28.10.2019_mc16a_v1.0_output_root/user.jhall.19578465._000165.output.root
/eos/user/j/jhall/BTagging/Productions/October19_ntuples/mc16a/user.jhall.410472.PhPy8EG.DAOD_FTAG2.e6348_a875_r9364_p3970.AT21.2.93_28.10.2019_mc16a_v1.0_output_root/user.jhall.19578465._000166.output.root
/eos/user/j/jhall/BTagging/Productions/October19_ntuples/mc16a/user.jhall.410472.PhPy8EG.DAOD_FTAG2.e6348_a875_r9364_p3970.AT21.2.93_28.10.2019_mc16a_v1.0_output_root/user.jhall.19578465._000167.output.root
/eos/user/j/jhall/BTagging/Productions/October19_ntuples/mc16a/user.jhall.410472.PhPy8EG.DAOD_FTAG2.e6348_a875_r9364_p3970.AT21.2.93_28.10.2019_mc16a_v1.0_output_root/user.jhall.19578465._000168.output.root
/eos/user/j/jhall/BTagging/Productions/October19_ntuples/mc16a/user.jhall.410472.PhPy8EG.DAOD_FTAG2.e6348_a875_r9364_p3970.AT21.2.93_28.10.2019_mc16a_v1.0_output_root/user.jhall.19578465._000169.output.root
/eos/user/j/jhall/BTagging/Productions/October19_ntuples/mc16a/user.jhall.410472.PhPy8EG.DAOD_FTAG2.e6348_a875_r9364_p3970.AT21.2.93_28.10.2019_mc16a_v1.0_output_root/user.jhall.19578465._000170.output.root
/eos/user/j/jhall/BTagging/Productions/October19_ntuples/mc16a/user.jhall.410472.PhPy8EG.DAOD_FTAG2.e6348_a875_r9364_p3970.AT21.2.93_28.10.2019_mc16a_v1.0_output_root/user.jhall.19578465._000171.output.root
/eos/user/j/jhall/BTagging/Productions/October19_ntuples/mc16a/user.jhall.410472.PhPy8EG.DAOD_FTAG2.e6348_a875_r9364_p3970.AT21.2.93_28.10.2019_mc16a_v1.0_output_root/user.jhall.19578465._000172.output.root
/eos/user/j/jhall/BTagging/Productions/October19_ntuples/mc16a/user.jhall.410472.PhPy8EG.DAOD_FTAG2.e6348_a875_r9364_p3970.AT21.2.93_28.10.2019_mc16a_v1.0_output_root/user.jhall.19578465._000173.output.root
/eos/user/j/jhall/BTagging/Productions/October19_ntuples/mc16a/user.jhall.410472.PhPy8EG.DAOD_FTAG2.e6348_a875_r9364_p3970.AT21.2.93_28.10.2019_mc16a_v1.0_output_root/user.jhall.19578465._000174.output.root
/eos/user/j/jhall/BTagging/Productions/October19_ntuples/mc16a/user.jhall.410472.PhPy8EG.DAOD_FTAG2.e6348_a875_r9364_p3970.AT21.2.93_28.10.2019_mc16a_v1.0_output_root/user.jhall.19578465._000175.output.root
/eos/user/j/jhall/BTagging/Productions/October19_ntuples/mc16a/user.jhall.410472.PhPy8EG.DAOD_FTAG2.e6348_a875_r9364_p3970.AT21.2.93_28.10.2019_mc16a_v1.0_output_root/user.jhall.19578465._000176.output.root
/eos/user/j/jhall/BTagging/Productions/October19_ntuples/mc16a/user.jhall.410472.PhPy8EG.DAOD_FTAG2.e6348_a875_r9364_p3970.AT21.2.93_28.10.2019_mc16a_v1.0_output_root/user.jhall.19578465._000177.output.root
/eos/user/j/jhall/BTagging/Productions/October19_ntuples/mc16a/user.jhall.410472.PhPy8EG.DAOD_FTAG2.e6348_a875_r9364_p3970.AT21.2.93_28.10.2019_mc16a_v1.0_output_root/user.jhall.19578465._000178.output.root
/eos/user/j/jhall/BTagging/Productions/October19_ntuples/mc16a/user.jhall.410472.PhPy8EG.DAOD_FTAG2.e6348_a875_r9364_p3970.AT21.2.93_28.10.2019_mc16a_v1.0_output_root/user.jhall.19578465._000179.output.root
/eos/user/j/jhall/BTagging/Productions/October19_ntuples/mc16a/user.jhall.410472.PhPy8EG.DAOD_FTAG2.e6348_a875_r9364_p3970.AT21.2.93_28.10.2019_mc16a_v1.0_output_root/user.jhall.19578465._000180.output.root
/eos/user/j/jhall/BTagging/Productions/October19_ntuples/mc16a/user.jhall.410472.PhPy8EG.DAOD_FTAG2.e6348_a875_r9364_p3970.AT21.2.93_28.10.2019_mc16a_v1.0_output_root/user.jhall.19578465._000181.output.root
/eos/user/j/jhall/BTagging/Productions/October19_ntuples/mc16a/user.jhall.410472.PhPy8EG.DAOD_FTAG2.e6348_a875_r9364_p3970.AT21.2.93_28.10.2019_mc16a_v1.0_output_root/user.jhall.19578465._000182.output.root
/eos/user/j/jhall/BTagging/Productions/October19_ntuples/mc16a/user.jhall.410472.PhPy8EG.DAOD_FTAG2.e6348_a875_r9364_p3970.AT21.2.93_28.10.2019_mc16a_v1.0_output_root/user.jhall.19578465._000183.output.root
/eos/user/j/jhall/BTagging/Productions/October19_ntuples/mc16a/user.jhall.410472.PhPy8EG.DAOD_FTAG2.e6348_a875_r9364_p3970.AT21.2.93_28.10.2019_mc16a_v1.0_output_root/user.jhall.19578465._000184.output.root
/eos/user/j/jhall/BTagging/Productions/October19_ntuples/mc16a/user.jhall.410472.PhPy8EG.DAOD_FTAG2.e6348_a875_r9364_p3970.AT21.2.93_28.10.2019_mc16a_v1.0_output_root/user.jhall.19578465._000185.output.root
/eos/user/j/jhall/BTagging/Productions/October19_ntuples/mc16a/user.jhall.410472.PhPy8EG.DAOD_FTAG2.e6348_a875_r9364_p3970.AT21.2.93_28.10.2019_mc16a_v1.0_output_root/user.jhall.19578465._000186.output.root
/eos/user/j/jhall/BTagging/Productions/October19_ntuples/mc16a/user.jhall.410472.PhPy8EG.DAOD_FTAG2.e6348_a875_r9364_p3970.AT21.2.93_28.10.2019_mc16a_v1.0_output_root/user.jhall.19578465._000187.output.root
/eos/user/j/jhall/BTagging/Productions/October19_ntuples/mc16a/user.jhall.410472.PhPy8EG.DAOD_FTAG2.e6348_a875_r9364_p3970.AT21.2.93_28.10.2019_mc16a_v1.0_output_root/user.jhall.19578465._000188.output.root
/eos/user/j/jhall/BTagging/Productions/October19_ntuples/mc16a/user.jhall.410472.PhPy8EG.DAOD_FTAG2.e6348_a875_r9364_p3970.AT21.2.93_28.10.2019_mc16a_v1.0_output_root/user.jhall.19578465._000189.output.root
/eos/user/j/jhall/BTagging/Productions/October19_ntuples/mc16a/user.jhall.410472.PhPy8EG.DAOD_FTAG2.e6348_a875_r9364_p3970.AT21.2.93_28.10.2019_mc16a_v1.0_output_root/user.jhall.19578465._000190.output.root
/eos/user/j/jhall/BTagging/Productions/October19_ntuples/mc16a/user.jhall.410472.PhPy8EG.DAOD_FTAG2.e6348_a875_r9364_p3970.AT21.2.93_28.10.2019_mc16a_v1.0_output_root/user.jhall.19578465._000191.output.root
/eos/user/j/jhall/BTagging/Productions/October19_ntuples/mc16a/user.jhall.410472.PhPy8EG.DAOD_FTAG2.e6348_a875_r9364_p3970.AT21.2.93_28.10.2019_mc16a_v1.0_output_root/user.jhall.19578465._000192.output.root
/eos/user/j/jhall/BTagging/Productions/October19_ntuples/mc16a/user.jhall.410472.PhPy8EG.DAOD_FTAG2.e6348_a875_r9364_p3970.AT21.2.93_28.10.2019_mc16a_v1.0_output_root/user.jhall.19578465._000193.output.root
/eos/user/j/jhall/BTagging/Productions/October19_ntuples/mc16a/user.jhall.410472.PhPy8EG.DAOD_FTAG2.e6348_a875_r9364_p3970.AT21.2.93_28.10.2019_mc16a_v1.0_output_root/user.jhall.19578465._000194.output.root
/eos/user/j/jhall/BTagging/Productions/October19_ntuples/mc16a/user.jhall.410472.PhPy8EG.DAOD_FTAG2.e6348_a875_r9364_p3970.AT21.2.93_28.10.2019_mc16a_v1.0_output_root/user.jhall.19578465._000195.output.root
/eos/user/j/jhall/BTagging/Productions/October19_ntuples/mc16a/user.jhall.410472.PhPy8EG.DAOD_FTAG2.e6348_a875_r9364_p3970.AT21.2.93_28.10.2019_mc16a_v1.0_output_root/user.jhall.19578465._000196.output.root
/eos/user/j/jhall/BTagging/Productions/October19_ntuples/mc16a/user.jhall.410472.PhPy8EG.DAOD_FTAG2.e6348_a875_r9364_p3970.AT21.2.93_28.10.2019_mc16a_v1.0_output_root/user.jhall.19578465._000197.output.root
/eos/user/j/jhall/BTagging/Productions/October19_ntuples/mc16a/user.jhall.410472.PhPy8EG.DAOD_FTAG2.e6348_a875_r9364_p3970.AT21.2.93_28.10.2019_mc16a_v1.0_output_root/user.jhall.19578465._000199.output.root
/eos/user/j/jhall/BTagging/Productions/October19_ntuples/mc16a/user.jhall.410472.PhPy8EG.DAOD_FTAG2.e6348_a875_r9364_p3970.AT21.2.93_28.10.2019_mc16a_v1.0_output_root/user.jhall.19578465._000200.output.root
/eos/user/j/jhall/BTagging/Productions/October19_ntuples/mc16a/user.jhall.410472.PhPy8EG.DAOD_FTAG2.e6348_a875_r9364_p3970.AT21.2.93_28.10.2019_mc16a_v1.0_output_root/user.jhall.19578465._000201.output.root
/eos/user/j/jhall/BTagging/Productions/October19_ntuples/mc16a/user.jhall.410472.PhPy8EG.DAOD_FTAG2.e6348_a875_r9364_p3970.AT21.2.93_28.10.2019_mc16a_v1.0_output_root/user.jhall.19578465._000202.output.root
/eos/user/j/jhall/BTagging/Productions/October19_ntuples/mc16a/user.jhall.410472.PhPy8EG.DAOD_FTAG2.e6348_a875_r9364_p3970.AT21.2.93_28.10.2019_mc16a_v1.0_output_root/user.jhall.19578465._000203.output.root
/eos/user/j/jhall/BTagging/Productions/October19_ntuples/mc16a/user.jhall.410472.PhPy8EG.DAOD_FTAG2.e6348_a875_r9364_p3970.AT21.2.93_28.10.2019_mc16a_v1.0_output_root/user.jhall.19578465._000204.output.root
/eos/user/j/jhall/BTagging/Productions/October19_ntuples/mc16a/user.jhall.410472.PhPy8EG.DAOD_FTAG2.e6348_a875_r9364_p3970.AT21.2.93_28.10.2019_mc16a_v1.0_output_root/user.jhall.19578465._000205.output.root
/eos/user/j/jhall/BTagging/Productions/October19_ntuples/mc16a/user.jhall.410472.PhPy8EG.DAOD_FTAG2.e6348_a875_r9364_p3970.AT21.2.93_28.10.2019_mc16a_v1.0_output_root/user.jhall.19578465._000206.output.root
/eos/user/j/jhall/BTagging/Productions/October19_ntuples/mc16a/user.jhall.410472.PhPy8EG.DAOD_FTAG2.e6348_a875_r9364_p3970.AT21.2.93_28.10.2019_mc16a_v1.0_output_root/user.jhall.19578465._000207.output.root
/eos/user/j/jhall/BTagging/Productions/October19_ntuples/mc16a/user.jhall.410472.PhPy8EG.DAOD_FTAG2.e6348_a875_r9364_p3970.AT21.2.93_28.10.2019_mc16a_v1.0_output_root/user.jhall.19578465._000208.output.root
/eos/user/j/jhall/BTagging/Productions/October19_ntuples/mc16a/user.jhall.410472.PhPy8EG.DAOD_FTAG2.e6348_a875_r9364_p3970.AT21.2.93_28.10.2019_mc16a_v1.0_output_root/user.jhall.19578465._000209.output.root
/eos/user/j/jhall/BTagging/Productions/October19_ntuples/mc16a/user.jhall.410472.PhPy8EG.DAOD_FTAG2.e6348_a875_r9364_p3970.AT21.2.93_28.10.2019_mc16a_v1.0_output_root/user.jhall.19578465._000210.output.root
/eos/user/j/jhall/BTagging/Productions/October19_ntuples/mc16a/user.jhall.410472.PhPy8EG.DAOD_FTAG2.e6348_a875_r9364_p3970.AT21.2.93_28.10.2019_mc16a_v1.0_output_root/user.jhall.19578465._000211.output.root
/eos/user/j/jhall/BTagging/Productions/October19_ntuples/mc16a/user.jhall.410472.PhPy8EG.DAOD_FTAG2.e6348_a875_r9364_p3970.AT21.2.93_28.10.2019_mc16a_v1.0_output_root/user.jhall.19578465._000212.output.root
/eos/user/j/jhall/BTagging/Productions/October19_ntuples/mc16a/user.jhall.410472.PhPy8EG.DAOD_FTAG2.e6348_a875_r9364_p3970.AT21.2.93_28.10.2019_mc16a_v1.0_output_root/user.jhall.19578465._000213.output.root
/eos/user/j/jhall/BTagging/Productions/October19_ntuples/mc16a/user.jhall.410472.PhPy8EG.DAOD_FTAG2.e6348_a875_r9364_p3970.AT21.2.93_28.10.2019_mc16a_v1.0_output_root/user.jhall.19578465._000215.output.root
/eos/user/j/jhall/BTagging/Productions/October19_ntuples/mc16a/user.jhall.410472.PhPy8EG.DAOD_FTAG2.e6348_a875_r9364_p3970.AT21.2.93_28.10.2019_mc16a_v1.0_output_root/user.jhall.19578465._000216.output.root
/eos/user/j/jhall/BTagging/Productions/October19_ntuples/mc16a/user.jhall.410472.PhPy8EG.DAOD_FTAG2.e6348_a875_r9364_p3970.AT21.2.93_28.10.2019_mc16a_v1.0_output_root/user.jhall.19578465._000218.output.root
/eos/user/j/jhall/BTagging/Productions/October19_ntuples/mc16a/user.jhall.410472.PhPy8EG.DAOD_FTAG2.e6348_a875_r9364_p3970.AT21.2.93_28.10.2019_mc16a_v1.0_output_root/user.jhall.19578465._000219.output.root
/eos/user/j/jhall/BTagging/Productions/October19_ntuples/mc16a/user.jhall.410472.PhPy8EG.DAOD_FTAG2.e6348_a875_r9364_p3970.AT21.2.93_28.10.2019_mc16a_v1.0_output_root/user.jhall.19578465._000220.output.root
/eos/user/j/jhall/BTagging/Productions/October19_ntuples/mc16a/user.jhall.410472.PhPy8EG.DAOD_FTAG2.e6348_a875_r9364_p3970.AT21.2.93_28.10.2019_mc16a_v1.0_output_root/user.jhall.19578465._000221.output.root
/eos/user/j/jhall/BTagging/Productions/October19_ntuples/mc16a/user.jhall.410472.PhPy8EG.DAOD_FTAG2.e6348_a875_r9364_p3970.AT21.2.93_28.10.2019_mc16a_v1.0_output_root/user.jhall.19578465._000222.output.root
/eos/user/j/jhall/BTagging/Productions/October19_ntuples/mc16a/user.jhall.410472.PhPy8EG.DAOD_FTAG2.e6348_a875_r9364_p3970.AT21.2.93_28.10.2019_mc16a_v1.0_output_root/user.jhall.19578465._000223.output.root
/eos/user/j/jhall/BTagging/Productions/October19_ntuples/mc16a/user.jhall.410472.PhPy8EG.DAOD_FTAG2.e6348_a875_r9364_p3970.AT21.2.93_28.10.2019_mc16a_v1.0_output_root/user.jhall.19578465._000224.output.root
/eos/user/j/jhall/BTagging/Productions/October19_ntuples/mc16a/user.jhall.410472.PhPy8EG.DAOD_FTAG2.e6348_a875_r9364_p3970.AT21.2.93_28.10.2019_mc16a_v1.0_output_root/user.jhall.19578465._000225.output.root
/eos/user/j/jhall/BTagging/Productions/October19_ntuples/mc16a/user.jhall.410472.PhPy8EG.DAOD_FTAG2.e6348_a875_r9364_p3970.AT21.2.93_28.10.2019_mc16a_v1.0_output_root/user.jhall.19578465._000226.output.root
/eos/user/j/jhall/BTagging/Productions/October19_ntuples/mc16a/user.jhall.410472.PhPy8EG.DAOD_FTAG2.e6348_a875_r9364_p3970.AT21.2.93_28.10.2019_mc16a_v1.0_output_root/user.jhall.19578465._000227.output.root
/eos/user/j/jhall/BTagging/Productions/October19_ntuples/mc16a/user.jhall.410472.PhPy8EG.DAOD_FTAG2.e6348_a875_r9364_p3970.AT21.2.93_28.10.2019_mc16a_v1.0_output_root/user.jhall.19578465._000228.output.root
/eos/user/j/jhall/BTagging/Productions/October19_ntuples/mc16a/user.jhall.410472.PhPy8EG.DAOD_FTAG2.e6348_a875_r9364_p3970.AT21.2.93_28.10.2019_mc16a_v1.0_output_root/user.jhall.19578465._000229.output.root
/eos/user/j/jhall/BTagging/Productions/October19_ntuples/mc16a/user.jhall.410472.PhPy8EG.DAOD_FTAG2.e6348_a875_r9364_p3970.AT21.2.93_28.10.2019_mc16a_v1.0_output_root/user.jhall.19578465._000230.output.root
/eos/user/j/jhall/BTagging/Productions/October19_ntuples/mc16a/user.jhall.410472.PhPy8EG.DAOD_FTAG2.e6348_a875_r9364_p3970.AT21.2.93_28.10.2019_mc16a_v1.0_output_root/user.jhall.19578465._000231.output.root
/eos/user/j/jhall/BTagging/Productions/October19_ntuples/mc16a/user.jhall.410472.PhPy8EG.DAOD_FTAG2.e6348_a875_r9364_p3970.AT21.2.93_28.10.2019_mc16a_v1.0_output_root/user.jhall.19578465._000232.output.root
/eos/user/j/jhall/BTagging/Productions/October19_ntuples/mc16a/user.jhall.410472.PhPy8EG.DAOD_FTAG2.e6348_a875_r9364_p3970.AT21.2.93_28.10.2019_mc16a_v1.0_output_root/user.jhall.19578465._000233.output.root
/eos/user/j/jhall/BTagging/Productions/October19_ntuples/mc16a/user.jhall.410472.PhPy8EG.DAOD_FTAG2.e6348_a875_r9364_p3970.AT21.2.93_28.10.2019_mc16a_v1.0_output_root/user.jhall.19578465._000234.output.root
/eos/user/j/jhall/BTagging/Productions/October19_ntuples/mc16a/user.jhall.410472.PhPy8EG.DAOD_FTAG2.e6348_a875_r9364_p3970.AT21.2.93_28.10.2019_mc16a_v1.0_output_root/user.jhall.19578465._000235.output.root
/eos/user/j/jhall/BTagging/Productions/October19_ntuples/mc16a/user.jhall.410472.PhPy8EG.DAOD_FTAG2.e6348_a875_r9364_p3970.AT21.2.93_28.10.2019_mc16a_v1.0_output_root/user.jhall.19578465._000236.output.root
/eos/user/j/jhall/BTagging/Productions/October19_ntuples/mc16a/user.jhall.410472.PhPy8EG.DAOD_FTAG2.e6348_a875_r9364_p3970.AT21.2.93_28.10.2019_mc16a_v1.0_output_root/user.jhall.19578465._000237.output.root
/eos/user/j/jhall/BTagging/Productions/October19_ntuples/mc16a/user.jhall.410472.PhPy8EG.DAOD_FTAG2.e6348_a875_r9364_p3970.AT21.2.93_28.10.2019_mc16a_v1.0_output_root/user.jhall.19578465._000238.output.root
/eos/user/j/jhall/BTagging/Productions/October19_ntuples/mc16a/user.jhall.410472.PhPy8EG.DAOD_FTAG2.e6348_a875_r9364_p3970.AT21.2.93_28.10.2019_mc16a_v1.0_output_root/user.jhall.19578465._000239.output.root
/eos/user/j/jhall/BTagging/Productions/October19_ntuples/mc16a/user.jhall.410472.PhPy8EG.DAOD_FTAG2.e6348_a875_r9364_p3970.AT21.2.93_28.10.2019_mc16a_v1.0_output_root/user.jhall.19578465._000240.output.root
/eos/user/j/jhall/BTagging/Productions/October19_ntuples/mc16a/user.jhall.410472.PhPy8EG.DAOD_FTAG2.e6348_a875_r9364_p3970.AT21.2.93_28.10.2019_mc16a_v1.0_output_root/user.jhall.19578465._000241.output.root
/eos/user/j/jhall/BTagging/Productions/October19_ntuples/mc16a/user.jhall.410472.PhPy8EG.DAOD_FTAG2.e6348_a875_r9364_p3970.AT21.2.93_28.10.2019_mc16a_v1.0_output_root/user.jhall.19578465._000242.output.root
/eos/user/j/jhall/BTagging/Productions/October19_ntuples/mc16a/user.jhall.410472.PhPy8EG.DAOD_FTAG2.e6348_a875_r9364_p3970.AT21.2.93_28.10.2019_mc16a_v1.0_output_root/user.jhall.19578465._000243.output.root
/eos/user/j/jhall/BTagging/Productions/October19_ntuples/mc16a/user.jhall.410472.PhPy8EG.DAOD_FTAG2.e6348_a875_r9364_p3970.AT21.2.93_28.10.2019_mc16a_v1.0_output_root/user.jhall.19578465._000244.output.root
/eos/user/j/jhall/BTagging/Productions/October19_ntuples/mc16a/user.jhall.410472.PhPy8EG.DAOD_FTAG2.e6348_a875_r9364_p3970.AT21.2.93_28.10.2019_mc16a_v1.0_output_root/user.jhall.19578465._000245.output.root
/eos/user/j/jhall/BTagging/Productions/October19_ntuples/mc16a/user.jhall.410472.PhPy8EG.DAOD_FTAG2.e6348_a875_r9364_p3970.AT21.2.93_28.10.2019_mc16a_v1.0_output_root/user.jhall.19578465._000246.output.root
/eos/user/j/jhall/BTagging/Productions/October19_ntuples/mc16a/user.jhall.410472.PhPy8EG.DAOD_FTAG2.e6348_a875_r9364_p3970.AT21.2.93_28.10.2019_mc16a_v1.0_output_root/user.jhall.19578465._000247.output.root
/eos/user/j/jhall/BTagging/Productions/October19_ntuples/mc16a/user.jhall.410472.PhPy8EG.DAOD_FTAG2.e6348_a875_r9364_p3970.AT21.2.93_28.10.2019_mc16a_v1.0_output_root/user.jhall.19578465._000248.output.root
/eos/user/j/jhall/BTagging/Productions/October19_ntuples/mc16a/user.jhall.410472.PhPy8EG.DAOD_FTAG2.e6348_a875_r9364_p3970.AT21.2.93_28.10.2019_mc16a_v1.0_output_root/user.jhall.19578465._000249.output.root
/eos/user/j/jhall/BTagging/Productions/October19_ntuples/mc16a/user.jhall.410472.PhPy8EG.DAOD_FTAG2.e6348_a875_r9364_p3970.AT21.2.93_28.10.2019_mc16a_v1.0_output_root/user.jhall.19578465._000250.output.root
/eos/user/j/jhall/BTagging/Productions/October19_ntuples/mc16a/user.jhall.410472.PhPy8EG.DAOD_FTAG2.e6348_a875_r9364_p3970.AT21.2.93_28.10.2019_mc16a_v1.0_output_root/user.jhall.19578465._000251.output.root
/eos/user/j/jhall/BTagging/Productions/October19_ntuples/mc16a/user.jhall.410472.PhPy8EG.DAOD_FTAG2.e6348_a875_r9364_p3970.AT21.2.93_28.10.2019_mc16a_v1.0_output_root/user.jhall.19578465._000252.output.root
/eos/user/j/jhall/BTagging/Productions/October19_ntuples/mc16a/user.jhall.410472.PhPy8EG.DAOD_FTAG2.e6348_a875_r9364_p3970.AT21.2.93_28.10.2019_mc16a_v1.0_output_root/user.jhall.19578465._000253.output.root
/eos/user/j/jhall/BTagging/Productions/October19_ntuples/mc16a/user.jhall.410472.PhPy8EG.DAOD_FTAG2.e6348_a875_r9364_p3970.AT21.2.93_28.10.2019_mc16a_v1.0_output_root/user.jhall.19578465._000254.output.root
/eos/user/j/jhall/BTagging/Productions/October19_ntuples/mc16a/user.jhall.410472.PhPy8EG.DAOD_FTAG2.e6348_a875_r9364_p3970.AT21.2.93_28.10.2019_mc16a_v1.0_output_root/user.jhall.19578465._000255.output.root
/eos/user/j/jhall/BTagging/Productions/October19_ntuples/mc16a/user.jhall.410472.PhPy8EG.DAOD_FTAG2.e6348_a875_r9364_p3970.AT21.2.93_28.10.2019_mc16a_v1.0_output_root/user.jhall.19578465._000256.output.root
/eos/user/j/jhall/BTagging/Productions/October19_ntuples/mc16a/user.jhall.410472.PhPy8EG.DAOD_FTAG2.e6348_a875_r9364_p3970.AT21.2.93_28.10.2019_mc16a_v1.0_output_root/user.jhall.19578465._000257.output.root
/eos/user/j/jhall/BTagging/Productions/October19_ntuples/mc16a/user.jhall.410472.PhPy8EG.DAOD_FTAG2.e6348_a875_r9364_p3970.AT21.2.93_28.10.2019_mc16a_v1.0_output_root/user.jhall.19578465._000258.output.root
/eos/user/j/jhall/BTagging/Productions/October19_ntuples/mc16a/user.jhall.410472.PhPy8EG.DAOD_FTAG2.e6348_a875_r9364_p3970.AT21.2.93_28.10.2019_mc16a_v1.0_output_root/user.jhall.19578465._000259.output.root
/eos/user/j/jhall/BTagging/Productions/October19_ntuples/mc16a/user.jhall.410472.PhPy8EG.DAOD_FTAG2.e6348_a875_r9364_p3970.AT21.2.93_28.10.2019_mc16a_v1.0_output_root/user.jhall.19578465._000260.output.root
/eos/user/j/jhall/BTagging/Productions/October19_ntuples/mc16a/user.jhall.410472.PhPy8EG.DAOD_FTAG2.e6348_a875_r9364_p3970.AT21.2.93_28.10.2019_mc16a_v1.0_output_root/user.jhall.19578465._000261.output.root
/eos/user/j/jhall/BTagging/Productions/October19_ntuples/mc16a/user.jhall.410472.PhPy8EG.DAOD_FTAG2.e6348_a875_r9364_p3970.AT21.2.93_28.10.2019_mc16a_v1.0_output_root/user.jhall.19578465._000262.output.root
/eos/user/j/jhall/BTagging/Productions/October19_ntuples/mc16a/user.jhall.410472.PhPy8EG.DAOD_FTAG2.e6348_a875_r9364_p3970.AT21.2.93_28.10.2019_mc16a_v1.0_output_root/user.jhall.19578465._000263.output.root
/eos/user/j/jhall/BTagging/Productions/October19_ntuples/mc16a/user.jhall.410472.PhPy8EG.DAOD_FTAG2.e6348_a875_r9364_p3970.AT21.2.93_28.10.2019_mc16a_v1.0_output_root/user.jhall.19578465._000264.output.root
/eos/user/j/jhall/BTagging/Productions/October19_ntuples/mc16a/user.jhall.410472.PhPy8EG.DAOD_FTAG2.e6348_a875_r9364_p3970.AT21.2.93_28.10.2019_mc16a_v1.0_output_root/user.jhall.19578465._000265.output.root
/eos/user/j/jhall/BTagging/Productions/October19_ntuples/mc16a/user.jhall.410472.PhPy8EG.DAOD_FTAG2.e6348_a875_r9364_p3970.AT21.2.93_28.10.2019_mc16a_v1.0_output_root/user.jhall.19578465._000266.output.root
/eos/user/j/jhall/BTagging/Productions/October19_ntuples/mc16a/user.jhall.410472.PhPy8EG.DAOD_FTAG2.e6348_a875_r9364_p3970.AT21.2.93_28.10.2019_mc16a_v1.0_output_root/user.jhall.19578465._000267.output.root
/eos/user/j/jhall/BTagging/Productions/October19_ntuples/mc16a/user.jhall.410472.PhPy8EG.DAOD_FTAG2.e6348_a875_r9364_p3970.AT21.2.93_28.10.2019_mc16a_v1.0_output_root/user.jhall.19578465._000268.output.root
/eos/user/j/jhall/BTagging/Productions/October19_ntuples/mc16a/user.jhall.410472.PhPy8EG.DAOD_FTAG2.e6348_a875_r9364_p3970.AT21.2.93_28.10.2019_mc16a_v1.0_output_root/user.jhall.19578465._000269.output.root
/eos/user/j/jhall/BTagging/Productions/October19_ntuples/mc16a/user.jhall.410472.PhPy8EG.DAOD_FTAG2.e6348_a875_r9364_p3970.AT21.2.93_28.10.2019_mc16a_v1.0_output_root/user.jhall.19578465._000270.output.root
/eos/user/j/jhall/BTagging/Productions/October19_ntuples/mc16a/user.jhall.410472.PhPy8EG.DAOD_FTAG2.e6348_a875_r9364_p3970.AT21.2.93_28.10.2019_mc16a_v1.0_output_root/user.jhall.19578465._000271.output.root
/eos/user/j/jhall/BTagging/Productions/October19_ntuples/mc16a/user.jhall.410472.PhPy8EG.DAOD_FTAG2.e6348_a875_r9364_p3970.AT21.2.93_28.10.2019_mc16a_v1.0_output_root/user.jhall.19578465._000272.output.root
/eos/user/j/jhall/BTagging/Productions/October19_ntuples/mc16a/user.jhall.410472.PhPy8EG.DAOD_FTAG2.e6348_a875_r9364_p3970.AT21.2.93_28.10.2019_mc16a_v1.0_output_root/user.jhall.19578465._000273.output.root
/eos/user/j/jhall/BTagging/Productions/October19_ntuples/mc16a/user.jhall.410472.PhPy8EG.DAOD_FTAG2.e6348_a875_r9364_p3970.AT21.2.93_28.10.2019_mc16a_v1.0_output_root/user.jhall.19578465._000274.output.root
/eos/user/j/jhall/BTagging/Productions/October19_ntuples/mc16a/user.jhall.410472.PhPy8EG.DAOD_FTAG2.e6348_a875_r9364_p3970.AT21.2.93_28.10.2019_mc16a_v1.0_output_root/user.jhall.19578465._000275.output.root
/eos/user/j/jhall/BTagging/Productions/October19_ntuples/mc16a/user.jhall.410472.PhPy8EG.DAOD_FTAG2.e6348_a875_r9364_p3970.AT21.2.93_28.10.2019_mc16a_v1.0_output_root/user.jhall.19578465._000276.output.root
/eos/user/j/jhall/BTagging/Productions/October19_ntuples/mc16a/user.jhall.410472.PhPy8EG.DAOD_FTAG2.e6348_a875_r9364_p3970.AT21.2.93_28.10.2019_mc16a_v1.0_output_root/user.jhall.19578465._000277.output.root
/eos/user/j/jhall/BTagging/Productions/October19_ntuples/mc16a/user.jhall.410472.PhPy8EG.DAOD_FTAG2.e6348_a875_r9364_p3970.AT21.2.93_28.10.2019_mc16a_v1.0_output_root/user.jhall.19578465._000278.output.root
/eos/user/j/jhall/BTagging/Productions/October19_ntuples/mc16a/user.jhall.410472.PhPy8EG.DAOD_FTAG2.e6348_a875_r9364_p3970.AT21.2.93_28.10.2019_mc16a_v1.0_output_root/user.jhall.19578465._000279.output.root
/eos/user/j/jhall/BTagging/Productions/October19_ntuples/mc16a/user.jhall.410472.PhPy8EG.DAOD_FTAG2.e6348_a875_r9364_p3970.AT21.2.93_28.10.2019_mc16a_v1.0_output_root/user.jhall.19578465._000280.output.root
/eos/user/j/jhall/BTagging/Productions/October19_ntuples/mc16a/user.jhall.410472.PhPy8EG.DAOD_FTAG2.e6348_a875_r9364_p3970.AT21.2.93_28.10.2019_mc16a_v1.0_output_root/user.jhall.19578465._000281.output.root
/eos/user/j/jhall/BTagging/Productions/October19_ntuples/mc16a/user.jhall.410472.PhPy8EG.DAOD_FTAG2.e6348_a875_r9364_p3970.AT21.2.93_28.10.2019_mc16a_v1.0_output_root/user.jhall.19578465._000282.output.root
/eos/user/j/jhall/BTagging/Productions/October19_ntuples/mc16a/user.jhall.410472.PhPy8EG.DAOD_FTAG2.e6348_a875_r9364_p3970.AT21.2.93_28.10.2019_mc16a_v1.0_output_root/user.jhall.19578465._000283.output.root
/eos/user/j/jhall/BTagging/Productions/October19_ntuples/mc16a/user.jhall.410472.PhPy8EG.DAOD_FTAG2.e6348_a875_r9364_p3970.AT21.2.93_28.10.2019_mc16a_v1.0_output_root/user.jhall.19578465._000284.output.root
/eos/user/j/jhall/BTagging/Productions/October19_ntuples/mc16a/user.jhall.410472.PhPy8EG.DAOD_FTAG2.e6348_a875_r9364_p3970.AT21.2.93_28.10.2019_mc16a_v1.0_output_root/user.jhall.19578465._000285.output.root
/eos/user/j/jhall/BTagging/Productions/October19_ntuples/mc16a/user.jhall.410472.PhPy8EG.DAOD_FTAG2.e6348_a875_r9364_p3970.AT21.2.93_28.10.2019_mc16a_v1.0_output_root/user.jhall.19578465._000286.output.root
/eos/user/j/jhall/BTagging/Productions/October19_ntuples/mc16a/user.jhall.410472.PhPy8EG.DAOD_FTAG2.e6348_a875_r9364_p3970.AT21.2.93_28.10.2019_mc16a_v1.0_output_root/user.jhall.19578465._000287.output.root
/eos/user/j/jhall/BTagging/Productions/October19_ntuples/mc16a/user.jhall.410472.PhPy8EG.DAOD_FTAG2.e6348_a875_r9364_p3970.AT21.2.93_28.10.2019_mc16a_v1.0_output_root/user.jhall.19578465._000288.output.root
/eos/user/j/jhall/BTagging/Productions/October19_ntuples/mc16a/user.jhall.410472.PhPy8EG.DAOD_FTAG2.e6348_a875_r9364_p3970.AT21.2.93_28.10.2019_mc16a_v1.0_output_root/user.jhall.19578465._000289.output.root
/eos/user/j/jhall/BTagging/Productions/October19_ntuples/mc16a/user.jhall.410472.PhPy8EG.DAOD_FTAG2.e6348_a875_r9364_p3970.AT21.2.93_28.10.2019_mc16a_v1.0_output_root/user.jhall.19578465._000290.output.root
/eos/user/j/jhall/BTagging/Productions/October19_ntuples/mc16a/user.jhall.410472.PhPy8EG.DAOD_FTAG2.e6348_a875_r9364_p3970.AT21.2.93_28.10.2019_mc16a_v1.0_output_root/user.jhall.19578465._000291.output.root
/eos/user/j/jhall/BTagging/Productions/October19_ntuples/mc16a/user.jhall.410472.PhPy8EG.DAOD_FTAG2.e6348_a875_r9364_p3970.AT21.2.93_28.10.2019_mc16a_v1.0_output_root/user.jhall.19578465._000292.output.root
/eos/user/j/jhall/BTagging/Productions/October19_ntuples/mc16a/user.jhall.410472.PhPy8EG.DAOD_FTAG2.e6348_a875_r9364_p3970.AT21.2.93_28.10.2019_mc16a_v1.0_output_root/user.jhall.19578465._000293.output.root
/eos/user/j/jhall/BTagging/Productions/October19_ntuples/mc16a/user.jhall.410472.PhPy8EG.DAOD_FTAG2.e6348_a875_r9364_p3970.AT21.2.93_28.10.2019_mc16a_v1.0_output_root/user.jhall.19578465._000294.output.root
/eos/user/j/jhall/BTagging/Productions/October19_ntuples/mc16a/user.jhall.410472.PhPy8EG.DAOD_FTAG2.e6348_a875_r9364_p3970.AT21.2.93_28.10.2019_mc16a_v1.0_output_root/user.jhall.19578465._000295.output.root
/eos/user/j/jhall/BTagging/Productions/October19_ntuples/mc16a/user.jhall.410472.PhPy8EG.DAOD_FTAG2.e6348_a875_r9364_p3970.AT21.2.93_28.10.2019_mc16a_v1.0_output_root/user.jhall.19578465._000296.output.root
/eos/user/j/jhall/BTagging/Productions/October19_ntuples/mc16a/user.jhall.410472.PhPy8EG.DAOD_FTAG2.e6348_a875_r9364_p3970.AT21.2.93_28.10.2019_mc16a_v1.0_output_root/user.jhall.19578465._000297.output.root
/eos/user/j/jhall/BTagging/Productions/October19_ntuples/mc16a/user.jhall.410472.PhPy8EG.DAOD_FTAG2.e6348_a875_r9364_p3970.AT21.2.93_28.10.2019_mc16a_v1.0_output_root/user.jhall.19578465._000298.output.root
/eos/user/j/jhall/BTagging/Productions/October19_ntuples/mc16a/user.jhall.410472.PhPy8EG.DAOD_FTAG2.e6348_a875_r9364_p3970.AT21.2.93_28.10.2019_mc16a_v1.0_output_root/user.jhall.19578465._000299.output.root
/eos/user/j/jhall/BTagging/Productions/October19_ntuples/mc16a/user.jhall.410472.PhPy8EG.DAOD_FTAG2.e6348_a875_r9364_p3970.AT21.2.93_28.10.2019_mc16a_v1.0_output_root/user.jhall.19578465._000300.output.root
/eos/user/j/jhall/BTagging/Productions/October19_ntuples/mc16a/user.jhall.410472.PhPy8EG.DAOD_FTAG2.e6348_a875_r9364_p3970.AT21.2.93_28.10.2019_mc16a_v1.0_output_root/user.jhall.19578465._000301.output.root
/eos/user/j/jhall/BTagging/Productions/October19_ntuples/mc16a/user.jhall.410472.PhPy8EG.DAOD_FTAG2.e6348_a875_r9364_p3970.AT21.2.93_28.10.2019_mc16a_v1.0_output_root/user.jhall.19578465._000302.output.root
/eos/user/j/jhall/BTagging/Productions/October19_ntuples/mc16a/user.jhall.410472.PhPy8EG.DAOD_FTAG2.e6348_a875_r9364_p3970.AT21.2.93_28.10.2019_mc16a_v1.0_output_root/user.jhall.19578465._000303.output.root
/eos/user/j/jhall/BTagging/Productions/October19_ntuples/mc16a/user.jhall.410472.PhPy8EG.DAOD_FTAG2.e6348_a875_r9364_p3970.AT21.2.93_28.10.2019_mc16a_v1.0_output_root/user.jhall.19578465._000304.output.root
/eos/user/j/jhall/BTagging/Productions/October19_ntuples/mc16a/user.jhall.410472.PhPy8EG.DAOD_FTAG2.e6348_a875_r9364_p3970.AT21.2.93_28.10.2019_mc16a_v1.0_output_root/user.jhall.19578465._000305.output.root
/eos/user/j/jhall/BTagging/Productions/October19_ntuples/mc16a/user.jhall.410472.PhPy8EG.DAOD_FTAG2.e6348_a875_r9364_p3970.AT21.2.93_28.10.2019_mc16a_v1.0_output_root/user.jhall.19578465._000306.output.root
/eos/user/j/jhall/BTagging/Productions/October19_ntuples/mc16a/user.jhall.410472.PhPy8EG.DAOD_FTAG2.e6348_a875_r9364_p3970.AT21.2.93_28.10.2019_mc16a_v1.0_output_root/user.jhall.19578465._000307.output.root
/eos/user/j/jhall/BTagging/Productions/October19_ntuples/mc16a/user.jhall.410472.PhPy8EG.DAOD_FTAG2.e6348_a875_r9364_p3970.AT21.2.93_28.10.2019_mc16a_v1.0_output_root/user.jhall.19578465._000308.output.root
/eos/user/j/jhall/BTagging/Productions/October19_ntuples/mc16a/user.jhall.410472.PhPy8EG.DAOD_FTAG2.e6348_a875_r9364_p3970.AT21.2.93_28.10.2019_mc16a_v1.0_output_root/user.jhall.19578465._000309.output.root
/eos/user/j/jhall/BTagging/Productions/October19_ntuples/mc16a/user.jhall.410472.PhPy8EG.DAOD_FTAG2.e6348_a875_r9364_p3970.AT21.2.93_28.10.2019_mc16a_v1.0_output_root/user.jhall.19578465._000310.output.root
/eos/user/j/jhall/BTagging/Productions/October19_ntuples/mc16a/user.jhall.410472.PhPy8EG.DAOD_FTAG2.e6348_a875_r9364_p3970.AT21.2.93_28.10.2019_mc16a_v1.0_output_root/user.jhall.19578465._000311.output.root
/eos/user/j/jhall/BTagging/Productions/October19_ntuples/mc16a/user.jhall.410472.PhPy8EG.DAOD_FTAG2.e6348_a875_r9364_p3970.AT21.2.93_28.10.2019_mc16a_v1.0_output_root/user.jhall.19578465._000312.output.root
/eos/user/j/jhall/BTagging/Productions/October19_ntuples/mc16a/user.jhall.410472.PhPy8EG.DAOD_FTAG2.e6348_a875_r9364_p3970.AT21.2.93_28.10.2019_mc16a_v1.0_output_root/user.jhall.19578465._000313.output.root
/eos/user/j/jhall/BTagging/Productions/October19_ntuples/mc16a/user.jhall.410472.PhPy8EG.DAOD_FTAG2.e6348_a875_r9364_p3970.AT21.2.93_28.10.2019_mc16a_v1.0_output_root/user.jhall.19578465._000314.output.root
/eos/user/j/jhall/BTagging/Productions/October19_ntuples/mc16a/user.jhall.410472.PhPy8EG.DAOD_FTAG2.e6348_a875_r9364_p3970.AT21.2.93_28.10.2019_mc16a_v1.0_output_root/user.jhall.19578465._000315.output.root
/eos/user/j/jhall/BTagging/Productions/October19_ntuples/mc16a/user.jhall.410472.PhPy8EG.DAOD_FTAG2.e6348_a875_r9364_p3970.AT21.2.93_28.10.2019_mc16a_v1.0_output_root/user.jhall.19578465._000316.output.root
/eos/user/j/jhall/BTagging/Productions/October19_ntuples/mc16a/user.jhall.410472.PhPy8EG.DAOD_FTAG2.e6348_a875_r9364_p3970.AT21.2.93_28.10.2019_mc16a_v1.0_output_root/user.jhall.19578465._000317.output.root
/eos/user/j/jhall/BTagging/Productions/October19_ntuples/mc16a/user.jhall.410472.PhPy8EG.DAOD_FTAG2.e6348_a875_r9364_p3970.AT21.2.93_28.10.2019_mc16a_v1.0_output_root/user.jhall.19578465._000318.output.root
/eos/user/j/jhall/BTagging/Productions/October19_ntuples/mc16a/user.jhall.410472.PhPy8EG.DAOD_FTAG2.e6348_a875_r9364_p3970.AT21.2.93_28.10.2019_mc16a_v1.0_output_root/user.jhall.19578465._000319.output.root
/eos/user/j/jhall/BTagging/Productions/October19_ntuples/mc16a/user.jhall.410472.PhPy8EG.DAOD_FTAG2.e6348_a875_r9364_p3970.AT21.2.93_28.10.2019_mc16a_v1.0_output_root/user.jhall.19578465._000320.output.root
/eos/user/j/jhall/BTagging/Productions/October19_ntuples/mc16a/user.jhall.410472.PhPy8EG.DAOD_FTAG2.e6348_a875_r9364_p3970.AT21.2.93_28.10.2019_mc16a_v1.0_output_root/user.jhall.19578465._000321.output.root
/eos/user/j/jhall/BTagging/Productions/October19_ntuples/mc16a/user.jhall.410472.PhPy8EG.DAOD_FTAG2.e6348_a875_r9364_p3970.AT21.2.93_28.10.2019_mc16a_v1.0_output_root/user.jhall.19578465._000322.output.root
/eos/user/j/jhall/BTagging/Productions/October19_ntuples/mc16a/user.jhall.410472.PhPy8EG.DAOD_FTAG2.e6348_a875_r9364_p3970.AT21.2.93_28.10.2019_mc16a_v1.0_output_root/user.jhall.19578465._000323.output.root
/eos/user/j/jhall/BTagging/Productions/October19_ntuples/mc16a/user.jhall.410472.PhPy8EG.DAOD_FTAG2.e6348_a875_r9364_p3970.AT21.2.93_28.10.2019_mc16a_v1.0_output_root/user.jhall.19578465._000324.output.root
/eos/user/j/jhall/BTagging/Productions/October19_ntuples/mc16a/user.jhall.410472.PhPy8EG.DAOD_FTAG2.e6348_a875_r9364_p3970.AT21.2.93_28.10.2019_mc16a_v1.0_output_root/user.jhall.19578465._000325.output.root
/eos/user/j/jhall/BTagging/Productions/October19_ntuples/mc16a/user.jhall.410472.PhPy8EG.DAOD_FTAG2.e6348_a875_r9364_p3970.AT21.2.93_28.10.2019_mc16a_v1.0_output_root/user.jhall.19578465._000326.output.root
/eos/user/j/jhall/BTagging/Productions/October19_ntuples/mc16a/user.jhall.410472.PhPy8EG.DAOD_FTAG2.e6348_a875_r9364_p3970.AT21.2.93_28.10.2019_mc16a_v1.0_output_root/user.jhall.19578465._000327.output.root
/eos/user/j/jhall/BTagging/Productions/October19_ntuples/mc16a/user.jhall.410472.PhPy8EG.DAOD_FTAG2.e6348_a875_r9364_p3970.AT21.2.93_28.10.2019_mc16a_v1.0_output_root/user.jhall.19578465._000328.output.root
/eos/user/j/jhall/BTagging/Productions/October19_ntuples/mc16a/user.jhall.410472.PhPy8EG.DAOD_FTAG2.e6348_a875_r9364_p3970.AT21.2.93_28.10.2019_mc16a_v1.0_output_root/user.jhall.19578465._000329.output.root
/eos/user/j/jhall/BTagging/Productions/October19_ntuples/mc16a/user.jhall.410472.PhPy8EG.DAOD_FTAG2.e6348_a875_r9364_p3970.AT21.2.93_28.10.2019_mc16a_v1.0_output_root/user.jhall.19578465._000330.output.root
/eos/user/j/jhall/BTagging/Productions/October19_ntuples/mc16a/user.jhall.410472.PhPy8EG.DAOD_FTAG2.e6348_a875_r9364_p3970.AT21.2.93_28.10.2019_mc16a_v1.0_output_root/user.jhall.19578465._000331.output.root
/eos/user/j/jhall/BTagging/Productions/October19_ntuples/mc16a/user.jhall.410472.PhPy8EG.DAOD_FTAG2.e6348_a875_r9364_p3970.AT21.2.93_28.10.2019_mc16a_v1.0_output_root/user.jhall.19578465._000332.output.root
/eos/user/j/jhall/BTagging/Productions/October19_ntuples/mc16a/user.jhall.410472.PhPy8EG.DAOD_FTAG2.e6348_a875_r9364_p3970.AT21.2.93_28.10.2019_mc16a_v1.0_output_root/user.jhall.19578465._000333.output.root
/eos/user/j/jhall/BTagging/Productions/October19_ntuples/mc16a/user.jhall.410472.PhPy8EG.DAOD_FTAG2.e6348_a875_r9364_p3970.AT21.2.93_28.10.2019_mc16a_v1.0_output_root/user.jhall.19578465._000334.output.root
/eos/user/j/jhall/BTagging/Productions/October19_ntuples/mc16a/user.jhall.410472.PhPy8EG.DAOD_FTAG2.e6348_a875_r9364_p3970.AT21.2.93_28.10.2019_mc16a_v1.0_output_root/user.jhall.19578465._000335.output.root
/eos/user/j/jhall/BTagging/Productions/October19_ntuples/mc16a/user.jhall.410472.PhPy8EG.DAOD_FTAG2.e6348_a875_r9364_p3970.AT21.2.93_28.10.2019_mc16a_v1.0_output_root/user.jhall.19578465._000336.output.root
/eos/user/j/jhall/BTagging/Productions/October19_ntuples/mc16a/user.jhall.410472.PhPy8EG.DAOD_FTAG2.e6348_a875_r9364_p3970.AT21.2.93_28.10.2019_mc16a_v1.0_output_root/user.jhall.19578465._000337.output.root
/eos/user/j/jhall/BTagging/Productions/October19_ntuples/mc16a/user.jhall.410472.PhPy8EG.DAOD_FTAG2.e6348_a875_r9364_p3970.AT21.2.93_28.10.2019_mc16a_v1.0_output_root/user.jhall.19578465._000338.output.root
/eos/user/j/jhall/BTagging/Productions/October19_ntuples/mc16a/user.jhall.410472.PhPy8EG.DAOD_FTAG2.e6348_a875_r9364_p3970.AT21.2.93_28.10.2019_mc16a_v1.0_output_root/user.jhall.19578465._000339.output.root
/eos/user/j/jhall/BTagging/Productions/October19_ntuples/mc16a/user.jhall.410472.PhPy8EG.DAOD_FTAG2.e6348_a875_r9364_p3970.AT21.2.93_28.10.2019_mc16a_v1.0_output_root/user.jhall.19578465._000340.output.root
/eos/user/j/jhall/BTagging/Productions/October19_ntuples/mc16a/user.jhall.410472.PhPy8EG.DAOD_FTAG2.e6348_a875_r9364_p3970.AT21.2.93_28.10.2019_mc16a_v1.0_output_root/user.jhall.19578465._000341.output.root
/eos/user/j/jhall/BTagging/Productions/October19_ntuples/mc16a/user.jhall.410472.PhPy8EG.DAOD_FTAG2.e6348_a875_r9364_p3970.AT21.2.93_28.10.2019_mc16a_v1.0_output_root/user.jhall.19578465._000342.output.root
/eos/user/j/jhall/BTagging/Productions/October19_ntuples/mc16a/user.jhall.410472.PhPy8EG.DAOD_FTAG2.e6348_a875_r9364_p3970.AT21.2.93_28.10.2019_mc16a_v1.0_output_root/user.jhall.19578465._000344.output.root
/eos/user/j/jhall/BTagging/Productions/October19_ntuples/mc16a/user.jhall.410472.PhPy8EG.DAOD_FTAG2.e6348_a875_r9364_p3970.AT21.2.93_28.10.2019_mc16a_v1.0_output_root/user.jhall.19578465._000345.output.root
/eos/user/j/jhall/BTagging/Productions/October19_ntuples/mc16a/user.jhall.410472.PhPy8EG.DAOD_FTAG2.e6348_a875_r9364_p3970.AT21.2.93_28.10.2019_mc16a_v1.0_output_root/user.jhall.19578465._000346.output.root
/eos/user/j/jhall/BTagging/Productions/October19_ntuples/mc16a/user.jhall.410472.PhPy8EG.DAOD_FTAG2.e6348_a875_r9364_p3970.AT21.2.93_28.10.2019_mc16a_v1.0_output_root/user.jhall.19578465._000347.output.root
/eos/user/j/jhall/BTagging/Productions/October19_ntuples/mc16a/user.jhall.410472.PhPy8EG.DAOD_FTAG2.e6348_a875_r9364_p3970.AT21.2.93_28.10.2019_mc16a_v1.0_output_root/user.jhall.19578465._000348.output.root
/eos/user/j/jhall/BTagging/Productions/October19_ntuples/mc16a/user.jhall.410472.PhPy8EG.DAOD_FTAG2.e6348_a875_r9364_p3970.AT21.2.93_28.10.2019_mc16a_v1.0_output_root/user.jhall.19578465._000349.output.root
/eos/user/j/jhall/BTagging/Productions/October19_ntuples/mc16a/user.jhall.410472.PhPy8EG.DAOD_FTAG2.e6348_a875_r9364_p3970.AT21.2.93_28.10.2019_mc16a_v1.0_output_root/user.jhall.19578465._000350.output.root
/eos/user/j/jhall/BTagging/Productions/October19_ntuples/mc16a/user.jhall.410472.PhPy8EG.DAOD_FTAG2.e6348_a875_r9364_p3970.AT21.2.93_28.10.2019_mc16a_v1.0_output_root/user.jhall.19578465._000351.output.root
/eos/user/j/jhall/BTagging/Productions/October19_ntuples/mc16a/user.jhall.410472.PhPy8EG.DAOD_FTAG2.e6348_a875_r9364_p3970.AT21.2.93_28.10.2019_mc16a_v1.0_output_root/user.jhall.19578465._000352.output.root
/eos/user/j/jhall/BTagging/Productions/October19_ntuples/mc16a/user.jhall.410472.PhPy8EG.DAOD_FTAG2.e6348_a875_r9364_p3970.AT21.2.93_28.10.2019_mc16a_v1.0_output_root/user.jhall.19578465._000353.output.root
/eos/user/j/jhall/BTagging/Productions/October19_ntuples/mc16a/user.jhall.410472.PhPy8EG.DAOD_FTAG2.e6348_a875_r9364_p3970.AT21.2.93_28.10.2019_mc16a_v1.0_output_root/user.jhall.19578465._000354.output.root
/eos/user/j/jhall/BTagging/Productions/October19_ntuples/mc16a/user.jhall.410472.PhPy8EG.DAOD_FTAG2.e6348_a875_r9364_p3970.AT21.2.93_28.10.2019_mc16a_v1.0_output_root/user.jhall.19578465._000355.output.root
/eos/user/j/jhall/BTagging/Productions/October19_ntuples/mc16a/user.jhall.410472.PhPy8EG.DAOD_FTAG2.e6348_a875_r9364_p3970.AT21.2.93_28.10.2019_mc16a_v1.0_output_root/user.jhall.19578465._000356.output.root
/eos/user/j/jhall/BTagging/Productions/October19_ntuples/mc16a/user.jhall.410472.PhPy8EG.DAOD_FTAG2.e6348_a875_r9364_p3970.AT21.2.93_28.10.2019_mc16a_v1.0_output_root/user.jhall.19578465._000357.output.root
/eos/user/j/jhall/BTagging/Productions/October19_ntuples/mc16a/user.jhall.410472.PhPy8EG.DAOD_FTAG2.e6348_a875_r9364_p3970.AT21.2.93_28.10.2019_mc16a_v1.0_output_root/user.jhall.19578465._000358.output.root
/eos/user/j/jhall/BTagging/Productions/October19_ntuples/mc16a/user.jhall.410472.PhPy8EG.DAOD_FTAG2.e6348_a875_r9364_p3970.AT21.2.93_28.10.2019_mc16a_v1.0_output_root/user.jhall.19578465._000359.output.root
/eos/user/j/jhall/BTagging/Productions/October19_ntuples/mc16a/user.jhall.410472.PhPy8EG.DAOD_FTAG2.e6348_a875_r9364_p3970.AT21.2.93_28.10.2019_mc16a_v1.0_output_root/user.jhall.19578465._000360.output.root
/eos/user/j/jhall/BTagging/Productions/October19_ntuples/mc16a/user.jhall.410472.PhPy8EG.DAOD_FTAG2.e6348_a875_r9364_p3970.AT21.2.93_28.10.2019_mc16a_v1.0_output_root/user.jhall.19578465._000361.output.root
/eos/user/j/jhall/BTagging/Productions/October19_ntuples/mc16a/user.jhall.410472.PhPy8EG.DAOD_FTAG2.e6348_a875_r9364_p3970.AT21.2.93_28.10.2019_mc16a_v1.0_output_root/user.jhall.19578465._000362.output.root
/eos/user/j/jhall/BTagging/Productions/October19_ntuples/mc16a/user.jhall.410472.PhPy8EG.DAOD_FTAG2.e6348_a875_r9364_p3970.AT21.2.93_28.10.2019_mc16a_v1.0_output_root/user.jhall.19578465._000363.output.root
/eos/user/j/jhall/BTagging/Productions/October19_ntuples/mc16a/user.jhall.410472.PhPy8EG.DAOD_FTAG2.e6348_a875_r9364_p3970.AT21.2.93_28.10.2019_mc16a_v1.0_output_root/user.jhall.19578465._000364.output.root
/eos/user/j/jhall/BTagging/Productions/October19_ntuples/mc16a/user.jhall.410472.PhPy8EG.DAOD_FTAG2.e6348_a875_r9364_p3970.AT21.2.93_28.10.2019_mc16a_v1.0_output_root/user.jhall.19578465._000365.output.root
/eos/user/j/jhall/BTagging/Productions/October19_ntuples/mc16a/user.jhall.410472.PhPy8EG.DAOD_FTAG2.e6348_a875_r9364_p3970.AT21.2.93_28.10.2019_mc16a_v1.0_output_root/user.jhall.19578465._000366.output.root
/eos/user/j/jhall/BTagging/Productions/October19_ntuples/mc16a/user.jhall.410472.PhPy8EG.DAOD_FTAG2.e6348_a875_r9364_p3970.AT21.2.93_28.10.2019_mc16a_v1.0_output_root/user.jhall.19578465._000367.output.root
/eos/user/j/jhall/BTagging/Productions/October19_ntuples/mc16a/user.jhall.410472.PhPy8EG.DAOD_FTAG2.e6348_a875_r9364_p3970.AT21.2.93_28.10.2019_mc16a_v1.0_output_root/user.jhall.19578465._000368.output.root
/eos/user/j/jhall/BTagging/Productions/October19_ntuples/mc16a/user.jhall.410472.PhPy8EG.DAOD_FTAG2.e6348_a875_r9364_p3970.AT21.2.93_28.10.2019_mc16a_v1.0_output_root/user.jhall.19578465._000369.output.root
/eos/user/j/jhall/BTagging/Productions/October19_ntuples/mc16a/user.jhall.410472.PhPy8EG.DAOD_FTAG2.e6348_a875_r9364_p3970.AT21.2.93_28.10.2019_mc16a_v1.0_output_root/user.jhall.19578465._000370.output.root
/eos/user/j/jhall/BTagging/Productions/October19_ntuples/mc16a/user.jhall.410472.PhPy8EG.DAOD_FTAG2.e6348_a875_r9364_p3970.AT21.2.93_28.10.2019_mc16a_v1.0_output_root/user.jhall.19578465._000371.output.root
/eos/user/j/jhall/BTagging/Productions/October19_ntuples/mc16a/user.jhall.410472.PhPy8EG.DAOD_FTAG2.e6348_a875_r9364_p3970.AT21.2.93_28.10.2019_mc16a_v1.0_output_root/user.jhall.19578465._000372.output.root
/eos/user/j/jhall/BTagging/Productions/October19_ntuples/mc16a/user.jhall.410472.PhPy8EG.DAOD_FTAG2.e6348_a875_r9364_p3970.AT21.2.93_28.10.2019_mc16a_v1.0_output_root/user.jhall.19578465._000373.output.root
/eos/user/j/jhall/BTagging/Productions/October19_ntuples/mc16a/user.jhall.410472.PhPy8EG.DAOD_FTAG2.e6348_a875_r9364_p3970.AT21.2.93_28.10.2019_mc16a_v1.0_output_root/user.jhall.19578465._000374.output.root
/eos/user/j/jhall/BTagging/Productions/October19_ntuples/mc16a/user.jhall.410472.PhPy8EG.DAOD_FTAG2.e6348_a875_r9364_p3970.AT21.2.93_28.10.2019_mc16a_v1.0_output_root/user.jhall.19578465._000375.output.root
/eos/user/j/jhall/BTagging/Productions/October19_ntuples/mc16a/user.jhall.410472.PhPy8EG.DAOD_FTAG2.e6348_a875_r9364_p3970.AT21.2.93_28.10.2019_mc16a_v1.0_output_root/user.jhall.19578465._000376.output.root
/eos/user/j/jhall/BTagging/Productions/October19_ntuples/mc16a/user.jhall.410472.PhPy8EG.DAOD_FTAG2.e6348_a875_r9364_p3970.AT21.2.93_28.10.2019_mc16a_v1.0_output_root/user.jhall.19578465._000377.output.root
/eos/user/j/jhall/BTagging/Productions/October19_ntuples/mc16a/user.jhall.410472.PhPy8EG.DAOD_FTAG2.e6348_a875_r9364_p3970.AT21.2.93_28.10.2019_mc16a_v1.0_output_root/user.jhall.19578465._000378.output.root
/eos/user/j/jhall/BTagging/Productions/October19_ntuples/mc16a/user.jhall.410472.PhPy8EG.DAOD_FTAG2.e6348_a875_r9364_p3970.AT21.2.93_28.10.2019_mc16a_v1.0_output_root/user.jhall.19578465._000379.output.root
/eos/user/j/jhall/BTagging/Productions/October19_ntuples/mc16a/user.jhall.410472.PhPy8EG.DAOD_FTAG2.e6348_a875_r9364_p3970.AT21.2.93_28.10.2019_mc16a_v1.0_output_root/user.jhall.19578465._000380.output.root
/eos/user/j/jhall/BTagging/Productions/October19_ntuples/mc16a/user.jhall.410472.PhPy8EG.DAOD_FTAG2.e6348_a875_r9364_p3970.AT21.2.93_28.10.2019_mc16a_v1.0_output_root/user.jhall.19578465._000381.output.root
/eos/user/j/jhall/BTagging/Productions/October19_ntuples/mc16a/user.jhall.410472.PhPy8EG.DAOD_FTAG2.e6348_a875_r9364_p3970.AT21.2.93_28.10.2019_mc16a_v1.0_output_root/user.jhall.19578465._000382.output.root
/eos/user/j/jhall/BTagging/Productions/October19_ntuples/mc16a/user.jhall.410472.PhPy8EG.DAOD_FTAG2.e6348_a875_r9364_p3970.AT21.2.93_28.10.2019_mc16a_v1.0_output_root/user.jhall.19578465._000383.output.root
/eos/user/j/jhall/BTagging/Productions/October19_ntuples/mc16a/user.jhall.410472.PhPy8EG.DAOD_FTAG2.e6348_a875_r9364_p3970.AT21.2.93_28.10.2019_mc16a_v1.0_output_root/user.jhall.19578465._000384.output.root
/eos/user/j/jhall/BTagging/Productions/October19_ntuples/mc16a/user.jhall.410472.PhPy8EG.DAOD_FTAG2.e6348_a875_r9364_p3970.AT21.2.93_28.10.2019_mc16a_v1.0_output_root/user.jhall.19578465._000385.output.root
/eos/user/j/jhall/BTagging/Productions/October19_ntuples/mc16a/user.jhall.410472.PhPy8EG.DAOD_FTAG2.e6348_a875_r9364_p3970.AT21.2.93_28.10.2019_mc16a_v1.0_output_root/user.jhall.19578465._000386.output.root
/eos/user/j/jhall/BTagging/Productions/October19_ntuples/mc16a/user.jhall.410472.PhPy8EG.DAOD_FTAG2.e6348_a875_r9364_p3970.AT21.2.93_28.10.2019_mc16a_v1.0_output_root/user.jhall.19578465._000387.output.root
/eos/user/j/jhall/BTagging/Productions/October19_ntuples/mc16a/user.jhall.410472.PhPy8EG.DAOD_FTAG2.e6348_a875_r9364_p3970.AT21.2.93_28.10.2019_mc16a_v1.0_output_root/user.jhall.19578465._000388.output.root
/eos/user/j/jhall/BTagging/Productions/October19_ntuples/mc16a/user.jhall.410472.PhPy8EG.DAOD_FTAG2.e6348_a875_r9364_p3970.AT21.2.93_28.10.2019_mc16a_v1.0_output_root/user.jhall.19578465._000389.output.root
/eos/user/j/jhall/BTagging/Productions/October19_ntuples/mc16a/user.jhall.410472.PhPy8EG.DAOD_FTAG2.e6348_a875_r9364_p3970.AT21.2.93_28.10.2019_mc16a_v1.0_output_root/user.jhall.19578465._000390.output.root
/eos/user/j/jhall/BTagging/Productions/October19_ntuples/mc16a/user.jhall.410472.PhPy8EG.DAOD_FTAG2.e6348_a875_r9364_p3970.AT21.2.93_28.10.2019_mc16a_v1.0_output_root/user.jhall.19578465._000391.output.root
/eos/user/j/jhall/BTagging/Productions/October19_ntuples/mc16a/user.jhall.410472.PhPy8EG.DAOD_FTAG2.e6348_a875_r9364_p3970.AT21.2.93_28.10.2019_mc16a_v1.0_output_root/user.jhall.19578465._000392.output.root
/eos/user/j/jhall/BTagging/Productions/October19_ntuples/mc16a/user.jhall.410472.PhPy8EG.DAOD_FTAG2.e6348_a875_r9364_p3970.AT21.2.93_28.10.2019_mc16a_v1.0_output_root/user.jhall.19578465._000393.output.root
/eos/user/j/jhall/BTagging/Productions/October19_ntuples/mc16a/user.jhall.410472.PhPy8EG.DAOD_FTAG2.e6348_a875_r9364_p3970.AT21.2.93_28.10.2019_mc16a_v1.0_output_root/user.jhall.19578465._000394.output.root
/eos/user/j/jhall/BTagging/Productions/October19_ntuples/mc16a/user.jhall.410472.PhPy8EG.DAOD_FTAG2.e6348_a875_r9364_p3970.AT21.2.93_28.10.2019_mc16a_v1.0_output_root/user.jhall.19578465._000395.output.root
/eos/user/j/jhall/BTagging/Productions/October19_ntuples/mc16a/user.jhall.410472.PhPy8EG.DAOD_FTAG2.e6348_a875_r9364_p3970.AT21.2.93_28.10.2019_mc16a_v1.0_output_root/user.jhall.19578465._000396.output.root
/eos/user/j/jhall/BTagging/Productions/October19_ntuples/mc16a/user.jhall.410472.PhPy8EG.DAOD_FTAG2.e6348_a875_r9364_p3970.AT21.2.93_28.10.2019_mc16a_v1.0_output_root/user.jhall.19578465._000397.output.root
/eos/user/j/jhall/BTagging/Productions/October19_ntuples/mc16a/user.jhall.410472.PhPy8EG.DAOD_FTAG2.e6348_a875_r9364_p3970.AT21.2.93_28.10.2019_mc16a_v1.0_output_root/user.jhall.19578465._000398.output.root
/eos/user/j/jhall/BTagging/Productions/October19_ntuples/mc16a/user.jhall.410472.PhPy8EG.DAOD_FTAG2.e6348_a875_r9364_p3970.AT21.2.93_28.10.2019_mc16a_v1.0_output_root/user.jhall.19578465._000399.output.root
/eos/user/j/jhall/BTagging/Productions/October19_ntuples/mc16a/user.jhall.410472.PhPy8EG.DAOD_FTAG2.e6348_a875_r9364_p3970.AT21.2.93_28.10.2019_mc16a_v1.0_output_root/user.jhall.19578465._000400.output.root
/eos/user/j/jhall/BTagging/Productions/October19_ntuples/mc16a/user.jhall.410472.PhPy8EG.DAOD_FTAG2.e6348_a875_r9364_p3970.AT21.2.93_28.10.2019_mc16a_v1.0_output_root/user.jhall.19578465._000401.output.root
/eos/user/j/jhall/BTagging/Productions/October19_ntuples/mc16a/user.jhall.410472.PhPy8EG.DAOD_FTAG2.e6348_a875_r9364_p3970.AT21.2.93_28.10.2019_mc16a_v1.0_output_root/user.jhall.19578465._000402.output.root
/eos/user/j/jhall/BTagging/Productions/October19_ntuples/mc16a/user.jhall.410472.PhPy8EG.DAOD_FTAG2.e6348_a875_r9364_p3970.AT21.2.93_28.10.2019_mc16a_v1.0_output_root/user.jhall.19578465._000403.output.root
/eos/user/j/jhall/BTagging/Productions/October19_ntuples/mc16a/user.jhall.410472.PhPy8EG.DAOD_FTAG2.e6348_a875_r9364_p3970.AT21.2.93_28.10.2019_mc16a_v1.0_output_root/user.jhall.19578465._000404.output.root
/eos/user/j/jhall/BTagging/Productions/October19_ntuples/mc16a/user.jhall.410472.PhPy8EG.DAOD_FTAG2.e6348_a875_r9364_p3970.AT21.2.93_28.10.2019_mc16a_v1.0_output_root/user.jhall.19578465._000405.output.root
/eos/user/j/jhall/BTagging/Productions/October19_ntuples/mc16a/user.jhall.410472.PhPy8EG.DAOD_FTAG2.e6348_a875_r9364_p3970.AT21.2.93_28.10.2019_mc16a_v1.0_output_root/user.jhall.19578465._000406.output.root
/eos/user/j/jhall/BTagging/Productions/October19_ntuples/mc16a/user.jhall.410472.PhPy8EG.DAOD_FTAG2.e6348_a875_r9364_p3970.AT21.2.93_28.10.2019_mc16a_v1.0_output_root/user.jhall.19578465._000407.output.root
/eos/user/j/jhall/BTagging/Productions/October19_ntuples/mc16a/user.jhall.410472.PhPy8EG.DAOD_FTAG2.e6348_a875_r9364_p3970.AT21.2.93_28.10.2019_mc16a_v1.0_output_root/user.jhall.19578465._000408.output.root
/eos/user/j/jhall/BTagging/Productions/October19_ntuples/mc16a/user.jhall.410472.PhPy8EG.DAOD_FTAG2.e6348_a875_r9364_p3970.AT21.2.93_28.10.2019_mc16a_v1.0_output_root/user.jhall.19578465._000409.output.root
/eos/user/j/jhall/BTagging/Productions/October19_ntuples/mc16a/user.jhall.410472.PhPy8EG.DAOD_FTAG2.e6348_a875_r9364_p3970.AT21.2.93_28.10.2019_mc16a_v1.0_output_root/user.jhall.19578465._000410.output.root
/eos/user/j/jhall/BTagging/Productions/October19_ntuples/mc16a/user.jhall.410472.PhPy8EG.DAOD_FTAG2.e6348_a875_r9364_p3970.AT21.2.93_28.10.2019_mc16a_v1.0_output_root/user.jhall.19578465._000411.output.root
/eos/user/j/jhall/BTagging/Productions/October19_ntuples/mc16a/user.jhall.410472.PhPy8EG.DAOD_FTAG2.e6348_a875_r9364_p3970.AT21.2.93_28.10.2019_mc16a_v1.0_output_root/user.jhall.19578465._000412.output.root
/eos/user/j/jhall/BTagging/Productions/October19_ntuples/mc16a/user.jhall.410472.PhPy8EG.DAOD_FTAG2.e6348_a875_r9364_p3970.AT21.2.93_28.10.2019_mc16a_v1.0_output_root/user.jhall.19578465._000413.output.root
/eos/user/j/jhall/BTagging/Productions/October19_ntuples/mc16a/user.jhall.410472.PhPy8EG.DAOD_FTAG2.e6348_a875_r9364_p3970.AT21.2.93_28.10.2019_mc16a_v1.0_output_root/user.jhall.19578465._000414.output.root
/eos/user/j/jhall/BTagging/Productions/October19_ntuples/mc16a/user.jhall.410472.PhPy8EG.DAOD_FTAG2.e6348_a875_r9364_p3970.AT21.2.93_28.10.2019_mc16a_v1.0_output_root/user.jhall.19578465._000415.output.root
/eos/user/j/jhall/BTagging/Productions/October19_ntuples/mc16a/user.jhall.410472.PhPy8EG.DAOD_FTAG2.e6348_a875_r9364_p3970.AT21.2.93_28.10.2019_mc16a_v1.0_output_root/user.jhall.19578465._000416.output.root
/eos/user/j/jhall/BTagging/Productions/October19_ntuples/mc16a/user.jhall.410472.PhPy8EG.DAOD_FTAG2.e6348_a875_r9364_p3970.AT21.2.93_28.10.2019_mc16a_v1.0_output_root/user.jhall.19578465._000417.output.root
/eos/user/j/jhall/BTagging/Productions/October19_ntuples/mc16a/user.jhall.410472.PhPy8EG.DAOD_FTAG2.e6348_a875_r9364_p3970.AT21.2.93_28.10.2019_mc16a_v1.0_output_root/user.jhall.19578465._000418.output.root
/eos/user/j/jhall/BTagging/Productions/October19_ntuples/mc16a/user.jhall.410472.PhPy8EG.DAOD_FTAG2.e6348_a875_r9364_p3970.AT21.2.93_28.10.2019_mc16a_v1.0_output_root/user.jhall.19578465._000419.output.root
/eos/user/j/jhall/BTagging/Productions/October19_ntuples/mc16a/user.jhall.410472.PhPy8EG.DAOD_FTAG2.e6348_a875_r9364_p3970.AT21.2.93_28.10.2019_mc16a_v1.0_output_root/user.jhall.19578465._000420.output.root
/eos/user/j/jhall/BTagging/Productions/October19_ntuples/mc16a/user.jhall.410472.PhPy8EG.DAOD_FTAG2.e6348_a875_r9364_p3970.AT21.2.93_28.10.2019_mc16a_v1.0_output_root/user.jhall.19578465._000421.output.root
/eos/user/j/jhall/BTagging/Productions/October19_ntuples/mc16a/user.jhall.410472.PhPy8EG.DAOD_FTAG2.e6348_a875_r9364_p3970.AT21.2.93_28.10.2019_mc16a_v1.0_output_root/user.jhall.19578465._000422.output.root
/eos/user/j/jhall/BTagging/Productions/October19_ntuples/mc16a/user.jhall.410472.PhPy8EG.DAOD_FTAG2.e6348_a875_r9364_p3970.AT21.2.93_28.10.2019_mc16a_v1.0_output_root/user.jhall.19578465._000423.output.root
/eos/user/j/jhall/BTagging/Productions/October19_ntuples/mc16a/user.jhall.410472.PhPy8EG.DAOD_FTAG2.e6348_a875_r9364_p3970.AT21.2.93_28.10.2019_mc16a_v1.0_output_root/user.jhall.19578465._000424.output.root
/eos/user/j/jhall/BTagging/Productions/October19_ntuples/mc16a/user.jhall.410472.PhPy8EG.DAOD_FTAG2.e6348_a875_r9364_p3970.AT21.2.93_28.10.2019_mc16a_v1.0_output_root/user.jhall.19578465._000425.output.root
/eos/user/j/jhall/BTagging/Productions/October19_ntuples/mc16a/user.jhall.410472.PhPy8EG.DAOD_FTAG2.e6348_a875_r9364_p3970.AT21.2.93_28.10.2019_mc16a_v1.0_output_root/user.jhall.19578465._000426.output.root
/eos/user/j/jhall/BTagging/Productions/October19_ntuples/mc16a/user.jhall.410472.PhPy8EG.DAOD_FTAG2.e6348_a875_r9364_p3970.AT21.2.93_28.10.2019_mc16a_v1.0_output_root/user.jhall.19578465._000427.output.root
/eos/user/j/jhall/BTagging/Productions/October19_ntuples/mc16a/user.jhall.410472.PhPy8EG.DAOD_FTAG2.e6348_a875_r9364_p3970.AT21.2.93_28.10.2019_mc16a_v1.0_output_root/user.jhall.19578465._000428.output.root
/eos/user/j/jhall/BTagging/Productions/October19_ntuples/mc16a/user.jhall.410472.PhPy8EG.DAOD_FTAG2.e6348_a875_r9364_p3970.AT21.2.93_28.10.2019_mc16a_v1.0_output_root/user.jhall.19578465._000429.output.root
/eos/user/j/jhall/BTagging/Productions/October19_ntuples/mc16a/user.jhall.410472.PhPy8EG.DAOD_FTAG2.e6348_a875_r9364_p3970.AT21.2.93_28.10.2019_mc16a_v1.0_output_root/user.jhall.19578465._000430.output.root
/eos/user/j/jhall/BTagging/Productions/October19_ntuples/mc16a/user.jhall.410472.PhPy8EG.DAOD_FTAG2.e6348_a875_r9364_p3970.AT21.2.93_28.10.2019_mc16a_v1.0_output_root/user.jhall.19578465._000431.output.root
/eos/user/j/jhall/BTagging/Productions/October19_ntuples/mc16a/user.jhall.410472.PhPy8EG.DAOD_FTAG2.e6348_a875_r9364_p3970.AT21.2.93_28.10.2019_mc16a_v1.0_output_root/user.jhall.19578465._000432.output.root
/eos/user/j/jhall/BTagging/Productions/October19_ntuples/mc16a/user.jhall.410472.PhPy8EG.DAOD_FTAG2.e6348_a875_r9364_p3970.AT21.2.93_28.10.2019_mc16a_v1.0_output_root/user.jhall.19578465._000433.output.root
/eos/user/j/jhall/BTagging/Productions/October19_ntuples/mc16a/user.jhall.410472.PhPy8EG.DAOD_FTAG2.e6348_a875_r9364_p3970.AT21.2.93_28.10.2019_mc16a_v1.0_output_root/user.jhall.19578465._000434.output.root
/eos/user/j/jhall/BTagging/Productions/October19_ntuples/mc16a/user.jhall.410472.PhPy8EG.DAOD_FTAG2.e6348_a875_r9364_p3970.AT21.2.93_28.10.2019_mc16a_v1.0_output_root/user.jhall.19578465._000435.output.root
/eos/user/j/jhall/BTagging/Productions/October19_ntuples/mc16a/user.jhall.410472.PhPy8EG.DAOD_FTAG2.e6348_a875_r9364_p3970.AT21.2.93_28.10.2019_mc16a_v1.0_output_root/user.jhall.19578465._000436.output.root
/eos/user/j/jhall/BTagging/Productions/October19_ntuples/mc16a/user.jhall.410472.PhPy8EG.DAOD_FTAG2.e6348_a875_r9364_p3970.AT21.2.93_28.10.2019_mc16a_v1.0_output_root/user.jhall.19578465._000437.output.root
/eos/user/j/jhall/BTagging/Productions/October19_ntuples/mc16a/user.jhall.410472.PhPy8EG.DAOD_FTAG2.e6348_a875_r9364_p3970.AT21.2.93_28.10.2019_mc16a_v1.0_output_root/user.jhall.19578465._000438.output.root
/eos/user/j/jhall/BTagging/Productions/October19_ntuples/mc16a/user.jhall.410472.PhPy8EG.DAOD_FTAG2.e6348_a875_r9364_p3970.AT21.2.93_28.10.2019_mc16a_v1.0_output_root/user.jhall.19578465._000439.output.root
/eos/user/j/jhall/BTagging/Productions/October19_ntuples/mc16a/user.jhall.410472.PhPy8EG.DAOD_FTAG2.e6348_a875_r9364_p3970.AT21.2.93_28.10.2019_mc16a_v1.0_output_root/user.jhall.19578465._000440.output.root
/eos/user/j/jhall/BTagging/Productions/October19_ntuples/mc16a/user.jhall.410472.PhPy8EG.DAOD_FTAG2.e6348_a875_r9364_p3970.AT21.2.93_28.10.2019_mc16a_v1.0_output_root/user.jhall.19578465._000441.output.root
/eos/user/j/jhall/BTagging/Productions/October19_ntuples/mc16a/user.jhall.410472.PhPy8EG.DAOD_FTAG2.e6348_a875_r9364_p3970.AT21.2.93_28.10.2019_mc16a_v1.0_output_root/user.jhall.19578465._000442.output.root
/eos/user/j/jhall/BTagging/Productions/October19_ntuples/mc16a/user.jhall.410472.PhPy8EG.DAOD_FTAG2.e6348_a875_r9364_p3970.AT21.2.93_28.10.2019_mc16a_v1.0_output_root/user.jhall.19578465._000443.output.root
/eos/user/j/jhall/BTagging/Productions/October19_ntuples/mc16a/user.jhall.410472.PhPy8EG.DAOD_FTAG2.e6348_a875_r9364_p3970.AT21.2.93_28.10.2019_mc16a_v1.0_output_root/user.jhall.19578465._000444.output.root
/eos/user/j/jhall/BTagging/Productions/October19_ntuples/mc16a/user.jhall.410472.PhPy8EG.DAOD_FTAG2.e6348_a875_r9364_p3970.AT21.2.93_28.10.2019_mc16a_v1.0_output_root/user.jhall.19578465._000445.output.root
/eos/user/j/jhall/BTagging/Productions/October19_ntuples/mc16a/user.jhall.410472.PhPy8EG.DAOD_FTAG2.e6348_a875_r9364_p3970.AT21.2.93_28.10.2019_mc16a_v1.0_output_root/user.jhall.19578465._000446.output.root
/eos/user/j/jhall/BTagging/Productions/October19_ntuples/mc16a/user.jhall.410472.PhPy8EG.DAOD_FTAG2.e6348_a875_r9364_p3970.AT21.2.93_28.10.2019_mc16a_v1.0_output_root/user.jhall.19578465._000447.output.root
/eos/user/j/jhall/BTagging/Productions/October19_ntuples/mc16a/user.jhall.410472.PhPy8EG.DAOD_FTAG2.e6348_a875_r9364_p3970.AT21.2.93_28.10.2019_mc16a_v1.0_output_root/user.jhall.19578465._000448.output.root
/eos/user/j/jhall/BTagging/Productions/October19_ntuples/mc16a/user.jhall.410472.PhPy8EG.DAOD_FTAG2.e6348_a875_r9364_p3970.AT21.2.93_28.10.2019_mc16a_v1.0_output_root/user.jhall.19578465._000449.output.root
/eos/user/j/jhall/BTagging/Productions/October19_ntuples/mc16a/user.jhall.410472.PhPy8EG.DAOD_FTAG2.e6348_a875_r9364_p3970.AT21.2.93_28.10.2019_mc16a_v1.0_output_root/user.jhall.19578465._000450.output.root
/eos/user/j/jhall/BTagging/Productions/October19_ntuples/mc16a/user.jhall.410472.PhPy8EG.DAOD_FTAG2.e6348_a875_r9364_p3970.AT21.2.93_28.10.2019_mc16a_v1.0_output_root/user.jhall.19578465._000451.output.root
/eos/user/j/jhall/BTagging/Productions/October19_ntuples/mc16a/user.jhall.410472.PhPy8EG.DAOD_FTAG2.e6348_a875_r9364_p3970.AT21.2.93_28.10.2019_mc16a_v1.0_output_root/user.jhall.19578465._000452.output.root
/eos/user/j/jhall/BTagging/Productions/October19_ntuples/mc16a/user.jhall.410472.PhPy8EG.DAOD_FTAG2.e6348_a875_r9364_p3970.AT21.2.93_28.10.2019_mc16a_v1.0_output_root/user.jhall.19578465._000453.output.root
/eos/user/j/jhall/BTagging/Productions/October19_ntuples/mc16a/user.jhall.410472.PhPy8EG.DAOD_FTAG2.e6348_a875_r9364_p3970.AT21.2.93_28.10.2019_mc16a_v1.0_output_root/user.jhall.19578465._000454.output.root
/eos/user/j/jhall/BTagging/Productions/October19_ntuples/mc16a/user.jhall.410472.PhPy8EG.DAOD_FTAG2.e6348_a875_r9364_p3970.AT21.2.93_28.10.2019_mc16a_v1.0_output_root/user.jhall.19578465._000456.output.root
/eos/user/j/jhall/BTagging/Productions/October19_ntuples/mc16a/user.jhall.410472.PhPy8EG.DAOD_FTAG2.e6348_a875_r9364_p3970.AT21.2.93_28.10.2019_mc16a_v1.0_output_root/user.jhall.19578465._000457.output.root
/eos/user/j/jhall/BTagging/Productions/October19_ntuples/mc16a/user.jhall.410472.PhPy8EG.DAOD_FTAG2.e6348_a875_r9364_p3970.AT21.2.93_28.10.2019_mc16a_v1.0_output_root/user.jhall.19578465._000458.output.root
/eos/user/j/jhall/BTagging/Productions/October19_ntuples/mc16a/user.jhall.410472.PhPy8EG.DAOD_FTAG2.e6348_a875_r9364_p3970.AT21.2.93_28.10.2019_mc16a_v1.0_output_root/user.jhall.19578465._000459.output.root
/eos/user/j/jhall/BTagging/Productions/October19_ntuples/mc16a/user.jhall.410472.PhPy8EG.DAOD_FTAG2.e6348_a875_r9364_p3970.AT21.2.93_28.10.2019_mc16a_v1.0_output_root/user.jhall.19578465._000460.output.root
/eos/user/j/jhall/BTagging/Productions/October19_ntuples/mc16a/user.jhall.410472.PhPy8EG.DAOD_FTAG2.e6348_a875_r9364_p3970.AT21.2.93_28.10.2019_mc16a_v1.0_output_root/user.jhall.19578465._000461.output.root
/eos/user/j/jhall/BTagging/Productions/October19_ntuples/mc16a/user.jhall.410472.PhPy8EG.DAOD_FTAG2.e6348_a875_r9364_p3970.AT21.2.93_28.10.2019_mc16a_v1.0_output_root/user.jhall.19578465._000462.output.root
/eos/user/j/jhall/BTagging/Productions/October19_ntuples/mc16a/user.jhall.410472.PhPy8EG.DAOD_FTAG2.e6348_a875_r9364_p3970.AT21.2.93_28.10.2019_mc16a_v1.0_output_root/user.jhall.19578465._000463.output.root
/eos/user/j/jhall/BTagging/Productions/October19_ntuples/mc16a/user.jhall.410472.PhPy8EG.DAOD_FTAG2.e6348_a875_r9364_p3970.AT21.2.93_28.10.2019_mc16a_v1.0_output_root/user.jhall.19578465._000464.output.root
/eos/user/j/jhall/BTagging/Productions/October19_ntuples/mc16a/user.jhall.410472.PhPy8EG.DAOD_FTAG2.e6348_a875_r9364_p3970.AT21.2.93_28.10.2019_mc16a_v1.0_output_root/user.jhall.19578465._000465.output.root
/eos/user/j/jhall/BTagging/Productions/October19_ntuples/mc16a/user.jhall.410472.PhPy8EG.DAOD_FTAG2.e6348_a875_r9364_p3970.AT21.2.93_28.10.2019_mc16a_v1.0_output_root/user.jhall.19578465._000466.output.root
/eos/user/j/jhall/BTagging/Productions/October19_ntuples/mc16a/user.jhall.410472.PhPy8EG.DAOD_FTAG2.e6348_a875_r9364_p3970.AT21.2.93_28.10.2019_mc16a_v1.0_output_root/user.jhall.19578465._000467.output.root
/eos/user/j/jhall/BTagging/Productions/October19_ntuples/mc16a/user.jhall.410472.PhPy8EG.DAOD_FTAG2.e6348_a875_r9364_p3970.AT21.2.93_28.10.2019_mc16a_v1.0_output_root/user.jhall.19578465._000468.output.root
/eos/user/j/jhall/BTagging/Productions/October19_ntuples/mc16a/user.jhall.410472.PhPy8EG.DAOD_FTAG2.e6348_a875_r9364_p3970.AT21.2.93_28.10.2019_mc16a_v1.0_output_root/user.jhall.19578465._000469.output.root
/eos/user/j/jhall/BTagging/Productions/October19_ntuples/mc16a/user.jhall.410472.PhPy8EG.DAOD_FTAG2.e6348_a875_r9364_p3970.AT21.2.93_28.10.2019_mc16a_v1.0_output_root/user.jhall.19578465._000470.output.root
/eos/user/j/jhall/BTagging/Productions/October19_ntuples/mc16a/user.jhall.410472.PhPy8EG.DAOD_FTAG2.e6348_a875_r9364_p3970.AT21.2.93_28.10.2019_mc16a_v1.0_output_root/user.jhall.19578465._000471.output.root
/eos/user/j/jhall/BTagging/Productions/October19_ntuples/mc16a/user.jhall.410472.PhPy8EG.DAOD_FTAG2.e6348_a875_r9364_p3970.AT21.2.93_28.10.2019_mc16a_v1.0_output_root/user.jhall.19578465._000472.output.root
/eos/user/j/jhall/BTagging/Productions/October19_ntuples/mc16a/user.jhall.410472.PhPy8EG.DAOD_FTAG2.e6348_a875_r9364_p3970.AT21.2.93_28.10.2019_mc16a_v1.0_output_root/user.jhall.19578465._000473.output.root
/eos/user/j/jhall/BTagging/Productions/October19_ntuples/mc16a/user.jhall.410472.PhPy8EG.DAOD_FTAG2.e6348_a875_r9364_p3970.AT21.2.93_28.10.2019_mc16a_v1.0_output_root/user.jhall.19578465._000474.output.root
/eos/user/j/jhall/BTagging/Productions/October19_ntuples/mc16a/user.jhall.410472.PhPy8EG.DAOD_FTAG2.e6348_a875_r9364_p3970.AT21.2.93_28.10.2019_mc16a_v1.0_output_root/user.jhall.19578465._000475.output.root
/eos/user/j/jhall/BTagging/Productions/October19_ntuples/mc16a/user.jhall.410472.PhPy8EG.DAOD_FTAG2.e6348_a875_r9364_p3970.AT21.2.93_28.10.2019_mc16a_v1.0_output_root/user.jhall.19578465._000476.output.root
/eos/user/j/jhall/BTagging/Productions/October19_ntuples/mc16a/user.jhall.410472.PhPy8EG.DAOD_FTAG2.e6348_a875_r9364_p3970.AT21.2.93_28.10.2019_mc16a_v1.0_output_root/user.jhall.19578465._000477.output.root
/eos/user/j/jhall/BTagging/Productions/October19_ntuples/mc16a/user.jhall.410472.PhPy8EG.DAOD_FTAG2.e6348_a875_r9364_p3970.AT21.2.93_28.10.2019_mc16a_v1.0_output_root/user.jhall.19578465._000478.output.root
/eos/user/j/jhall/BTagging/Productions/October19_ntuples/mc16a/user.jhall.410472.PhPy8EG.DAOD_FTAG2.e6348_a875_r9364_p3970.AT21.2.93_28.10.2019_mc16a_v1.0_output_root/user.jhall.19578465._000479.output.root
/eos/user/j/jhall/BTagging/Productions/October19_ntuples/mc16a/user.jhall.410472.PhPy8EG.DAOD_FTAG2.e6348_a875_r9364_p3970.AT21.2.93_28.10.2019_mc16a_v1.0_output_root/user.jhall.19578465._000480.output.root
/eos/user/j/jhall/BTagging/Productions/October19_ntuples/mc16a/user.jhall.410472.PhPy8EG.DAOD_FTAG2.e6348_a875_r9364_p3970.AT21.2.93_28.10.2019_mc16a_v1.0_output_root/user.jhall.19578465._000481.output.root
/eos/user/j/jhall/BTagging/Productions/October19_ntuples/mc16a/user.jhall.410472.PhPy8EG.DAOD_FTAG2.e6348_a875_r9364_p3970.AT21.2.93_28.10.2019_mc16a_v1.0_output_root/user.jhall.19578465._000482.output.root
/eos/user/j/jhall/BTagging/Productions/October19_ntuples/mc16a/user.jhall.410472.PhPy8EG.DAOD_FTAG2.e6348_a875_r9364_p3970.AT21.2.93_28.10.2019_mc16a_v1.0_output_root/user.jhall.19578465._000483.output.root
/eos/user/j/jhall/BTagging/Productions/October19_ntuples/mc16a/user.jhall.410472.PhPy8EG.DAOD_FTAG2.e6348_a875_r9364_p3970.AT21.2.93_28.10.2019_mc16a_v1.0_output_root/user.jhall.19578465._000484.output.root
/eos/user/j/jhall/BTagging/Productions/October19_ntuples/mc16a/user.jhall.410472.PhPy8EG.DAOD_FTAG2.e6348_a875_r9364_p3970.AT21.2.93_28.10.2019_mc16a_v1.0_output_root/user.jhall.19578465._000485.output.root
/eos/user/j/jhall/BTagging/Productions/October19_ntuples/mc16a/user.jhall.410472.PhPy8EG.DAOD_FTAG2.e6348_a875_r9364_p3970.AT21.2.93_28.10.2019_mc16a_v1.0_output_root/user.jhall.19578465._000486.output.root
/eos/user/j/jhall/BTagging/Productions/October19_ntuples/mc16a/user.jhall.410472.PhPy8EG.DAOD_FTAG2.e6348_a875_r9364_p3970.AT21.2.93_28.10.2019_mc16a_v1.0_output_root/user.jhall.19578465._000487.output.root
/eos/user/j/jhall/BTagging/Productions/October19_ntuples/mc16a/user.jhall.410472.PhPy8EG.DAOD_FTAG2.e6348_a875_r9364_p3970.AT21.2.93_28.10.2019_mc16a_v1.0_output_root/user.jhall.19578465._000488.output.root
/eos/user/j/jhall/BTagging/Productions/October19_ntuples/mc16a/user.jhall.410472.PhPy8EG.DAOD_FTAG2.e6348_a875_r9364_p3970.AT21.2.93_28.10.2019_mc16a_v1.0_output_root/user.jhall.19578465._000489.output.root
/eos/user/j/jhall/BTagging/Productions/October19_ntuples/mc16a/user.jhall.410472.PhPy8EG.DAOD_FTAG2.e6348_a875_r9364_p3970.AT21.2.93_28.10.2019_mc16a_v1.0_output_root/user.jhall.19578465._000490.output.root
/eos/user/j/jhall/BTagging/Productions/October19_ntuples/mc16a/user.jhall.410472.PhPy8EG.DAOD_FTAG2.e6348_a875_r9364_p3970.AT21.2.93_28.10.2019_mc16a_v1.0_output_root/user.jhall.19578465._000491.output.root
/eos/user/j/jhall/BTagging/Productions/October19_ntuples/mc16a/user.jhall.410472.PhPy8EG.DAOD_FTAG2.e6348_a875_r9364_p3970.AT21.2.93_28.10.2019_mc16a_v1.0_output_root/user.jhall.19578465._000492.output.root
/eos/user/j/jhall/BTagging/Productions/October19_ntuples/mc16a/user.jhall.410472.PhPy8EG.DAOD_FTAG2.e6348_a875_r9364_p3970.AT21.2.93_28.10.2019_mc16a_v1.0_output_root/user.jhall.19578465._000493.output.root
/eos/user/j/jhall/BTagging/Productions/October19_ntuples/mc16a/user.jhall.410472.PhPy8EG.DAOD_FTAG2.e6348_a875_r9364_p3970.AT21.2.93_28.10.2019_mc16a_v1.0_output_root/user.jhall.19578465._000494.output.root
/eos/user/j/jhall/BTagging/Productions/October19_ntuples/mc16a/user.jhall.410472.PhPy8EG.DAOD_FTAG2.e6348_a875_r9364_p3970.AT21.2.93_28.10.2019_mc16a_v1.0_output_root/user.jhall.19578465._000495.output.root
/eos/user/j/jhall/BTagging/Productions/October19_ntuples/mc16a/user.jhall.410472.PhPy8EG.DAOD_FTAG2.e6348_a875_r9364_p3970.AT21.2.93_28.10.2019_mc16a_v1.0_output_root/user.jhall.19578465._000496.output.root
/eos/user/j/jhall/BTagging/Productions/October19_ntuples/mc16a/user.jhall.410472.PhPy8EG.DAOD_FTAG2.e6348_a875_r9364_p3970.AT21.2.93_28.10.2019_mc16a_v1.0_output_root/user.jhall.19578465._000497.output.root
