/eos/user/j/jhall/BTagging/Productions/October19_ntuples/mc16a/user.jhall.345706.Sherpa.DAOD_FTAG2.e6213_s3126_r9364_p3970.AT21.2.93_28.10.2019_mc16a_v1.0_output_root/user.jhall.19578705._000001.output.root
/eos/user/j/jhall/BTagging/Productions/October19_ntuples/mc16a/user.jhall.345706.Sherpa.DAOD_FTAG2.e6213_s3126_r9364_p3970.AT21.2.93_28.10.2019_mc16a_v1.0_output_root/user.jhall.19578705._000002.output.root
/eos/user/j/jhall/BTagging/Productions/October19_ntuples/mc16a/user.jhall.345706.Sherpa.DAOD_FTAG2.e6213_s3126_r9364_p3970.AT21.2.93_28.10.2019_mc16a_v1.0_output_root/user.jhall.19578705._000003.output.root
/eos/user/j/jhall/BTagging/Productions/October19_ntuples/mc16a/user.jhall.345706.Sherpa.DAOD_FTAG2.e6213_s3126_r9364_p3970.AT21.2.93_28.10.2019_mc16a_v1.0_output_root/user.jhall.19578705._000006.output.root
/eos/user/j/jhall/BTagging/Productions/October19_ntuples/mc16a/user.jhall.345706.Sherpa.DAOD_FTAG2.e6213_s3126_r9364_p3970.AT21.2.93_28.10.2019_mc16a_v1.0_output_root/user.jhall.19578705._000010.output.root
/eos/user/j/jhall/BTagging/Productions/October19_ntuples/mc16a/user.jhall.345706.Sherpa.DAOD_FTAG2.e6213_s3126_r9364_p3970.AT21.2.93_28.10.2019_mc16a_v1.0_output_root/user.jhall.19578705._000011.output.root
/eos/user/j/jhall/BTagging/Productions/October19_ntuples/mc16a/user.jhall.345706.Sherpa.DAOD_FTAG2.e6213_s3126_r9364_p3970.AT21.2.93_28.10.2019_mc16a_v1.0_output_root/user.jhall.19578705._000013.output.root
/eos/user/j/jhall/BTagging/Productions/October19_ntuples/mc16a/user.jhall.345706.Sherpa.DAOD_FTAG2.e6213_s3126_r9364_p3970.AT21.2.93_28.10.2019_mc16a_v1.0_output_root/user.jhall.19578705._000017.output.root
/eos/user/j/jhall/BTagging/Productions/October19_ntuples/mc16a/user.jhall.345706.Sherpa.DAOD_FTAG2.e6213_s3126_r9364_p3970.AT21.2.93_28.10.2019_mc16a_v1.0_output_root/user.jhall.19578705._000018.output.root
/eos/user/j/jhall/BTagging/Productions/October19_ntuples/mc16a/user.jhall.345706.Sherpa.DAOD_FTAG2.e6213_s3126_r9364_p3970.AT21.2.93_28.10.2019_mc16a_v1.0_output_root/user.jhall.19578705._000019.output.root
