/eos/user/j/jhall/BTagging/Productions/October19_ntuples/mc16d/user.jhall.363359.Sherpa.DAOD_FTAG2.e5583_s3126_r10201_p3970.AT21.2.93_28.10.2019_mc16d_v1.4_output_root/user.jhall.19607886._000001.output.root
/eos/user/j/jhall/BTagging/Productions/October19_ntuples/mc16d/user.jhall.363359.Sherpa.DAOD_FTAG2.e5583_s3126_r10201_p3970.AT21.2.93_28.10.2019_mc16d_v1.4_output_root/user.jhall.19607886._000002.output.root
/eos/user/j/jhall/BTagging/Productions/October19_ntuples/mc16d/user.jhall.363359.Sherpa.DAOD_FTAG2.e5583_s3126_r10201_p3970.AT21.2.93_28.10.2019_mc16d_v1.4_output_root/user.jhall.19607886._000003.output.root
/eos/user/j/jhall/BTagging/Productions/October19_ntuples/mc16d/user.jhall.363359.Sherpa.DAOD_FTAG2.e5583_s3126_r10201_p3970.AT21.2.93_28.10.2019_mc16d_v1.4_output_root/user.jhall.19607886._000004.output.root
/eos/user/j/jhall/BTagging/Productions/October19_ntuples/mc16d/user.jhall.363359.Sherpa.DAOD_FTAG2.e5583_s3126_r10201_p3970.AT21.2.93_28.10.2019_mc16d_v1.4_output_root/user.jhall.19607886._000005.output.root
/eos/user/j/jhall/BTagging/Productions/October19_ntuples/mc16d/user.jhall.363359.Sherpa.DAOD_FTAG2.e5583_s3126_r10201_p3970.AT21.2.93_28.10.2019_mc16d_v1.4_output_root/user.jhall.19607886._000006.output.root
