/eos/user/j/jhall/BTagging/Productions/October19_ntuples/mc16a/user.jhall.364284.Sherpa.DAOD_FTAG2.e6055_s3126_r9364_p3970.AT21.2.93_28.10.2019_mc16a_v1.0_output_root/user.jhall.19578718._000001.output.root
/eos/user/j/jhall/BTagging/Productions/October19_ntuples/mc16a/user.jhall.364284.Sherpa.DAOD_FTAG2.e6055_s3126_r9364_p3970.AT21.2.93_28.10.2019_mc16a_v1.0_output_root/user.jhall.19578718._000002.output.root
/eos/user/j/jhall/BTagging/Productions/October19_ntuples/mc16a/user.jhall.364284.Sherpa.DAOD_FTAG2.e6055_s3126_r9364_p3970.AT21.2.93_28.10.2019_mc16a_v1.0_output_root/user.jhall.19578718._000005.output.root
/eos/user/j/jhall/BTagging/Productions/October19_ntuples/mc16a/user.jhall.364284.Sherpa.DAOD_FTAG2.e6055_s3126_r9364_p3970.AT21.2.93_28.10.2019_mc16a_v1.0_output_root/user.jhall.19578718._000009.output.root
/eos/user/j/jhall/BTagging/Productions/October19_ntuples/mc16a/user.jhall.364284.Sherpa.DAOD_FTAG2.e6055_s3126_r9364_p3970.AT21.2.93_28.10.2019_mc16a_v1.0_output_root/user.jhall.19578718._000010.output.root
/eos/user/j/jhall/BTagging/Productions/October19_ntuples/mc16a/user.jhall.364284.Sherpa.DAOD_FTAG2.e6055_s3126_r9364_p3970.AT21.2.93_28.10.2019_mc16a_v1.0_output_root/user.jhall.19578718._000011.output.root
/eos/user/j/jhall/BTagging/Productions/October19_ntuples/mc16a/user.jhall.364284.Sherpa.DAOD_FTAG2.e6055_s3126_r9364_p3970.AT21.2.93_28.10.2019_mc16a_v1.0_output_root/user.jhall.19578718._000012.output.root
/eos/user/j/jhall/BTagging/Productions/October19_ntuples/mc16a/user.jhall.364284.Sherpa.DAOD_FTAG2.e6055_s3126_r9364_p3970.AT21.2.93_28.10.2019_mc16a_v1.0_output_root/user.jhall.19578718._000013.output.root
/eos/user/j/jhall/BTagging/Productions/October19_ntuples/mc16a/user.jhall.364284.Sherpa.DAOD_FTAG2.e6055_s3126_r9364_p3970.AT21.2.93_28.10.2019_mc16a_v1.0_output_root/user.jhall.19578718._000014.output.root
