/eos/user/j/jhall/BTagging/Productions/October19_ntuples/mc16d/user.jhall.410647.PowhegPythia8EvtGen.DAOD_FTAG2.e6552_a875_r10201_p3970.AT21.2.93_28.10.2019_mc16d_v1.4_output_root/user.jhall.19607867._000001.output.root
/eos/user/j/jhall/BTagging/Productions/October19_ntuples/mc16d/user.jhall.410647.PowhegPythia8EvtGen.DAOD_FTAG2.e6552_a875_r10201_p3970.AT21.2.93_28.10.2019_mc16d_v1.4_output_root/user.jhall.19607867._000002.output.root
/eos/user/j/jhall/BTagging/Productions/October19_ntuples/mc16d/user.jhall.410647.PowhegPythia8EvtGen.DAOD_FTAG2.e6552_a875_r10201_p3970.AT21.2.93_28.10.2019_mc16d_v1.4_output_root/user.jhall.19607867._000003.output.root
/eos/user/j/jhall/BTagging/Productions/October19_ntuples/mc16d/user.jhall.410647.PowhegPythia8EvtGen.DAOD_FTAG2.e6552_a875_r10201_p3970.AT21.2.93_28.10.2019_mc16d_v1.4_output_root/user.jhall.19607867._000004.output.root
/eos/user/j/jhall/BTagging/Productions/October19_ntuples/mc16d/user.jhall.410647.PowhegPythia8EvtGen.DAOD_FTAG2.e6552_a875_r10201_p3970.AT21.2.93_28.10.2019_mc16d_v1.4_output_root/user.jhall.19607867._000005.output.root
