/eos/home-j/jhall/BTagging/Productions/October19_ntuples/mc16a/user.jhall.364100.Sherpa.DAOD_FTAG2.e5271_s3126_r9364_p3970.AT21.2.93_28.10.2019_mc16a_v1.0_output_root
/eos/home-j/jhall/BTagging/Productions/October19_ntuples/mc16a/user.jhall.364101.Sherpa.DAOD_FTAG2.e5271_s3126_r9364_p3970.AT21.2.93_28.10.2019_mc16a_v1.0_output_root
/eos/home-j/jhall/BTagging/Productions/October19_ntuples/mc16a/user.jhall.364102.Sherpa.DAOD_FTAG2.e5271_s3126_r9364_p3970.AT21.2.93_28.10.2019_mc16a_v1.0_output_root
/eos/home-j/jhall/BTagging/Productions/October19_ntuples/mc16a/user.jhall.364103.Sherpa.DAOD_FTAG2.e5271_s3126_r9364_p3970.AT21.2.93_28.10.2019_mc16a_v1.0_output_root
/eos/home-j/jhall/BTagging/Productions/October19_ntuples/mc16a/user.jhall.364104.Sherpa.DAOD_FTAG2.e5271_s3126_r9364_p3970.AT21.2.93_28.10.2019_mc16a_v1.0_output_root
/eos/home-j/jhall/BTagging/Productions/October19_ntuples/mc16a/user.jhall.364105.Sherpa.DAOD_FTAG2.e5271_s3126_r9364_p3970.AT21.2.93_28.10.2019_mc16a_v1.0_output_root
/eos/home-j/jhall/BTagging/Productions/October19_ntuples/mc16a/user.jhall.364106.Sherpa.DAOD_FTAG2.e5271_s3126_r9364_p3970.AT21.2.93_28.10.2019_mc16a_v1.0_output_root
/eos/home-j/jhall/BTagging/Productions/October19_ntuples/mc16a/user.jhall.364107.Sherpa.DAOD_FTAG2.e5271_s3126_r9364_p3970.AT21.2.93_28.10.2019_mc16a_v1.0_output_root
/eos/home-j/jhall/BTagging/Productions/October19_ntuples/mc16a/user.jhall.364108.Sherpa.DAOD_FTAG2.e5271_s3126_r9364_p3970.AT21.2.93_28.10.2019_mc16a_v1.0_output_root
/eos/home-j/jhall/BTagging/Productions/October19_ntuples/mc16a/user.jhall.364109.Sherpa.DAOD_FTAG2.e5271_s3126_r9364_p3970.AT21.2.93_28.10.2019_mc16a_v1.0_output_root
/eos/home-j/jhall/BTagging/Productions/October19_ntuples/mc16d/user.jhall.364100.Sherpa.DAOD_FTAG2.e5271_s3126_r10201_p3970.AT21.2.93_28.10.2019_mc16d_v1.4_output_root
/eos/home-j/jhall/BTagging/Productions/October19_ntuples/mc16d/user.jhall.364101.Sherpa.DAOD_FTAG2.e5271_s3126_r10201_p3970.AT21.2.93_28.10.2019_mc16d_v1.4_output_root
/eos/home-j/jhall/BTagging/Productions/October19_ntuples/mc16d/user.jhall.364102.Sherpa.DAOD_FTAG2.e5271_s3126_r10201_p3970.AT21.2.93_28.10.2019_mc16d_v1.4_output_root
/eos/home-j/jhall/BTagging/Productions/October19_ntuples/mc16d/user.jhall.364103.Sherpa.DAOD_FTAG2.e5271_s3126_r10201_p3970.AT21.2.93_28.10.2019_mc16d_v1.4_output_root
/eos/home-j/jhall/BTagging/Productions/October19_ntuples/mc16d/user.jhall.364106.Sherpa.DAOD_FTAG2.e5271_s3126_r10201_p3970.AT21.2.93_28.10.2019_mc16d_v1.4_output_root
/eos/home-j/jhall/BTagging/Productions/October19_ntuples/mc16d/user.jhall.364107.Sherpa.DAOD_FTAG2.e5271_s3126_r10201_p3970.AT21.2.93_28.10.2019_mc16d_v1.4_output_root
/eos/home-j/jhall/BTagging/Productions/October19_ntuples/mc16d/user.jhall.364109.Sherpa.DAOD_FTAG2.e5271_s3126_r10201_p3970.AT21.2.93_28.10.2019_mc16d_v1.4_output_root
/eos/home-j/jhall/BTagging/Productions/October19_ntuples/mc16e/user.jhall.364100.Sherpa.DAOD_FTAG2.e5271_s3126_r10724_p3970.AT21.2.93_28.10.2019_mc16e_v1.2_output_root
/eos/home-j/jhall/BTagging/Productions/October19_ntuples/mc16e/user.jhall.364101.Sherpa.DAOD_FTAG2.e5271_s3126_r10724_p3970.AT21.2.93_28.10.2019_mc16e_v1.2_output_root
/eos/home-j/jhall/BTagging/Productions/October19_ntuples/mc16e/user.jhall.364102.Sherpa.DAOD_FTAG2.e5271_s3126_r10724_p3970.AT21.2.93_28.10.2019_mc16e_v1.2_output_root
/eos/home-j/jhall/BTagging/Productions/October19_ntuples/mc16e/user.jhall.364103.Sherpa.DAOD_FTAG2.e5271_s3126_r10724_p3970.AT21.2.93_28.10.2019_mc16e_v1.2_output_root
/eos/home-j/jhall/BTagging/Productions/October19_ntuples/mc16e/user.jhall.364105.Sherpa.DAOD_FTAG2.e5271_s3126_r10724_p3970.AT21.2.93_28.10.2019_mc16e_v1.2_output_root
/eos/home-j/jhall/BTagging/Productions/October19_ntuples/mc16e/user.jhall.364106.Sherpa.DAOD_FTAG2.e5271_s3126_r10724_p3970.AT21.2.93_28.10.2019_mc16e_v1.2_output_root
/eos/home-j/jhall/BTagging/Productions/October19_ntuples/mc16e/user.jhall.364107.Sherpa.DAOD_FTAG2.e5271_s3126_r10724_p3970.AT21.2.93_28.10.2019_mc16e_v1.2_output_root
/eos/home-j/jhall/BTagging/Productions/October19_ntuples/mc16e/user.jhall.364109.Sherpa.DAOD_FTAG2.e5271_s3126_r10724_p3970.AT21.2.93_28.10.2019_mc16e_v1.2_output_root
/eos/home-j/jhall/BTagging/Productions/October19_ntuples/mc16a/user.jhall.364110.Sherpa.DAOD_FTAG2.e5271_s3126_r9364_p3970.AT21.2.93_28.10.2019_mc16a_v1.0_output_root
/eos/home-j/jhall/BTagging/Productions/October19_ntuples/mc16a/user.jhall.364111.Sherpa.DAOD_FTAG2.e5271_s3126_r9364_p3970.AT21.2.93_28.10.2019_mc16a_v1.0_output_root
/eos/home-j/jhall/BTagging/Productions/October19_ntuples/mc16a/user.jhall.364112.Sherpa.DAOD_FTAG2.e5271_s3126_r9364_p3970.AT21.2.93_28.10.2019_mc16a_v1.0_output_root
/eos/home-j/jhall/BTagging/Productions/October19_ntuples/mc16a/user.jhall.364113.Sherpa.DAOD_FTAG2.e5271_s3126_r9364_p3970.AT21.2.93_28.10.2019_mc16a_v1.0_output_root
/eos/home-j/jhall/BTagging/Productions/October19_ntuples/mc16a/user.jhall.364114.Sherpa.DAOD_FTAG2.e5299_s3126_r9364_p3970.AT21.2.93_28.10.2019_mc16a_v1.0_output_root
/eos/home-j/jhall/BTagging/Productions/October19_ntuples/mc16a/user.jhall.364115.Sherpa.DAOD_FTAG2.e5299_s3126_r9364_p3970.AT21.2.93_28.10.2019_mc16a_v1.0_output_root
/eos/home-j/jhall/BTagging/Productions/October19_ntuples/mc16a/user.jhall.364116.Sherpa.DAOD_FTAG2.e5299_s3126_r9364_p3970.AT21.2.93_28.10.2019_mc16a_v1.0_output_root
/eos/home-j/jhall/BTagging/Productions/October19_ntuples/mc16a/user.jhall.364117.Sherpa.DAOD_FTAG2.e5299_s3126_r9364_p3970.AT21.2.93_28.10.2019_mc16a_v1.0_output_root
/eos/home-j/jhall/BTagging/Productions/October19_ntuples/mc16a/user.jhall.364118.Sherpa.DAOD_FTAG2.e5299_s3126_r9364_p3970.AT21.2.93_28.10.2019_mc16a_v1.0_output_root
/eos/home-j/jhall/BTagging/Productions/October19_ntuples/mc16a/user.jhall.364119.Sherpa.DAOD_FTAG2.e5299_s3126_r9364_p3970.AT21.2.93_28.10.2019_mc16a_v1.0_output_root
/eos/home-j/jhall/BTagging/Productions/October19_ntuples/mc16d/user.jhall.364110.Sherpa.DAOD_FTAG2.e5271_s3126_r10201_p3970.AT21.2.93_28.10.2019_mc16d_v1.4_output_root
/eos/home-j/jhall/BTagging/Productions/October19_ntuples/mc16d/user.jhall.364111.Sherpa.DAOD_FTAG2.e5271_s3126_r10201_p3970.AT21.2.93_28.10.2019_mc16d_v1.4_output_root
/eos/home-j/jhall/BTagging/Productions/October19_ntuples/mc16d/user.jhall.364112.Sherpa.DAOD_FTAG2.e5271_s3126_r10201_p3970.AT21.2.93_28.10.2019_mc16d_v1.4_output_root
/eos/home-j/jhall/BTagging/Productions/October19_ntuples/mc16d/user.jhall.364113.Sherpa.DAOD_FTAG2.e5271_s3126_r10201_p3970.AT21.2.93_28.10.2019_mc16d_v1.4_output_root
/eos/home-j/jhall/BTagging/Productions/October19_ntuples/mc16d/user.jhall.364114.Sherpa.DAOD_FTAG2.e5299_s3126_r10201_p3970.AT21.2.93_28.10.2019_mc16d_v1.4_output_root
/eos/home-j/jhall/BTagging/Productions/October19_ntuples/mc16d/user.jhall.364115.Sherpa.DAOD_FTAG2.e5299_s3126_r10201_p3970.AT21.2.93_28.10.2019_mc16d_v1.4_output_root
/eos/home-j/jhall/BTagging/Productions/October19_ntuples/mc16d/user.jhall.364116.Sherpa.DAOD_FTAG2.e5299_s3126_r10201_p3970.AT21.2.93_28.10.2019_mc16d_v1.4_output_root
/eos/home-j/jhall/BTagging/Productions/October19_ntuples/mc16d/user.jhall.364117.Sherpa.DAOD_FTAG2.e5299_s3126_r10201_p3970.AT21.2.93_28.10.2019_mc16d_v1.4_output_root
/eos/home-j/jhall/BTagging/Productions/October19_ntuples/mc16d/user.jhall.364118.Sherpa.DAOD_FTAG2.e5299_s3126_r10201_p3970.AT21.2.93_28.10.2019_mc16d_v1.4_output_root
/eos/home-j/jhall/BTagging/Productions/October19_ntuples/mc16d/user.jhall.364119.Sherpa.DAOD_FTAG2.e5299_s3126_r10201_p3970.AT21.2.93_28.10.2019_mc16d_v1.4_output_root
/eos/home-j/jhall/BTagging/Productions/October19_ntuples/mc16e/user.jhall.364110.Sherpa.DAOD_FTAG2.e5271_s3126_r10724_p3970.AT21.2.93_28.10.2019_mc16e_v1.2_output_root
/eos/home-j/jhall/BTagging/Productions/October19_ntuples/mc16e/user.jhall.364111.Sherpa.DAOD_FTAG2.e5271_s3126_r10724_p3970.AT21.2.93_28.10.2019_mc16e_v1.2_output_root
/eos/home-j/jhall/BTagging/Productions/October19_ntuples/mc16e/user.jhall.364112.Sherpa.DAOD_FTAG2.e5271_s3126_r10724_p3970.AT21.2.93_28.10.2019_mc16e_v1.2_output_root
/eos/home-j/jhall/BTagging/Productions/October19_ntuples/mc16e/user.jhall.364113.Sherpa.DAOD_FTAG2.e5271_s3126_r10724_p3970.AT21.2.93_28.10.2019_mc16e_v1.2_output_root
/eos/home-j/jhall/BTagging/Productions/October19_ntuples/mc16e/user.jhall.364114.Sherpa.DAOD_FTAG2.e5299_s3126_r10724_p3970.AT21.2.93_28.10.2019_mc16e_v1.2_output_root
/eos/home-j/jhall/BTagging/Productions/October19_ntuples/mc16e/user.jhall.364115.Sherpa.DAOD_FTAG2.e5299_s3126_r10724_p3970.AT21.2.93_28.10.2019_mc16e_v1.2_output_root
/eos/home-j/jhall/BTagging/Productions/October19_ntuples/mc16e/user.jhall.364116.Sherpa.DAOD_FTAG2.e5299_s3126_r10724_p3970.AT21.2.93_28.10.2019_mc16e_v1.2_output_root
/eos/home-j/jhall/BTagging/Productions/October19_ntuples/mc16e/user.jhall.364117.Sherpa.DAOD_FTAG2.e5299_s3126_r10724_p3970.AT21.2.93_28.10.2019_mc16e_v1.2_output_root
/eos/home-j/jhall/BTagging/Productions/October19_ntuples/mc16e/user.jhall.364118.Sherpa.DAOD_FTAG2.e5299_s3126_r10724_p3970.AT21.2.93_28.10.2019_mc16e_v1.2_output_root
/eos/home-j/jhall/BTagging/Productions/October19_ntuples/mc16e/user.jhall.364119.Sherpa.DAOD_FTAG2.e5299_s3126_r10724_p3970.AT21.2.93_28.10.2019_mc16e_v1.2_output_root
/eos/home-j/jhall/BTagging/Productions/October19_ntuples/mc16a/user.jhall.364120.Sherpa.DAOD_FTAG2.e5299_s3126_r9364_p3970.AT21.2.93_28.10.2019_mc16a_v1.0_output_root
/eos/home-j/jhall/BTagging/Productions/October19_ntuples/mc16a/user.jhall.364121.Sherpa.DAOD_FTAG2.e5299_s3126_r9364_p3970.AT21.2.93_28.10.2019_mc16a_v1.0_output_root
/eos/home-j/jhall/BTagging/Productions/October19_ntuples/mc16a/user.jhall.364122.Sherpa.DAOD_FTAG2.e5299_s3126_r9364_p3970.AT21.2.93_28.10.2019_mc16a_v1.0_output_root
/eos/home-j/jhall/BTagging/Productions/October19_ntuples/mc16a/user.jhall.364123.Sherpa.DAOD_FTAG2.e5299_s3126_r9364_p3970.AT21.2.93_28.10.2019_mc16a_v1.0_output_root
/eos/home-j/jhall/BTagging/Productions/October19_ntuples/mc16a/user.jhall.364124.Sherpa.DAOD_FTAG2.e5299_s3126_r9364_p3970.AT21.2.93_28.10.2019_mc16a_v1.0_output_root
/eos/home-j/jhall/BTagging/Productions/October19_ntuples/mc16a/user.jhall.364125.Sherpa.DAOD_FTAG2.e5299_s3126_r9364_p3970.AT21.2.93_28.10.2019_mc16a_v1.0_output_root
/eos/home-j/jhall/BTagging/Productions/October19_ntuples/mc16a/user.jhall.364126.Sherpa.DAOD_FTAG2.e5299_s3126_r9364_p3970.AT21.2.93_28.10.2019_mc16a_v1.0_output_root
/eos/home-j/jhall/BTagging/Productions/October19_ntuples/mc16a/user.jhall.364127.Sherpa.DAOD_FTAG2.e5299_s3126_r9364_p3970.AT21.2.93_28.10.2019_mc16a_v1.0_output_root
/eos/home-j/jhall/BTagging/Productions/October19_ntuples/mc16a/user.jhall.364128.Sherpa.DAOD_FTAG2.e5307_s3126_r9364_p3970.AT21.2.93_28.10.2019_mc16a_v1.0_output_root
/eos/home-j/jhall/BTagging/Productions/October19_ntuples/mc16a/user.jhall.364129.Sherpa.DAOD_FTAG2.e5307_s3126_r9364_p3970.AT21.2.93_28.10.2019_mc16a_v1.0_output_root
/eos/home-j/jhall/BTagging/Productions/October19_ntuples/mc16d/user.jhall.364120.Sherpa.DAOD_FTAG2.e5299_s3126_r10201_p3970.AT21.2.93_28.10.2019_mc16d_v1.4_output_root
/eos/home-j/jhall/BTagging/Productions/October19_ntuples/mc16d/user.jhall.364121.Sherpa.DAOD_FTAG2.e5299_s3126_r10201_p3970.AT21.2.93_28.10.2019_mc16d_v1.4_output_root
/eos/home-j/jhall/BTagging/Productions/October19_ntuples/mc16d/user.jhall.364122.Sherpa.DAOD_FTAG2.e5299_s3126_r10201_p3970.AT21.2.93_28.10.2019_mc16d_v1.4_output_root
/eos/home-j/jhall/BTagging/Productions/October19_ntuples/mc16d/user.jhall.364123.Sherpa.DAOD_FTAG2.e5299_s3126_r10201_p3970.AT21.2.93_28.10.2019_mc16d_v1.4_output_root
/eos/home-j/jhall/BTagging/Productions/October19_ntuples/mc16d/user.jhall.364125.Sherpa.DAOD_FTAG2.e5299_s3126_r10201_p3970.AT21.2.93_28.10.2019_mc16d_v1.4_output_root
/eos/home-j/jhall/BTagging/Productions/October19_ntuples/mc16d/user.jhall.364126.Sherpa.DAOD_FTAG2.e5299_s3126_r10201_p3970.AT21.2.93_28.10.2019_mc16d_v1.4_output_root
/eos/home-j/jhall/BTagging/Productions/October19_ntuples/mc16d/user.jhall.364127.Sherpa.DAOD_FTAG2.e5299_s3126_r10201_p3970.AT21.2.93_28.10.2019_mc16d_v1.4_output_root
/eos/home-j/jhall/BTagging/Productions/October19_ntuples/mc16d/user.jhall.364128.Sherpa.DAOD_FTAG2.e5307_s3126_r10201_p3970.AT21.2.93_28.10.2019_mc16d_v1.4_output_root
/eos/home-j/jhall/BTagging/Productions/October19_ntuples/mc16d/user.jhall.364129.Sherpa.DAOD_FTAG2.e5307_s3126_r10201_p3970.AT21.2.93_28.10.2019_mc16d_v1.4_output_root
/eos/home-j/jhall/BTagging/Productions/October19_ntuples/mc16e/user.jhall.364120.Sherpa.DAOD_FTAG2.e5299_s3126_r10724_p3970.AT21.2.93_28.10.2019_mc16e_v1.2_output_root
/eos/home-j/jhall/BTagging/Productions/October19_ntuples/mc16e/user.jhall.364122.Sherpa.DAOD_FTAG2.e5299_s3126_r10724_p3970.AT21.2.93_28.10.2019_mc16e_v1.2_output_root
/eos/home-j/jhall/BTagging/Productions/October19_ntuples/mc16e/user.jhall.364123.Sherpa.DAOD_FTAG2.e5299_s3126_r10724_p3970.AT21.2.93_28.10.2019_mc16e_v1.2_output_root
/eos/home-j/jhall/BTagging/Productions/October19_ntuples/mc16e/user.jhall.364125.Sherpa.DAOD_FTAG2.e5299_s3126_r10724_p3970.AT21.2.93_28.10.2019_mc16e_v1.2_output_root
/eos/home-j/jhall/BTagging/Productions/October19_ntuples/mc16e/user.jhall.364126.Sherpa.DAOD_FTAG2.e5299_s3126_r10724_p3970.AT21.2.93_28.10.2019_mc16e_v1.2_output_root
/eos/home-j/jhall/BTagging/Productions/October19_ntuples/mc16e/user.jhall.364127.Sherpa.DAOD_FTAG2.e5299_s3126_r10724_p3970.AT21.2.93_28.10.2019_mc16e_v1.2_output_root
/eos/home-j/jhall/BTagging/Productions/October19_ntuples/mc16e/user.jhall.364128.Sherpa.DAOD_FTAG2.e5307_s3126_r10724_p3970.AT21.2.93_28.10.2019_mc16e_v1.2_output_root
/eos/home-j/jhall/BTagging/Productions/October19_ntuples/mc16e/user.jhall.364129.Sherpa.DAOD_FTAG2.e5307_s3126_r10724_p3970.AT21.2.93_28.10.2019_mc16e_v1.2_output_root
/eos/home-j/jhall/BTagging/Productions/October19_ntuples/mc16a/user.jhall.364130.Sherpa.DAOD_FTAG2.e5307_s3126_r9364_p3970.AT21.2.93_28.10.2019_mc16a_v1.0_output_root
/eos/home-j/jhall/BTagging/Productions/October19_ntuples/mc16a/user.jhall.364131.Sherpa.DAOD_FTAG2.e5307_s3126_r9364_p3970.AT21.2.93_28.10.2019_mc16a_v1.0_output_root
/eos/home-j/jhall/BTagging/Productions/October19_ntuples/mc16a/user.jhall.364132.Sherpa.DAOD_FTAG2.e5307_s3126_r9364_p3970.AT21.2.93_28.10.2019_mc16a_v1.0_output_root
/eos/home-j/jhall/BTagging/Productions/October19_ntuples/mc16a/user.jhall.364133.Sherpa.DAOD_FTAG2.e5307_s3126_r9364_p3970.AT21.2.93_28.10.2019_mc16a_v1.0_output_root
/eos/home-j/jhall/BTagging/Productions/October19_ntuples/mc16a/user.jhall.364134.Sherpa.DAOD_FTAG2.e5307_s3126_r9364_p3970.AT21.2.93_28.10.2019_mc16a_v1.0_output_root
/eos/home-j/jhall/BTagging/Productions/October19_ntuples/mc16a/user.jhall.364135.Sherpa.DAOD_FTAG2.e5307_s3126_r9364_p3970.AT21.2.93_28.10.2019_mc16a_v1.0_output_root
/eos/home-j/jhall/BTagging/Productions/October19_ntuples/mc16a/user.jhall.364136.Sherpa.DAOD_FTAG2.e5307_s3126_r9364_p3970.AT21.2.93_28.10.2019_mc16a_v1.0_output_root
/eos/home-j/jhall/BTagging/Productions/October19_ntuples/mc16a/user.jhall.364137.Sherpa.DAOD_FTAG2.e5307_s3126_r9364_p3970.AT21.2.93_28.10.2019_mc16a_v1.0_output_root
/eos/home-j/jhall/BTagging/Productions/October19_ntuples/mc16a/user.jhall.364138.Sherpa.DAOD_FTAG2.e5313_s3126_r9364_p3970.AT21.2.93_28.10.2019_mc16a_v1.0_output_root
/eos/home-j/jhall/BTagging/Productions/October19_ntuples/mc16a/user.jhall.364139.Sherpa.DAOD_FTAG2.e5313_s3126_r9364_p3970.AT21.2.93_28.10.2019_mc16a_v1.0_output_root
/eos/home-j/jhall/BTagging/Productions/October19_ntuples/mc16d/user.jhall.364130.Sherpa.DAOD_FTAG2.e5307_s3126_r10201_p3970.AT21.2.93_28.10.2019_mc16d_v1.4_output_root
/eos/home-j/jhall/BTagging/Productions/October19_ntuples/mc16d/user.jhall.364131.Sherpa.DAOD_FTAG2.e5307_s3126_r10201_p3970.AT21.2.93_28.10.2019_mc16d_v1.4_output_root
/eos/home-j/jhall/BTagging/Productions/October19_ntuples/mc16d/user.jhall.364132.Sherpa.DAOD_FTAG2.e5307_s3126_r10201_p3970.AT21.2.93_28.10.2019_mc16d_v1.4_output_root
/eos/home-j/jhall/BTagging/Productions/October19_ntuples/mc16d/user.jhall.364133.Sherpa.DAOD_FTAG2.e5307_s3126_r10201_p3970.AT21.2.93_28.10.2019_mc16d_v1.4_output_root
/eos/home-j/jhall/BTagging/Productions/October19_ntuples/mc16d/user.jhall.364135.Sherpa.DAOD_FTAG2.e5307_s3126_r10201_p3970.AT21.2.93_28.10.2019_mc16d_v1.4_output_root
/eos/home-j/jhall/BTagging/Productions/October19_ntuples/mc16d/user.jhall.364136.Sherpa.DAOD_FTAG2.e5307_s3126_r10201_p3970.AT21.2.93_28.10.2019_mc16d_v1.4_output_root
/eos/home-j/jhall/BTagging/Productions/October19_ntuples/mc16d/user.jhall.364137.Sherpa.DAOD_FTAG2.e5307_s3126_r10201_p3970.AT21.2.93_28.10.2019_mc16d_v1.4_output_root
/eos/home-j/jhall/BTagging/Productions/October19_ntuples/mc16d/user.jhall.364138.Sherpa.DAOD_FTAG2.e5313_s3126_r10201_p3970.AT21.2.93_28.10.2019_mc16d_v1.4_output_root
/eos/home-j/jhall/BTagging/Productions/October19_ntuples/mc16d/user.jhall.364139.Sherpa.DAOD_FTAG2.e5313_s3126_r10201_p3970.AT21.2.93_28.10.2019_mc16d_v1.4_output_root
/eos/home-j/jhall/BTagging/Productions/October19_ntuples/mc16e/user.jhall.364130.Sherpa.DAOD_FTAG2.e5307_s3126_r10724_p3970.AT21.2.93_28.10.2019_mc16e_v1.2_output_root
/eos/home-j/jhall/BTagging/Productions/October19_ntuples/mc16e/user.jhall.364131.Sherpa.DAOD_FTAG2.e5307_s3126_r10724_p3970.AT21.2.93_28.10.2019_mc16e_v1.2_output_root
/eos/home-j/jhall/BTagging/Productions/October19_ntuples/mc16e/user.jhall.364132.Sherpa.DAOD_FTAG2.e5307_s3126_r10724_p3970.AT21.2.93_28.10.2019_mc16e_v1.2_output_root
/eos/home-j/jhall/BTagging/Productions/October19_ntuples/mc16e/user.jhall.364133.Sherpa.DAOD_FTAG2.e5307_s3126_r10724_p3970.AT21.2.93_28.10.2019_mc16e_v1.2_output_root
/eos/home-j/jhall/BTagging/Productions/October19_ntuples/mc16e/user.jhall.364135.Sherpa.DAOD_FTAG2.e5307_s3126_r10724_p3970.AT21.2.93_28.10.2019_mc16e_v1.2_output_root
/eos/home-j/jhall/BTagging/Productions/October19_ntuples/mc16e/user.jhall.364136.Sherpa.DAOD_FTAG2.e5307_s3126_r10724_p3970.AT21.2.93_28.10.2019_mc16e_v1.2_output_root
/eos/home-j/jhall/BTagging/Productions/October19_ntuples/mc16e/user.jhall.364137.Sherpa.DAOD_FTAG2.e5307_s3126_r10724_p3970.AT21.2.93_28.10.2019_mc16e_v1.2_output_root
/eos/home-j/jhall/BTagging/Productions/October19_ntuples/mc16e/user.jhall.364138.Sherpa.DAOD_FTAG2.e5313_s3126_r10724_p3970.AT21.2.93_28.10.2019_mc16e_v1.2_output_root
/eos/home-j/jhall/BTagging/Productions/October19_ntuples/mc16e/user.jhall.364139.Sherpa.DAOD_FTAG2.e5313_s3126_r10724_p3970.AT21.2.93_28.10.2019_mc16e_v1.2_output_root
/eos/home-j/jhall/BTagging/Productions/October19_ntuples/mc16a/user.jhall.364140.Sherpa.DAOD_FTAG2.e5307_s3126_r9364_p3970.AT21.2.93_28.10.2019_mc16a_v1.0_output_root
/eos/home-j/jhall/BTagging/Productions/October19_ntuples/mc16d/user.jhall.364140.Sherpa.DAOD_FTAG2.e5307_s3126_r10201_p3970.AT21.2.93_28.10.2019_mc16d_v1.4_output_root
/eos/home-j/jhall/BTagging/Productions/October19_ntuples/mc16e/user.jhall.364140.Sherpa.DAOD_FTAG2.e5307_s3126_r10724_p3970.AT21.2.93_28.10.2019_mc16e_v1.2_output_root
/eos/home-j/jhall/BTagging/Productions/October19_ntuples/mc16a/user.jhall.364141.Sherpa.DAOD_FTAG2.e5307_s3126_r9364_p3970.AT21.2.93_28.10.2019_mc16a_v1.0_output_root
/eos/home-j/jhall/BTagging/Productions/October19_ntuples/mc16d/user.jhall.364141.Sherpa.DAOD_FTAG2.e5307_s3126_r10201_p3970.AT21.2.93_28.10.2019_mc16d_v1.4_output_root
/eos/home-j/jhall/BTagging/Productions/October19_ntuples/mc16e/user.jhall.364141.Sherpa.DAOD_FTAG2.e5307_s3126_r10724_p3970.AT21.2.93_28.10.2019_mc16e_v1.2_output_root
/eos/home-j/jhall/BTagging/Productions/October19_ntuples/mc16a/user.jhall.364198.Sherpa.DAOD_FTAG2.e5421_s3126_r9364_p3970.AT21.2.93_28.10.2019_mc16a_v1.0_output_root
/eos/home-j/jhall/BTagging/Productions/October19_ntuples/mc16d/user.jhall.364198.Sherpa.DAOD_FTAG2.e5421_s3126_r10201_p3970.AT21.2.93_28.10.2019_mc16d_v1.4_output_root
/eos/home-j/jhall/BTagging/Productions/October19_ntuples/mc16e/user.jhall.364198.Sherpa.DAOD_FTAG2.e5421_s3126_r10724_p3970.AT21.2.93_28.10.2019_mc16e_v1.2_output_root
/eos/home-j/jhall/BTagging/Productions/October19_ntuples/mc16a/user.jhall.364199.Sherpa.DAOD_FTAG2.e5421_s3126_r9364_p3970.AT21.2.93_28.10.2019_mc16a_v1.0_output_root
/eos/home-j/jhall/BTagging/Productions/October19_ntuples/mc16d/user.jhall.364199.Sherpa.DAOD_FTAG2.e5421_s3126_r10201_p3970.AT21.2.93_28.10.2019_mc16d_v1.4_output_root
/eos/home-j/jhall/BTagging/Productions/October19_ntuples/mc16e/user.jhall.364199.Sherpa.DAOD_FTAG2.e5421_s3126_r10724_p3970.AT21.2.93_28.10.2019_mc16e_v1.2_output_root
/eos/home-j/jhall/BTagging/Productions/October19_ntuples/mc16a/user.jhall.364200.Sherpa.DAOD_FTAG2.e5421_s3126_r9364_p3970.AT21.2.93_28.10.2019_mc16a_v1.0_output_root
/eos/home-j/jhall/BTagging/Productions/October19_ntuples/mc16a/user.jhall.364201.Sherpa.DAOD_FTAG2.e5421_s3126_r9364_p3970.AT21.2.93_28.10.2019_mc16a_v1.0_output_root
/eos/home-j/jhall/BTagging/Productions/October19_ntuples/mc16a/user.jhall.364202.Sherpa.DAOD_FTAG2.e5421_s3126_r9364_p3970.AT21.2.93_28.10.2019_mc16a_v1.0_output_root
/eos/home-j/jhall/BTagging/Productions/October19_ntuples/mc16a/user.jhall.364203.Sherpa.DAOD_FTAG2.e5421_s3126_r9364_p3970.AT21.2.93_28.10.2019_mc16a_v1.0_output_root
/eos/home-j/jhall/BTagging/Productions/October19_ntuples/mc16a/user.jhall.364204.Sherpa.DAOD_FTAG2.e5421_s3126_r9364_p3970.AT21.2.93_28.10.2019_mc16a_v1.0_output_root
/eos/home-j/jhall/BTagging/Productions/October19_ntuples/mc16a/user.jhall.364205.Sherpa.DAOD_FTAG2.e5421_s3126_r9364_p3970.AT21.2.93_28.10.2019_mc16a_v1.0_output_root
/eos/home-j/jhall/BTagging/Productions/October19_ntuples/mc16a/user.jhall.364206.Sherpa.DAOD_FTAG2.e5421_s3126_r9364_p3970.AT21.2.93_28.10.2019_mc16a_v1.0_output_root
/eos/home-j/jhall/BTagging/Productions/October19_ntuples/mc16a/user.jhall.364207.Sherpa.DAOD_FTAG2.e5421_s3126_r9364_p3970.AT21.2.93_28.10.2019_mc16a_v1.0_output_root
/eos/home-j/jhall/BTagging/Productions/October19_ntuples/mc16a/user.jhall.364208.Sherpa.DAOD_FTAG2.e5421_s3126_r9364_p3970.AT21.2.93_28.10.2019_mc16a_v1.0_output_root
/eos/home-j/jhall/BTagging/Productions/October19_ntuples/mc16a/user.jhall.364209.Sherpa.DAOD_FTAG2.e5421_s3126_r9364_p3970.AT21.2.93_28.10.2019_mc16a_v1.0_output_root
/eos/home-j/jhall/BTagging/Productions/October19_ntuples/mc16d/user.jhall.364200.Sherpa.DAOD_FTAG2.e5421_s3126_r10201_p3970.AT21.2.93_28.10.2019_mc16d_v1.4_output_root
/eos/home-j/jhall/BTagging/Productions/October19_ntuples/mc16d/user.jhall.364201.Sherpa.DAOD_FTAG2.e5421_s3126_r10201_p3970.AT21.2.93_28.10.2019_mc16d_v1.4_output_root
/eos/home-j/jhall/BTagging/Productions/October19_ntuples/mc16d/user.jhall.364202.Sherpa.DAOD_FTAG2.e5421_s3126_r10201_p3970.AT21.2.93_28.10.2019_mc16d_v1.4_output_root
/eos/home-j/jhall/BTagging/Productions/October19_ntuples/mc16d/user.jhall.364204.Sherpa.DAOD_FTAG2.e5421_s3126_r10201_p3970.AT21.2.93_28.10.2019_mc16d_v1.4_output_root
/eos/home-j/jhall/BTagging/Productions/October19_ntuples/mc16d/user.jhall.364205.Sherpa.DAOD_FTAG2.e5421_s3126_r10201_p3970.AT21.2.93_28.10.2019_mc16d_v1.4_output_root
/eos/home-j/jhall/BTagging/Productions/October19_ntuples/mc16d/user.jhall.364206.Sherpa.DAOD_FTAG2.e5421_s3126_r10201_p3970.AT21.2.93_28.10.2019_mc16d_v1.4_output_root
/eos/home-j/jhall/BTagging/Productions/October19_ntuples/mc16d/user.jhall.364209.Sherpa.DAOD_FTAG2.e5421_s3126_r10201_p3970.AT21.2.93_28.10.2019_mc16d_v1.4_output_root
/eos/home-j/jhall/BTagging/Productions/October19_ntuples/mc16e/user.jhall.364200.Sherpa.DAOD_FTAG2.e5421_s3126_r10724_p3970.AT21.2.93_28.10.2019_mc16e_v1.2_output_root
/eos/home-j/jhall/BTagging/Productions/October19_ntuples/mc16e/user.jhall.364201.Sherpa.DAOD_FTAG2.e5421_s3126_r10724_p3970.AT21.2.93_28.10.2019_mc16e_v1.2_output_root
/eos/home-j/jhall/BTagging/Productions/October19_ntuples/mc16e/user.jhall.364202.Sherpa.DAOD_FTAG2.e5421_s3126_r10724_p3970.AT21.2.93_28.10.2019_mc16e_v1.2_output_root
/eos/home-j/jhall/BTagging/Productions/October19_ntuples/mc16e/user.jhall.364204.Sherpa.DAOD_FTAG2.e5421_s3126_r10724_p3970.AT21.2.93_28.10.2019_mc16e_v1.2_output_root
/eos/home-j/jhall/BTagging/Productions/October19_ntuples/mc16e/user.jhall.364205.Sherpa.DAOD_FTAG2.e5421_s3126_r10724_p3970.AT21.2.93_28.10.2019_mc16e_v1.2_output_root
/eos/home-j/jhall/BTagging/Productions/October19_ntuples/mc16e/user.jhall.364206.Sherpa.DAOD_FTAG2.e5421_s3126_r10724_p3970.AT21.2.93_28.10.2019_mc16e_v1.2_output_root
/eos/home-j/jhall/BTagging/Productions/October19_ntuples/mc16e/user.jhall.364209.Sherpa.DAOD_FTAG2.e5421_s3126_r10724_p3970.AT21.2.93_28.10.2019_mc16e_v1.2_output_root
/eos/home-j/jhall/BTagging/Productions/October19_ntuples/mc16a/user.jhall.364210.Sherpa.DAOD_FTAG2.e5421_s3126_r9364_p3970.AT21.2.93_28.10.2019_mc16a_v1.0_output_root
/eos/home-j/jhall/BTagging/Productions/October19_ntuples/mc16a/user.jhall.364211.Sherpa.DAOD_FTAG2.e5421_s3126_r9364_p3970.AT21.2.93_28.10.2019_mc16a_v1.0_output_root
/eos/home-j/jhall/BTagging/Productions/October19_ntuples/mc16a/user.jhall.364212.Sherpa.DAOD_FTAG2.e5421_s3126_r9364_p3970.AT21.2.93_28.10.2019_mc16a_v1.0_output_root
/eos/home-j/jhall/BTagging/Productions/October19_ntuples/mc16a/user.jhall.364213.Sherpa.DAOD_FTAG2.e5421_s3126_r9364_p3970.AT21.2.93_28.10.2019_mc16a_v1.0_output_root
/eos/home-j/jhall/BTagging/Productions/October19_ntuples/mc16a/user.jhall.364214.Sherpa.DAOD_FTAG2.e5421_s3126_r9364_p3970.AT21.2.93_28.10.2019_mc16a_v1.0_output_root
/eos/home-j/jhall/BTagging/Productions/October19_ntuples/mc16a/user.jhall.364215.Sherpa.DAOD_FTAG2.e5421_s3126_r9364_p3970.AT21.2.93_28.10.2019_mc16a_v1.0_output_root
/eos/home-j/jhall/BTagging/Productions/October19_ntuples/mc16d/user.jhall.364210.Sherpa.DAOD_FTAG2.e5421_s3126_r10201_p3970.AT21.2.93_28.10.2019_mc16d_v1.4_output_root
/eos/home-j/jhall/BTagging/Productions/October19_ntuples/mc16d/user.jhall.364211.Sherpa.DAOD_FTAG2.e5421_s3126_r10201_p3970.AT21.2.93_28.10.2019_mc16d_v1.4_output_root
/eos/home-j/jhall/BTagging/Productions/October19_ntuples/mc16d/user.jhall.364212.Sherpa.DAOD_FTAG2.e5421_s3126_r10201_p3970.AT21.2.93_28.10.2019_mc16d_v1.4_output_root
/eos/home-j/jhall/BTagging/Productions/October19_ntuples/mc16d/user.jhall.364213.Sherpa.DAOD_FTAG2.e5421_s3126_r10201_p3970.AT21.2.93_28.10.2019_mc16d_v1.4_output_root
/eos/home-j/jhall/BTagging/Productions/October19_ntuples/mc16d/user.jhall.364214.Sherpa.DAOD_FTAG2.e5421_s3126_r10201_p3970.AT21.2.93_28.10.2019_mc16d_v1.4_output_root
/eos/home-j/jhall/BTagging/Productions/October19_ntuples/mc16d/user.jhall.364215.Sherpa.DAOD_FTAG2.e5421_s3126_r10201_p3970.AT21.2.93_28.10.2019_mc16d_v1.4_output_root
/eos/home-j/jhall/BTagging/Productions/October19_ntuples/mc16e/user.jhall.364210.Sherpa.DAOD_FTAG2.e5421_s3126_r10724_p3970.AT21.2.93_28.10.2019_mc16e_v1.2_output_root
/eos/home-j/jhall/BTagging/Productions/October19_ntuples/mc16e/user.jhall.364211.Sherpa.DAOD_FTAG2.e5421_s3126_r10724_p3970.AT21.2.93_28.10.2019_mc16e_v1.2_output_root
/eos/home-j/jhall/BTagging/Productions/October19_ntuples/mc16e/user.jhall.364212.Sherpa.DAOD_FTAG2.e5421_s3126_r10724_p3970.AT21.2.93_28.10.2019_mc16e_v1.2_output_root
/eos/home-j/jhall/BTagging/Productions/October19_ntuples/mc16e/user.jhall.364213.Sherpa.DAOD_FTAG2.e5421_s3126_r10724_p3970.AT21.2.93_28.10.2019_mc16e_v1.2_output_root
/eos/home-j/jhall/BTagging/Productions/October19_ntuples/mc16e/user.jhall.364214.Sherpa.DAOD_FTAG2.e5421_s3126_r10724_p3970.AT21.2.93_28.10.2019_mc16e_v1.2_output_root
/eos/home-j/jhall/BTagging/Productions/October19_ntuples/mc16e/user.jhall.364215.Sherpa.DAOD_FTAG2.e5421_s3126_r10724_p3970.AT21.2.93_28.10.2019_mc16e_v1.2_output_root
/eos/user/a/alopezso/FTAGcalibration/Samples/user.jhall.364104.Sherpa.DAOD_FTAG2.e5271_s3126_r10724_p3970.AT21.2.93_28.10.2019_mc16e_v1.2_output_root
/eos/user/a/alopezso/FTAGcalibration/Samples/user.jhall.364121.Sherpa.DAOD_FTAG2.e5299_s3126_r10724_p3970.AT21.2.93_28.10.2019_mc16e_v1.2_output_root
/eos/user/a/alopezso/FTAGcalibration/Samples/user.jhall.364124.Sherpa.DAOD_FTAG2.e5299_s3126_r10724_p3970.AT21.2.93_28.10.2019_mc16e_v1.2_output_root
/eos/user/a/alopezso/FTAGcalibration/Samples/user.jhall.364134.Sherpa.DAOD_FTAG2.e5307_s3126_r10724_p3970.AT21.2.93_28.10.2019_mc16e_v1.2_output_root
/eos/user/a/alopezso/FTAGcalibration/Samples/user.jhall.364203.Sherpa.DAOD_FTAG2.e5421_s3126_r10724_p3970.AT21.2.93_28.10.2019_mc16e_v1.2_output_root
/eos/user/a/alopezso/FTAGcalibration/Samples/user.jhall.364207.Sherpa.DAOD_FTAG2.e5421_s3126_r10724_p3970.AT21.2.93_28.10.2019_mc16e_v1.2_output_root
/eos/user/a/alopezso/FTAGcalibration/Samples/user.jhall.364208.Sherpa.DAOD_FTAG2.e5421_s3126_r10724_p3970.AT21.2.93_28.10.2019_mc16e_v1.2_output_root
/eos/user/c/cmacdona/ForAlvaro/user.jhall.364104.Sherpa.DAOD_FTAG2.e5271_s3126_r10201_p3970.AT21.2.93_28.10.2019_mc16d_v1.4_output_root
/eos/user/c/cmacdona/ForAlvaro/user.jhall.364108.Sherpa.DAOD_FTAG2.e5271_s3126_r10201_p3970.AT21.2.93_28.10.2019_mc16d_v1.4_output_root
/eos/user/c/cmacdona/ForAlvaro/user.jhall.364124.Sherpa.DAOD_FTAG2.e5299_s3126_r10201_p3970.AT21.2.93_28.10.2019_mc16d_v1.4_output_root
/eos/user/a/alvbot/FTAGcalibration/mc16d/user.jhall.364134.Sherpa.DAOD_FTAG2.e5307_s3126_r10201_p3970.AT21.2.93_28.10.2019_mc16d_v1.4_output_root
/eos/user/a/alvbot/FTAGcalibration/mc16d/user.jhall.364203.Sherpa.DAOD_FTAG2.e5421_s3126_r10201_p3970.AT21.2.93_28.10.2019_mc16d_v1.4_output_root
/eos/user/a/alvbot/FTAGcalibration/mc16d/user.jhall.364207.Sherpa.DAOD_FTAG2.e5421_s3126_r10201_p3970.AT21.2.93_28.10.2019_mc16d_v1.4_output_root
/eos/user/a/alvbot/FTAGcalibration/mc16d/user.jhall.364208.Sherpa.DAOD_FTAG2.e5421_s3126_r10201_p3970.AT21.2.93_28.10.2019_mc16d_v1.4_output_root
