/eos/home-j/jhall/BTagging/Productions/October19_ntuples/mc16a/user.jhall.410250.Sherpa.DAOD_FTAG2.e5450_s3126_r9364_p3970.AT21.2.93_28.10.2019_mc16a_v1.0_output_root
/eos/home-j/jhall/BTagging/Productions/October19_ntuples/mc16d/user.jhall.410250.Sherpa.DAOD_FTAG2.e5450_s3126_r10201_p3970.AT21.2.93_28.10.2019_mc16d_v1.4_output_root
/eos/home-j/jhall/BTagging/Productions/October19_ntuples/mc16a/user.jhall.410251.Sherpa.DAOD_FTAG2.e5450_s3126_r9364_p3970.AT21.2.93_28.10.2019_mc16a_v1.0_output_root
/eos/home-j/jhall/BTagging/Productions/October19_ntuples/mc16d/user.jhall.410251.Sherpa.DAOD_FTAG2.e5450_s3126_r10201_p3970.AT21.2.93_28.10.2019_mc16d_v1.4_output_root
/eos/home-j/jhall/BTagging/Productions/October19_ntuples/mc16a/user.jhall.410252.Sherpa.DAOD_FTAG2.e5450_s3126_r9364_p3970.AT21.2.93_28.10.2019_mc16a_v1.0_output_root
/eos/home-j/jhall/BTagging/Productions/October19_ntuples/mc16d/user.jhall.410252.Sherpa.DAOD_FTAG2.e5450_s3126_r10201_p3970.AT21.2.93_28.10.2019_mc16d_v1.4_output_root
