/eos/user/j/jhall/BTagging/Productions/October19_ntuples/mc16a/user.jhall.411037.PowhegHerwig7EvtGen.DAOD_FTAG2.e6702_a875_r9364_p3970.AT21.2.93_28.10.2019_mc16a_v1.0_output_root/user.jhall.19668025._000001.output.root
/eos/user/j/jhall/BTagging/Productions/October19_ntuples/mc16a/user.jhall.411037.PowhegHerwig7EvtGen.DAOD_FTAG2.e6702_a875_r9364_p3970.AT21.2.93_28.10.2019_mc16a_v1.0_output_root/user.jhall.19668025._000002.output.root
/eos/user/j/jhall/BTagging/Productions/October19_ntuples/mc16a/user.jhall.411037.PowhegHerwig7EvtGen.DAOD_FTAG2.e6702_a875_r9364_p3970.AT21.2.93_28.10.2019_mc16a_v1.0_output_root/user.jhall.19668025._000003.output.root
