/eos/user/j/jhall/BTagging/Productions/October19_ntuples/mc16d/user.jhall.364113.Sherpa.DAOD_FTAG2.e5271_s3126_r10201_p3970.AT21.2.93_28.10.2019_mc16d_v1.4_output_root/user.jhall.19608436._000001.output.root
/eos/user/j/jhall/BTagging/Productions/October19_ntuples/mc16d/user.jhall.364113.Sherpa.DAOD_FTAG2.e5271_s3126_r10201_p3970.AT21.2.93_28.10.2019_mc16d_v1.4_output_root/user.jhall.19608436._000002.output.root
/eos/user/j/jhall/BTagging/Productions/October19_ntuples/mc16d/user.jhall.364113.Sherpa.DAOD_FTAG2.e5271_s3126_r10201_p3970.AT21.2.93_28.10.2019_mc16d_v1.4_output_root/user.jhall.19608436._000003.output.root
/eos/user/j/jhall/BTagging/Productions/October19_ntuples/mc16d/user.jhall.364113.Sherpa.DAOD_FTAG2.e5271_s3126_r10201_p3970.AT21.2.93_28.10.2019_mc16d_v1.4_output_root/user.jhall.19608436._000004.output.root
/eos/user/j/jhall/BTagging/Productions/October19_ntuples/mc16d/user.jhall.364113.Sherpa.DAOD_FTAG2.e5271_s3126_r10201_p3970.AT21.2.93_28.10.2019_mc16d_v1.4_output_root/user.jhall.19608436._000005.output.root
/eos/user/j/jhall/BTagging/Productions/October19_ntuples/mc16d/user.jhall.364113.Sherpa.DAOD_FTAG2.e5271_s3126_r10201_p3970.AT21.2.93_28.10.2019_mc16d_v1.4_output_root/user.jhall.19608436._000006.output.root
/eos/user/j/jhall/BTagging/Productions/October19_ntuples/mc16d/user.jhall.364113.Sherpa.DAOD_FTAG2.e5271_s3126_r10201_p3970.AT21.2.93_28.10.2019_mc16d_v1.4_output_root/user.jhall.19608436._000007.output.root
/eos/user/j/jhall/BTagging/Productions/October19_ntuples/mc16d/user.jhall.364113.Sherpa.DAOD_FTAG2.e5271_s3126_r10201_p3970.AT21.2.93_28.10.2019_mc16d_v1.4_output_root/user.jhall.19608436._000008.output.root
/eos/user/j/jhall/BTagging/Productions/October19_ntuples/mc16d/user.jhall.364113.Sherpa.DAOD_FTAG2.e5271_s3126_r10201_p3970.AT21.2.93_28.10.2019_mc16d_v1.4_output_root/user.jhall.19608436._000009.output.root
/eos/user/j/jhall/BTagging/Productions/October19_ntuples/mc16d/user.jhall.364113.Sherpa.DAOD_FTAG2.e5271_s3126_r10201_p3970.AT21.2.93_28.10.2019_mc16d_v1.4_output_root/user.jhall.19608436._000010.output.root
/eos/user/j/jhall/BTagging/Productions/October19_ntuples/mc16d/user.jhall.364113.Sherpa.DAOD_FTAG2.e5271_s3126_r10201_p3970.AT21.2.93_28.10.2019_mc16d_v1.4_output_root/user.jhall.19608436._000011.output.root
/eos/user/j/jhall/BTagging/Productions/October19_ntuples/mc16d/user.jhall.364113.Sherpa.DAOD_FTAG2.e5271_s3126_r10201_p3970.AT21.2.93_28.10.2019_mc16d_v1.4_output_root/user.jhall.19608436._000012.output.root
/eos/user/j/jhall/BTagging/Productions/October19_ntuples/mc16d/user.jhall.364113.Sherpa.DAOD_FTAG2.e5271_s3126_r10201_p3970.AT21.2.93_28.10.2019_mc16d_v1.4_output_root/user.jhall.19608436._000013.output.root
/eos/user/j/jhall/BTagging/Productions/October19_ntuples/mc16d/user.jhall.364113.Sherpa.DAOD_FTAG2.e5271_s3126_r10201_p3970.AT21.2.93_28.10.2019_mc16d_v1.4_output_root/user.jhall.19608436._000014.output.root
/eos/user/j/jhall/BTagging/Productions/October19_ntuples/mc16d/user.jhall.364113.Sherpa.DAOD_FTAG2.e5271_s3126_r10201_p3970.AT21.2.93_28.10.2019_mc16d_v1.4_output_root/user.jhall.19608436._000015.output.root
/eos/user/j/jhall/BTagging/Productions/October19_ntuples/mc16d/user.jhall.364113.Sherpa.DAOD_FTAG2.e5271_s3126_r10201_p3970.AT21.2.93_28.10.2019_mc16d_v1.4_output_root/user.jhall.19608436._000016.output.root
/eos/user/j/jhall/BTagging/Productions/October19_ntuples/mc16d/user.jhall.364113.Sherpa.DAOD_FTAG2.e5271_s3126_r10201_p3970.AT21.2.93_28.10.2019_mc16d_v1.4_output_root/user.jhall.19608436._000017.output.root
/eos/user/j/jhall/BTagging/Productions/October19_ntuples/mc16d/user.jhall.364113.Sherpa.DAOD_FTAG2.e5271_s3126_r10201_p3970.AT21.2.93_28.10.2019_mc16d_v1.4_output_root/user.jhall.19608436._000018.output.root
/eos/user/j/jhall/BTagging/Productions/October19_ntuples/mc16d/user.jhall.364113.Sherpa.DAOD_FTAG2.e5271_s3126_r10201_p3970.AT21.2.93_28.10.2019_mc16d_v1.4_output_root/user.jhall.19608436._000019.output.root
/eos/user/j/jhall/BTagging/Productions/October19_ntuples/mc16d/user.jhall.364113.Sherpa.DAOD_FTAG2.e5271_s3126_r10201_p3970.AT21.2.93_28.10.2019_mc16d_v1.4_output_root/user.jhall.19608436._000020.output.root
/eos/user/j/jhall/BTagging/Productions/October19_ntuples/mc16d/user.jhall.364113.Sherpa.DAOD_FTAG2.e5271_s3126_r10201_p3970.AT21.2.93_28.10.2019_mc16d_v1.4_output_root/user.jhall.19608436._000021.output.root
