/eos/user/a/alopezso/FTAGcalibration/Samples/user.jhall.364207.Sherpa.DAOD_FTAG2.e5421_s3126_r10724_p3970.AT21.2.93_28.10.2019_mc16e_v1.2_output_root/user.jhall.20096978._000001.output.root
/eos/user/a/alopezso/FTAGcalibration/Samples/user.jhall.364207.Sherpa.DAOD_FTAG2.e5421_s3126_r10724_p3970.AT21.2.93_28.10.2019_mc16e_v1.2_output_root/user.jhall.20096978._000002.output.root
/eos/user/a/alopezso/FTAGcalibration/Samples/user.jhall.364207.Sherpa.DAOD_FTAG2.e5421_s3126_r10724_p3970.AT21.2.93_28.10.2019_mc16e_v1.2_output_root/user.jhall.20096978._000004.output.root
