/eos/user/j/jhall/BTagging/Productions/October19_ntuples/mc16e/user.jhall.364101.Sherpa.DAOD_FTAG2.e5271_s3126_r10724_p3970.AT21.2.93_28.10.2019_mc16e_v1.2_output_root/user.jhall.19603735._000001.output.root
/eos/user/j/jhall/BTagging/Productions/October19_ntuples/mc16e/user.jhall.364101.Sherpa.DAOD_FTAG2.e5271_s3126_r10724_p3970.AT21.2.93_28.10.2019_mc16e_v1.2_output_root/user.jhall.19603735._000003.output.root
/eos/user/j/jhall/BTagging/Productions/October19_ntuples/mc16e/user.jhall.364101.Sherpa.DAOD_FTAG2.e5271_s3126_r10724_p3970.AT21.2.93_28.10.2019_mc16e_v1.2_output_root/user.jhall.19603735._000004.output.root
/eos/user/j/jhall/BTagging/Productions/October19_ntuples/mc16e/user.jhall.364101.Sherpa.DAOD_FTAG2.e5271_s3126_r10724_p3970.AT21.2.93_28.10.2019_mc16e_v1.2_output_root/user.jhall.19603735._000007.output.root
/eos/user/j/jhall/BTagging/Productions/October19_ntuples/mc16e/user.jhall.364101.Sherpa.DAOD_FTAG2.e5271_s3126_r10724_p3970.AT21.2.93_28.10.2019_mc16e_v1.2_output_root/user.jhall.19603735._000008.output.root
/eos/user/j/jhall/BTagging/Productions/October19_ntuples/mc16e/user.jhall.364101.Sherpa.DAOD_FTAG2.e5271_s3126_r10724_p3970.AT21.2.93_28.10.2019_mc16e_v1.2_output_root/user.jhall.19603735._000011.output.root
/eos/user/j/jhall/BTagging/Productions/October19_ntuples/mc16e/user.jhall.364101.Sherpa.DAOD_FTAG2.e5271_s3126_r10724_p3970.AT21.2.93_28.10.2019_mc16e_v1.2_output_root/user.jhall.19603735._000013.output.root
/eos/user/j/jhall/BTagging/Productions/October19_ntuples/mc16e/user.jhall.364101.Sherpa.DAOD_FTAG2.e5271_s3126_r10724_p3970.AT21.2.93_28.10.2019_mc16e_v1.2_output_root/user.jhall.19603735._000014.output.root
/eos/user/j/jhall/BTagging/Productions/October19_ntuples/mc16e/user.jhall.364101.Sherpa.DAOD_FTAG2.e5271_s3126_r10724_p3970.AT21.2.93_28.10.2019_mc16e_v1.2_output_root/user.jhall.19603735._000015.output.root
/eos/user/j/jhall/BTagging/Productions/October19_ntuples/mc16e/user.jhall.364101.Sherpa.DAOD_FTAG2.e5271_s3126_r10724_p3970.AT21.2.93_28.10.2019_mc16e_v1.2_output_root/user.jhall.19603735._000017.output.root
/eos/user/j/jhall/BTagging/Productions/October19_ntuples/mc16e/user.jhall.364101.Sherpa.DAOD_FTAG2.e5271_s3126_r10724_p3970.AT21.2.93_28.10.2019_mc16e_v1.2_output_root/user.jhall.19603735._000018.output.root
/eos/user/j/jhall/BTagging/Productions/October19_ntuples/mc16e/user.jhall.364101.Sherpa.DAOD_FTAG2.e5271_s3126_r10724_p3970.AT21.2.93_28.10.2019_mc16e_v1.2_output_root/user.jhall.19603735._000019.output.root
/eos/user/j/jhall/BTagging/Productions/October19_ntuples/mc16e/user.jhall.364101.Sherpa.DAOD_FTAG2.e5271_s3126_r10724_p3970.AT21.2.93_28.10.2019_mc16e_v1.2_output_root/user.jhall.19603735._000020.output.root
/eos/user/j/jhall/BTagging/Productions/October19_ntuples/mc16e/user.jhall.364101.Sherpa.DAOD_FTAG2.e5271_s3126_r10724_p3970.AT21.2.93_28.10.2019_mc16e_v1.2_output_root/user.jhall.19603735._000021.output.root
/eos/user/j/jhall/BTagging/Productions/October19_ntuples/mc16e/user.jhall.364101.Sherpa.DAOD_FTAG2.e5271_s3126_r10724_p3970.AT21.2.93_28.10.2019_mc16e_v1.2_output_root/user.jhall.19603735._000022.output.root
/eos/user/j/jhall/BTagging/Productions/October19_ntuples/mc16e/user.jhall.364101.Sherpa.DAOD_FTAG2.e5271_s3126_r10724_p3970.AT21.2.93_28.10.2019_mc16e_v1.2_output_root/user.jhall.19603735._000023.output.root
/eos/user/j/jhall/BTagging/Productions/October19_ntuples/mc16e/user.jhall.364101.Sherpa.DAOD_FTAG2.e5271_s3126_r10724_p3970.AT21.2.93_28.10.2019_mc16e_v1.2_output_root/user.jhall.19603735._000024.output.root
/eos/user/j/jhall/BTagging/Productions/October19_ntuples/mc16e/user.jhall.364101.Sherpa.DAOD_FTAG2.e5271_s3126_r10724_p3970.AT21.2.93_28.10.2019_mc16e_v1.2_output_root/user.jhall.19603735._000025.output.root
/eos/user/j/jhall/BTagging/Productions/October19_ntuples/mc16e/user.jhall.364101.Sherpa.DAOD_FTAG2.e5271_s3126_r10724_p3970.AT21.2.93_28.10.2019_mc16e_v1.2_output_root/user.jhall.19603735._000026.output.root
/eos/user/j/jhall/BTagging/Productions/October19_ntuples/mc16e/user.jhall.364101.Sherpa.DAOD_FTAG2.e5271_s3126_r10724_p3970.AT21.2.93_28.10.2019_mc16e_v1.2_output_root/user.jhall.19603735._000027.output.root
/eos/user/j/jhall/BTagging/Productions/October19_ntuples/mc16e/user.jhall.364101.Sherpa.DAOD_FTAG2.e5271_s3126_r10724_p3970.AT21.2.93_28.10.2019_mc16e_v1.2_output_root/user.jhall.19603735._000028.output.root
/eos/user/j/jhall/BTagging/Productions/October19_ntuples/mc16e/user.jhall.364101.Sherpa.DAOD_FTAG2.e5271_s3126_r10724_p3970.AT21.2.93_28.10.2019_mc16e_v1.2_output_root/user.jhall.19603735._000029.output.root
/eos/user/j/jhall/BTagging/Productions/October19_ntuples/mc16e/user.jhall.364101.Sherpa.DAOD_FTAG2.e5271_s3126_r10724_p3970.AT21.2.93_28.10.2019_mc16e_v1.2_output_root/user.jhall.19603735._000030.output.root
