/eos/user/j/jhall/BTagging/Productions/October19_ntuples/mc16e/user.jhall.364127.Sherpa.DAOD_FTAG2.e5299_s3126_r10724_p3970.AT21.2.93_28.10.2019_mc16e_v1.2_output_root/user.jhall.19603869._000001.output.root
/eos/user/j/jhall/BTagging/Productions/October19_ntuples/mc16e/user.jhall.364127.Sherpa.DAOD_FTAG2.e5299_s3126_r10724_p3970.AT21.2.93_28.10.2019_mc16e_v1.2_output_root/user.jhall.19603869._000002.output.root
/eos/user/j/jhall/BTagging/Productions/October19_ntuples/mc16e/user.jhall.364127.Sherpa.DAOD_FTAG2.e5299_s3126_r10724_p3970.AT21.2.93_28.10.2019_mc16e_v1.2_output_root/user.jhall.19603869._000003.output.root
/eos/user/j/jhall/BTagging/Productions/October19_ntuples/mc16e/user.jhall.364127.Sherpa.DAOD_FTAG2.e5299_s3126_r10724_p3970.AT21.2.93_28.10.2019_mc16e_v1.2_output_root/user.jhall.19603869._000004.output.root
/eos/user/j/jhall/BTagging/Productions/October19_ntuples/mc16e/user.jhall.364127.Sherpa.DAOD_FTAG2.e5299_s3126_r10724_p3970.AT21.2.93_28.10.2019_mc16e_v1.2_output_root/user.jhall.19603869._000005.output.root
/eos/user/j/jhall/BTagging/Productions/October19_ntuples/mc16e/user.jhall.364127.Sherpa.DAOD_FTAG2.e5299_s3126_r10724_p3970.AT21.2.93_28.10.2019_mc16e_v1.2_output_root/user.jhall.19603869._000006.output.root
/eos/user/j/jhall/BTagging/Productions/October19_ntuples/mc16e/user.jhall.364127.Sherpa.DAOD_FTAG2.e5299_s3126_r10724_p3970.AT21.2.93_28.10.2019_mc16e_v1.2_output_root/user.jhall.19603869._000007.output.root
/eos/user/j/jhall/BTagging/Productions/October19_ntuples/mc16e/user.jhall.364127.Sherpa.DAOD_FTAG2.e5299_s3126_r10724_p3970.AT21.2.93_28.10.2019_mc16e_v1.2_output_root/user.jhall.19603869._000008.output.root
/eos/user/j/jhall/BTagging/Productions/October19_ntuples/mc16e/user.jhall.364127.Sherpa.DAOD_FTAG2.e5299_s3126_r10724_p3970.AT21.2.93_28.10.2019_mc16e_v1.2_output_root/user.jhall.19603869._000009.output.root
/eos/user/j/jhall/BTagging/Productions/October19_ntuples/mc16e/user.jhall.364127.Sherpa.DAOD_FTAG2.e5299_s3126_r10724_p3970.AT21.2.93_28.10.2019_mc16e_v1.2_output_root/user.jhall.19603869._000010.output.root
/eos/user/j/jhall/BTagging/Productions/October19_ntuples/mc16e/user.jhall.364127.Sherpa.DAOD_FTAG2.e5299_s3126_r10724_p3970.AT21.2.93_28.10.2019_mc16e_v1.2_output_root/user.jhall.19603869._000011.output.root
/eos/user/j/jhall/BTagging/Productions/October19_ntuples/mc16e/user.jhall.364127.Sherpa.DAOD_FTAG2.e5299_s3126_r10724_p3970.AT21.2.93_28.10.2019_mc16e_v1.2_output_root/user.jhall.19603869._000012.output.root
/eos/user/j/jhall/BTagging/Productions/October19_ntuples/mc16e/user.jhall.364127.Sherpa.DAOD_FTAG2.e5299_s3126_r10724_p3970.AT21.2.93_28.10.2019_mc16e_v1.2_output_root/user.jhall.19603869._000013.output.root
/eos/user/j/jhall/BTagging/Productions/October19_ntuples/mc16e/user.jhall.364127.Sherpa.DAOD_FTAG2.e5299_s3126_r10724_p3970.AT21.2.93_28.10.2019_mc16e_v1.2_output_root/user.jhall.19603869._000014.output.root
/eos/user/j/jhall/BTagging/Productions/October19_ntuples/mc16e/user.jhall.364127.Sherpa.DAOD_FTAG2.e5299_s3126_r10724_p3970.AT21.2.93_28.10.2019_mc16e_v1.2_output_root/user.jhall.19603869._000015.output.root
/eos/user/j/jhall/BTagging/Productions/October19_ntuples/mc16e/user.jhall.364127.Sherpa.DAOD_FTAG2.e5299_s3126_r10724_p3970.AT21.2.93_28.10.2019_mc16e_v1.2_output_root/user.jhall.19603869._000016.output.root
/eos/user/j/jhall/BTagging/Productions/October19_ntuples/mc16e/user.jhall.364127.Sherpa.DAOD_FTAG2.e5299_s3126_r10724_p3970.AT21.2.93_28.10.2019_mc16e_v1.2_output_root/user.jhall.19603869._000017.output.root
/eos/user/j/jhall/BTagging/Productions/October19_ntuples/mc16e/user.jhall.364127.Sherpa.DAOD_FTAG2.e5299_s3126_r10724_p3970.AT21.2.93_28.10.2019_mc16e_v1.2_output_root/user.jhall.19603869._000018.output.root
/eos/user/j/jhall/BTagging/Productions/October19_ntuples/mc16e/user.jhall.364127.Sherpa.DAOD_FTAG2.e5299_s3126_r10724_p3970.AT21.2.93_28.10.2019_mc16e_v1.2_output_root/user.jhall.19603869._000019.output.root
