/eos/user/j/jhall/BTagging/Productions/October19_ntuples/mc16d/user.jhall.364112.Sherpa.DAOD_FTAG2.e5271_s3126_r10201_p3970.AT21.2.93_28.10.2019_mc16d_v1.4_output_root/user.jhall.19607955._000001.output.root
/eos/user/j/jhall/BTagging/Productions/October19_ntuples/mc16d/user.jhall.364112.Sherpa.DAOD_FTAG2.e5271_s3126_r10201_p3970.AT21.2.93_28.10.2019_mc16d_v1.4_output_root/user.jhall.19607955._000002.output.root
/eos/user/j/jhall/BTagging/Productions/October19_ntuples/mc16d/user.jhall.364112.Sherpa.DAOD_FTAG2.e5271_s3126_r10201_p3970.AT21.2.93_28.10.2019_mc16d_v1.4_output_root/user.jhall.19607955._000003.output.root
/eos/user/j/jhall/BTagging/Productions/October19_ntuples/mc16d/user.jhall.364112.Sherpa.DAOD_FTAG2.e5271_s3126_r10201_p3970.AT21.2.93_28.10.2019_mc16d_v1.4_output_root/user.jhall.19607955._000004.output.root
/eos/user/j/jhall/BTagging/Productions/October19_ntuples/mc16d/user.jhall.364112.Sherpa.DAOD_FTAG2.e5271_s3126_r10201_p3970.AT21.2.93_28.10.2019_mc16d_v1.4_output_root/user.jhall.19607955._000005.output.root
/eos/user/j/jhall/BTagging/Productions/October19_ntuples/mc16d/user.jhall.364112.Sherpa.DAOD_FTAG2.e5271_s3126_r10201_p3970.AT21.2.93_28.10.2019_mc16d_v1.4_output_root/user.jhall.19607955._000006.output.root
/eos/user/j/jhall/BTagging/Productions/October19_ntuples/mc16d/user.jhall.364112.Sherpa.DAOD_FTAG2.e5271_s3126_r10201_p3970.AT21.2.93_28.10.2019_mc16d_v1.4_output_root/user.jhall.19607955._000007.output.root
/eos/user/j/jhall/BTagging/Productions/October19_ntuples/mc16d/user.jhall.364112.Sherpa.DAOD_FTAG2.e5271_s3126_r10201_p3970.AT21.2.93_28.10.2019_mc16d_v1.4_output_root/user.jhall.19607955._000008.output.root
/eos/user/j/jhall/BTagging/Productions/October19_ntuples/mc16d/user.jhall.364112.Sherpa.DAOD_FTAG2.e5271_s3126_r10201_p3970.AT21.2.93_28.10.2019_mc16d_v1.4_output_root/user.jhall.19607955._000009.output.root
/eos/user/j/jhall/BTagging/Productions/October19_ntuples/mc16d/user.jhall.364112.Sherpa.DAOD_FTAG2.e5271_s3126_r10201_p3970.AT21.2.93_28.10.2019_mc16d_v1.4_output_root/user.jhall.19607955._000010.output.root
/eos/user/j/jhall/BTagging/Productions/October19_ntuples/mc16d/user.jhall.364112.Sherpa.DAOD_FTAG2.e5271_s3126_r10201_p3970.AT21.2.93_28.10.2019_mc16d_v1.4_output_root/user.jhall.19607955._000011.output.root
/eos/user/j/jhall/BTagging/Productions/October19_ntuples/mc16d/user.jhall.364112.Sherpa.DAOD_FTAG2.e5271_s3126_r10201_p3970.AT21.2.93_28.10.2019_mc16d_v1.4_output_root/user.jhall.19607955._000012.output.root
/eos/user/j/jhall/BTagging/Productions/October19_ntuples/mc16d/user.jhall.364112.Sherpa.DAOD_FTAG2.e5271_s3126_r10201_p3970.AT21.2.93_28.10.2019_mc16d_v1.4_output_root/user.jhall.19607955._000013.output.root
/eos/user/j/jhall/BTagging/Productions/October19_ntuples/mc16d/user.jhall.364112.Sherpa.DAOD_FTAG2.e5271_s3126_r10201_p3970.AT21.2.93_28.10.2019_mc16d_v1.4_output_root/user.jhall.19607955._000014.output.root
/eos/user/j/jhall/BTagging/Productions/October19_ntuples/mc16d/user.jhall.364112.Sherpa.DAOD_FTAG2.e5271_s3126_r10201_p3970.AT21.2.93_28.10.2019_mc16d_v1.4_output_root/user.jhall.19607955._000015.output.root
/eos/user/j/jhall/BTagging/Productions/October19_ntuples/mc16d/user.jhall.364112.Sherpa.DAOD_FTAG2.e5271_s3126_r10201_p3970.AT21.2.93_28.10.2019_mc16d_v1.4_output_root/user.jhall.19607955._000016.output.root
/eos/user/j/jhall/BTagging/Productions/October19_ntuples/mc16d/user.jhall.364112.Sherpa.DAOD_FTAG2.e5271_s3126_r10201_p3970.AT21.2.93_28.10.2019_mc16d_v1.4_output_root/user.jhall.19607955._000017.output.root
/eos/user/j/jhall/BTagging/Productions/October19_ntuples/mc16d/user.jhall.364112.Sherpa.DAOD_FTAG2.e5271_s3126_r10201_p3970.AT21.2.93_28.10.2019_mc16d_v1.4_output_root/user.jhall.19607955._000018.output.root
/eos/user/j/jhall/BTagging/Productions/October19_ntuples/mc16d/user.jhall.364112.Sherpa.DAOD_FTAG2.e5271_s3126_r10201_p3970.AT21.2.93_28.10.2019_mc16d_v1.4_output_root/user.jhall.19607955._000019.output.root
/eos/user/j/jhall/BTagging/Productions/October19_ntuples/mc16d/user.jhall.364112.Sherpa.DAOD_FTAG2.e5271_s3126_r10201_p3970.AT21.2.93_28.10.2019_mc16d_v1.4_output_root/user.jhall.19607955._000020.output.root
/eos/user/j/jhall/BTagging/Productions/October19_ntuples/mc16d/user.jhall.364112.Sherpa.DAOD_FTAG2.e5271_s3126_r10201_p3970.AT21.2.93_28.10.2019_mc16d_v1.4_output_root/user.jhall.19607955._000021.output.root
/eos/user/j/jhall/BTagging/Productions/October19_ntuples/mc16d/user.jhall.364112.Sherpa.DAOD_FTAG2.e5271_s3126_r10201_p3970.AT21.2.93_28.10.2019_mc16d_v1.4_output_root/user.jhall.19607955._000022.output.root
/eos/user/j/jhall/BTagging/Productions/October19_ntuples/mc16d/user.jhall.364112.Sherpa.DAOD_FTAG2.e5271_s3126_r10201_p3970.AT21.2.93_28.10.2019_mc16d_v1.4_output_root/user.jhall.19607955._000023.output.root
/eos/user/j/jhall/BTagging/Productions/October19_ntuples/mc16d/user.jhall.364112.Sherpa.DAOD_FTAG2.e5271_s3126_r10201_p3970.AT21.2.93_28.10.2019_mc16d_v1.4_output_root/user.jhall.19607955._000024.output.root
/eos/user/j/jhall/BTagging/Productions/October19_ntuples/mc16d/user.jhall.364112.Sherpa.DAOD_FTAG2.e5271_s3126_r10201_p3970.AT21.2.93_28.10.2019_mc16d_v1.4_output_root/user.jhall.19607955._000025.output.root
/eos/user/j/jhall/BTagging/Productions/October19_ntuples/mc16d/user.jhall.364112.Sherpa.DAOD_FTAG2.e5271_s3126_r10201_p3970.AT21.2.93_28.10.2019_mc16d_v1.4_output_root/user.jhall.19607955._000026.output.root
/eos/user/j/jhall/BTagging/Productions/October19_ntuples/mc16d/user.jhall.364112.Sherpa.DAOD_FTAG2.e5271_s3126_r10201_p3970.AT21.2.93_28.10.2019_mc16d_v1.4_output_root/user.jhall.19607955._000027.output.root
/eos/user/j/jhall/BTagging/Productions/October19_ntuples/mc16d/user.jhall.364112.Sherpa.DAOD_FTAG2.e5271_s3126_r10201_p3970.AT21.2.93_28.10.2019_mc16d_v1.4_output_root/user.jhall.19607955._000028.output.root
/eos/user/j/jhall/BTagging/Productions/October19_ntuples/mc16d/user.jhall.364112.Sherpa.DAOD_FTAG2.e5271_s3126_r10201_p3970.AT21.2.93_28.10.2019_mc16d_v1.4_output_root/user.jhall.19607955._000029.output.root
/eos/user/j/jhall/BTagging/Productions/October19_ntuples/mc16d/user.jhall.364112.Sherpa.DAOD_FTAG2.e5271_s3126_r10201_p3970.AT21.2.93_28.10.2019_mc16d_v1.4_output_root/user.jhall.19607955._000030.output.root
/eos/user/j/jhall/BTagging/Productions/October19_ntuples/mc16d/user.jhall.364112.Sherpa.DAOD_FTAG2.e5271_s3126_r10201_p3970.AT21.2.93_28.10.2019_mc16d_v1.4_output_root/user.jhall.19607955._000031.output.root
/eos/user/j/jhall/BTagging/Productions/October19_ntuples/mc16d/user.jhall.364112.Sherpa.DAOD_FTAG2.e5271_s3126_r10201_p3970.AT21.2.93_28.10.2019_mc16d_v1.4_output_root/user.jhall.19607955._000032.output.root
/eos/user/j/jhall/BTagging/Productions/October19_ntuples/mc16d/user.jhall.364112.Sherpa.DAOD_FTAG2.e5271_s3126_r10201_p3970.AT21.2.93_28.10.2019_mc16d_v1.4_output_root/user.jhall.19607955._000033.output.root
/eos/user/j/jhall/BTagging/Productions/October19_ntuples/mc16d/user.jhall.364112.Sherpa.DAOD_FTAG2.e5271_s3126_r10201_p3970.AT21.2.93_28.10.2019_mc16d_v1.4_output_root/user.jhall.19607955._000034.output.root
/eos/user/j/jhall/BTagging/Productions/October19_ntuples/mc16d/user.jhall.364112.Sherpa.DAOD_FTAG2.e5271_s3126_r10201_p3970.AT21.2.93_28.10.2019_mc16d_v1.4_output_root/user.jhall.19607955._000035.output.root
/eos/user/j/jhall/BTagging/Productions/October19_ntuples/mc16d/user.jhall.364112.Sherpa.DAOD_FTAG2.e5271_s3126_r10201_p3970.AT21.2.93_28.10.2019_mc16d_v1.4_output_root/user.jhall.19607955._000036.output.root
/eos/user/j/jhall/BTagging/Productions/October19_ntuples/mc16d/user.jhall.364112.Sherpa.DAOD_FTAG2.e5271_s3126_r10201_p3970.AT21.2.93_28.10.2019_mc16d_v1.4_output_root/user.jhall.19607955._000037.output.root
/eos/user/j/jhall/BTagging/Productions/October19_ntuples/mc16d/user.jhall.364112.Sherpa.DAOD_FTAG2.e5271_s3126_r10201_p3970.AT21.2.93_28.10.2019_mc16d_v1.4_output_root/user.jhall.19607955._000038.output.root
/eos/user/j/jhall/BTagging/Productions/October19_ntuples/mc16d/user.jhall.364112.Sherpa.DAOD_FTAG2.e5271_s3126_r10201_p3970.AT21.2.93_28.10.2019_mc16d_v1.4_output_root/user.jhall.19607955._000039.output.root
/eos/user/j/jhall/BTagging/Productions/October19_ntuples/mc16d/user.jhall.364112.Sherpa.DAOD_FTAG2.e5271_s3126_r10201_p3970.AT21.2.93_28.10.2019_mc16d_v1.4_output_root/user.jhall.19607955._000040.output.root
/eos/user/j/jhall/BTagging/Productions/October19_ntuples/mc16d/user.jhall.364112.Sherpa.DAOD_FTAG2.e5271_s3126_r10201_p3970.AT21.2.93_28.10.2019_mc16d_v1.4_output_root/user.jhall.19607955._000041.output.root
/eos/user/j/jhall/BTagging/Productions/October19_ntuples/mc16d/user.jhall.364112.Sherpa.DAOD_FTAG2.e5271_s3126_r10201_p3970.AT21.2.93_28.10.2019_mc16d_v1.4_output_root/user.jhall.19607955._000042.output.root
/eos/user/j/jhall/BTagging/Productions/October19_ntuples/mc16d/user.jhall.364112.Sherpa.DAOD_FTAG2.e5271_s3126_r10201_p3970.AT21.2.93_28.10.2019_mc16d_v1.4_output_root/user.jhall.19607955._000043.output.root
/eos/user/j/jhall/BTagging/Productions/October19_ntuples/mc16d/user.jhall.364112.Sherpa.DAOD_FTAG2.e5271_s3126_r10201_p3970.AT21.2.93_28.10.2019_mc16d_v1.4_output_root/user.jhall.19607955._000044.output.root
/eos/user/j/jhall/BTagging/Productions/October19_ntuples/mc16d/user.jhall.364112.Sherpa.DAOD_FTAG2.e5271_s3126_r10201_p3970.AT21.2.93_28.10.2019_mc16d_v1.4_output_root/user.jhall.19607955._000045.output.root
/eos/user/j/jhall/BTagging/Productions/October19_ntuples/mc16d/user.jhall.364112.Sherpa.DAOD_FTAG2.e5271_s3126_r10201_p3970.AT21.2.93_28.10.2019_mc16d_v1.4_output_root/user.jhall.19607955._000046.output.root
/eos/user/j/jhall/BTagging/Productions/October19_ntuples/mc16d/user.jhall.364112.Sherpa.DAOD_FTAG2.e5271_s3126_r10201_p3970.AT21.2.93_28.10.2019_mc16d_v1.4_output_root/user.jhall.19607955._000047.output.root
/eos/user/j/jhall/BTagging/Productions/October19_ntuples/mc16d/user.jhall.364112.Sherpa.DAOD_FTAG2.e5271_s3126_r10201_p3970.AT21.2.93_28.10.2019_mc16d_v1.4_output_root/user.jhall.19607955._000048.output.root
/eos/user/j/jhall/BTagging/Productions/October19_ntuples/mc16d/user.jhall.364112.Sherpa.DAOD_FTAG2.e5271_s3126_r10201_p3970.AT21.2.93_28.10.2019_mc16d_v1.4_output_root/user.jhall.19607955._000049.output.root
/eos/user/j/jhall/BTagging/Productions/October19_ntuples/mc16d/user.jhall.364112.Sherpa.DAOD_FTAG2.e5271_s3126_r10201_p3970.AT21.2.93_28.10.2019_mc16d_v1.4_output_root/user.jhall.19607955._000050.output.root
/eos/user/j/jhall/BTagging/Productions/October19_ntuples/mc16d/user.jhall.364112.Sherpa.DAOD_FTAG2.e5271_s3126_r10201_p3970.AT21.2.93_28.10.2019_mc16d_v1.4_output_root/user.jhall.19607955._000051.output.root
/eos/user/j/jhall/BTagging/Productions/October19_ntuples/mc16d/user.jhall.364112.Sherpa.DAOD_FTAG2.e5271_s3126_r10201_p3970.AT21.2.93_28.10.2019_mc16d_v1.4_output_root/user.jhall.19607955._000052.output.root
/eos/user/j/jhall/BTagging/Productions/October19_ntuples/mc16d/user.jhall.364112.Sherpa.DAOD_FTAG2.e5271_s3126_r10201_p3970.AT21.2.93_28.10.2019_mc16d_v1.4_output_root/user.jhall.19607955._000053.output.root
/eos/user/j/jhall/BTagging/Productions/October19_ntuples/mc16d/user.jhall.364112.Sherpa.DAOD_FTAG2.e5271_s3126_r10201_p3970.AT21.2.93_28.10.2019_mc16d_v1.4_output_root/user.jhall.19607955._000054.output.root
/eos/user/j/jhall/BTagging/Productions/October19_ntuples/mc16d/user.jhall.364112.Sherpa.DAOD_FTAG2.e5271_s3126_r10201_p3970.AT21.2.93_28.10.2019_mc16d_v1.4_output_root/user.jhall.19607955._000055.output.root
/eos/user/j/jhall/BTagging/Productions/October19_ntuples/mc16d/user.jhall.364112.Sherpa.DAOD_FTAG2.e5271_s3126_r10201_p3970.AT21.2.93_28.10.2019_mc16d_v1.4_output_root/user.jhall.19607955._000056.output.root
/eos/user/j/jhall/BTagging/Productions/October19_ntuples/mc16d/user.jhall.364112.Sherpa.DAOD_FTAG2.e5271_s3126_r10201_p3970.AT21.2.93_28.10.2019_mc16d_v1.4_output_root/user.jhall.19607955._000057.output.root
/eos/user/j/jhall/BTagging/Productions/October19_ntuples/mc16d/user.jhall.364112.Sherpa.DAOD_FTAG2.e5271_s3126_r10201_p3970.AT21.2.93_28.10.2019_mc16d_v1.4_output_root/user.jhall.19607955._000058.output.root
/eos/user/j/jhall/BTagging/Productions/October19_ntuples/mc16d/user.jhall.364112.Sherpa.DAOD_FTAG2.e5271_s3126_r10201_p3970.AT21.2.93_28.10.2019_mc16d_v1.4_output_root/user.jhall.19607955._000059.output.root
/eos/user/j/jhall/BTagging/Productions/October19_ntuples/mc16d/user.jhall.364112.Sherpa.DAOD_FTAG2.e5271_s3126_r10201_p3970.AT21.2.93_28.10.2019_mc16d_v1.4_output_root/user.jhall.19607955._000060.output.root
/eos/user/j/jhall/BTagging/Productions/October19_ntuples/mc16d/user.jhall.364112.Sherpa.DAOD_FTAG2.e5271_s3126_r10201_p3970.AT21.2.93_28.10.2019_mc16d_v1.4_output_root/user.jhall.19607955._000061.output.root
/eos/user/j/jhall/BTagging/Productions/October19_ntuples/mc16d/user.jhall.364112.Sherpa.DAOD_FTAG2.e5271_s3126_r10201_p3970.AT21.2.93_28.10.2019_mc16d_v1.4_output_root/user.jhall.19607955._000062.output.root
