/eos/user/j/jhall/BTagging/Productions/October19_ntuples/mc16e/user.jhall.364116.Sherpa.DAOD_FTAG2.e5299_s3126_r10724_p3970.AT21.2.93_28.10.2019_mc16e_v1.2_output_root/user.jhall.19603816._000001.output.root
/eos/user/j/jhall/BTagging/Productions/October19_ntuples/mc16e/user.jhall.364116.Sherpa.DAOD_FTAG2.e5299_s3126_r10724_p3970.AT21.2.93_28.10.2019_mc16e_v1.2_output_root/user.jhall.19603816._000002.output.root
/eos/user/j/jhall/BTagging/Productions/October19_ntuples/mc16e/user.jhall.364116.Sherpa.DAOD_FTAG2.e5299_s3126_r10724_p3970.AT21.2.93_28.10.2019_mc16e_v1.2_output_root/user.jhall.19603816._000003.output.root
/eos/user/j/jhall/BTagging/Productions/October19_ntuples/mc16e/user.jhall.364116.Sherpa.DAOD_FTAG2.e5299_s3126_r10724_p3970.AT21.2.93_28.10.2019_mc16e_v1.2_output_root/user.jhall.19603816._000004.output.root
/eos/user/j/jhall/BTagging/Productions/October19_ntuples/mc16e/user.jhall.364116.Sherpa.DAOD_FTAG2.e5299_s3126_r10724_p3970.AT21.2.93_28.10.2019_mc16e_v1.2_output_root/user.jhall.19603816._000005.output.root
/eos/user/j/jhall/BTagging/Productions/October19_ntuples/mc16e/user.jhall.364116.Sherpa.DAOD_FTAG2.e5299_s3126_r10724_p3970.AT21.2.93_28.10.2019_mc16e_v1.2_output_root/user.jhall.19603816._000006.output.root
/eos/user/j/jhall/BTagging/Productions/October19_ntuples/mc16e/user.jhall.364116.Sherpa.DAOD_FTAG2.e5299_s3126_r10724_p3970.AT21.2.93_28.10.2019_mc16e_v1.2_output_root/user.jhall.19603816._000007.output.root
/eos/user/j/jhall/BTagging/Productions/October19_ntuples/mc16e/user.jhall.364116.Sherpa.DAOD_FTAG2.e5299_s3126_r10724_p3970.AT21.2.93_28.10.2019_mc16e_v1.2_output_root/user.jhall.19603816._000008.output.root
/eos/user/j/jhall/BTagging/Productions/October19_ntuples/mc16e/user.jhall.364116.Sherpa.DAOD_FTAG2.e5299_s3126_r10724_p3970.AT21.2.93_28.10.2019_mc16e_v1.2_output_root/user.jhall.19603816._000009.output.root
/eos/user/j/jhall/BTagging/Productions/October19_ntuples/mc16e/user.jhall.364116.Sherpa.DAOD_FTAG2.e5299_s3126_r10724_p3970.AT21.2.93_28.10.2019_mc16e_v1.2_output_root/user.jhall.19603816._000010.output.root
/eos/user/j/jhall/BTagging/Productions/October19_ntuples/mc16e/user.jhall.364116.Sherpa.DAOD_FTAG2.e5299_s3126_r10724_p3970.AT21.2.93_28.10.2019_mc16e_v1.2_output_root/user.jhall.19603816._000011.output.root
/eos/user/j/jhall/BTagging/Productions/October19_ntuples/mc16e/user.jhall.364116.Sherpa.DAOD_FTAG2.e5299_s3126_r10724_p3970.AT21.2.93_28.10.2019_mc16e_v1.2_output_root/user.jhall.19603816._000012.output.root
/eos/user/j/jhall/BTagging/Productions/October19_ntuples/mc16e/user.jhall.364116.Sherpa.DAOD_FTAG2.e5299_s3126_r10724_p3970.AT21.2.93_28.10.2019_mc16e_v1.2_output_root/user.jhall.19603816._000013.output.root
/eos/user/j/jhall/BTagging/Productions/October19_ntuples/mc16e/user.jhall.364116.Sherpa.DAOD_FTAG2.e5299_s3126_r10724_p3970.AT21.2.93_28.10.2019_mc16e_v1.2_output_root/user.jhall.19603816._000014.output.root
/eos/user/j/jhall/BTagging/Productions/October19_ntuples/mc16e/user.jhall.364116.Sherpa.DAOD_FTAG2.e5299_s3126_r10724_p3970.AT21.2.93_28.10.2019_mc16e_v1.2_output_root/user.jhall.19603816._000015.output.root
/eos/user/j/jhall/BTagging/Productions/October19_ntuples/mc16e/user.jhall.364116.Sherpa.DAOD_FTAG2.e5299_s3126_r10724_p3970.AT21.2.93_28.10.2019_mc16e_v1.2_output_root/user.jhall.19603816._000016.output.root
/eos/user/j/jhall/BTagging/Productions/October19_ntuples/mc16e/user.jhall.364116.Sherpa.DAOD_FTAG2.e5299_s3126_r10724_p3970.AT21.2.93_28.10.2019_mc16e_v1.2_output_root/user.jhall.19603816._000017.output.root
/eos/user/j/jhall/BTagging/Productions/October19_ntuples/mc16e/user.jhall.364116.Sherpa.DAOD_FTAG2.e5299_s3126_r10724_p3970.AT21.2.93_28.10.2019_mc16e_v1.2_output_root/user.jhall.19603816._000018.output.root
/eos/user/j/jhall/BTagging/Productions/October19_ntuples/mc16e/user.jhall.364116.Sherpa.DAOD_FTAG2.e5299_s3126_r10724_p3970.AT21.2.93_28.10.2019_mc16e_v1.2_output_root/user.jhall.19603816._000019.output.root
/eos/user/j/jhall/BTagging/Productions/October19_ntuples/mc16e/user.jhall.364116.Sherpa.DAOD_FTAG2.e5299_s3126_r10724_p3970.AT21.2.93_28.10.2019_mc16e_v1.2_output_root/user.jhall.19603816._000020.output.root
/eos/user/j/jhall/BTagging/Productions/October19_ntuples/mc16e/user.jhall.364116.Sherpa.DAOD_FTAG2.e5299_s3126_r10724_p3970.AT21.2.93_28.10.2019_mc16e_v1.2_output_root/user.jhall.19603816._000021.output.root
/eos/user/j/jhall/BTagging/Productions/October19_ntuples/mc16e/user.jhall.364116.Sherpa.DAOD_FTAG2.e5299_s3126_r10724_p3970.AT21.2.93_28.10.2019_mc16e_v1.2_output_root/user.jhall.19603816._000022.output.root
/eos/user/j/jhall/BTagging/Productions/October19_ntuples/mc16e/user.jhall.364116.Sherpa.DAOD_FTAG2.e5299_s3126_r10724_p3970.AT21.2.93_28.10.2019_mc16e_v1.2_output_root/user.jhall.19603816._000023.output.root
/eos/user/j/jhall/BTagging/Productions/October19_ntuples/mc16e/user.jhall.364116.Sherpa.DAOD_FTAG2.e5299_s3126_r10724_p3970.AT21.2.93_28.10.2019_mc16e_v1.2_output_root/user.jhall.19603816._000024.output.root
/eos/user/j/jhall/BTagging/Productions/October19_ntuples/mc16e/user.jhall.364116.Sherpa.DAOD_FTAG2.e5299_s3126_r10724_p3970.AT21.2.93_28.10.2019_mc16e_v1.2_output_root/user.jhall.19603816._000025.output.root
/eos/user/j/jhall/BTagging/Productions/October19_ntuples/mc16e/user.jhall.364116.Sherpa.DAOD_FTAG2.e5299_s3126_r10724_p3970.AT21.2.93_28.10.2019_mc16e_v1.2_output_root/user.jhall.19603816._000026.output.root
/eos/user/j/jhall/BTagging/Productions/October19_ntuples/mc16e/user.jhall.364116.Sherpa.DAOD_FTAG2.e5299_s3126_r10724_p3970.AT21.2.93_28.10.2019_mc16e_v1.2_output_root/user.jhall.19603816._000027.output.root
/eos/user/j/jhall/BTagging/Productions/October19_ntuples/mc16e/user.jhall.364116.Sherpa.DAOD_FTAG2.e5299_s3126_r10724_p3970.AT21.2.93_28.10.2019_mc16e_v1.2_output_root/user.jhall.19603816._000028.output.root
/eos/user/j/jhall/BTagging/Productions/October19_ntuples/mc16e/user.jhall.364116.Sherpa.DAOD_FTAG2.e5299_s3126_r10724_p3970.AT21.2.93_28.10.2019_mc16e_v1.2_output_root/user.jhall.19603816._000029.output.root
/eos/user/j/jhall/BTagging/Productions/October19_ntuples/mc16e/user.jhall.364116.Sherpa.DAOD_FTAG2.e5299_s3126_r10724_p3970.AT21.2.93_28.10.2019_mc16e_v1.2_output_root/user.jhall.19603816._000030.output.root
/eos/user/j/jhall/BTagging/Productions/October19_ntuples/mc16e/user.jhall.364116.Sherpa.DAOD_FTAG2.e5299_s3126_r10724_p3970.AT21.2.93_28.10.2019_mc16e_v1.2_output_root/user.jhall.19603816._000031.output.root
/eos/user/j/jhall/BTagging/Productions/October19_ntuples/mc16e/user.jhall.364116.Sherpa.DAOD_FTAG2.e5299_s3126_r10724_p3970.AT21.2.93_28.10.2019_mc16e_v1.2_output_root/user.jhall.19603816._000032.output.root
/eos/user/j/jhall/BTagging/Productions/October19_ntuples/mc16e/user.jhall.364116.Sherpa.DAOD_FTAG2.e5299_s3126_r10724_p3970.AT21.2.93_28.10.2019_mc16e_v1.2_output_root/user.jhall.19603816._000033.output.root
/eos/user/j/jhall/BTagging/Productions/October19_ntuples/mc16e/user.jhall.364116.Sherpa.DAOD_FTAG2.e5299_s3126_r10724_p3970.AT21.2.93_28.10.2019_mc16e_v1.2_output_root/user.jhall.19603816._000034.output.root
/eos/user/j/jhall/BTagging/Productions/October19_ntuples/mc16e/user.jhall.364116.Sherpa.DAOD_FTAG2.e5299_s3126_r10724_p3970.AT21.2.93_28.10.2019_mc16e_v1.2_output_root/user.jhall.19603816._000035.output.root
