/eos/user/j/jhall/BTagging/Productions/October19_ntuples/mc16d/user.jhall.364137.Sherpa.DAOD_FTAG2.e5307_s3126_r10201_p3970.AT21.2.93_28.10.2019_mc16d_v1.4_output_root/user.jhall.19608086._000001.output.root
/eos/user/j/jhall/BTagging/Productions/October19_ntuples/mc16d/user.jhall.364137.Sherpa.DAOD_FTAG2.e5307_s3126_r10201_p3970.AT21.2.93_28.10.2019_mc16d_v1.4_output_root/user.jhall.19608086._000002.output.root
/eos/user/j/jhall/BTagging/Productions/October19_ntuples/mc16d/user.jhall.364137.Sherpa.DAOD_FTAG2.e5307_s3126_r10201_p3970.AT21.2.93_28.10.2019_mc16d_v1.4_output_root/user.jhall.19608086._000003.output.root
/eos/user/j/jhall/BTagging/Productions/October19_ntuples/mc16d/user.jhall.364137.Sherpa.DAOD_FTAG2.e5307_s3126_r10201_p3970.AT21.2.93_28.10.2019_mc16d_v1.4_output_root/user.jhall.19608086._000004.output.root
