/eos/user/j/jhall/BTagging/Productions/October19_ntuples/mc16a/user.jhall.364181.Sherpa.DAOD_FTAG2.e5340_s3126_r9364_p3970.AT21.2.93_28.10.2019_mc16a_v1.0_output_root/user.jhall.19578853._000005.output.root
/eos/user/j/jhall/BTagging/Productions/October19_ntuples/mc16a/user.jhall.364181.Sherpa.DAOD_FTAG2.e5340_s3126_r9364_p3970.AT21.2.93_28.10.2019_mc16a_v1.0_output_root/user.jhall.19578853._000007.output.root
/eos/user/j/jhall/BTagging/Productions/October19_ntuples/mc16a/user.jhall.364181.Sherpa.DAOD_FTAG2.e5340_s3126_r9364_p3970.AT21.2.93_28.10.2019_mc16a_v1.0_output_root/user.jhall.19578853._000008.output.root
/eos/user/j/jhall/BTagging/Productions/October19_ntuples/mc16a/user.jhall.364181.Sherpa.DAOD_FTAG2.e5340_s3126_r9364_p3970.AT21.2.93_28.10.2019_mc16a_v1.0_output_root/user.jhall.19578853._000009.output.root
