/eos/user/j/jhall/BTagging/Productions/October19_ntuples/mc16a/user.jhall.364164.Sherpa.DAOD_FTAG2.e5340_s3126_r9364_p3970.AT21.2.93_28.10.2019_mc16a_v1.0_output_root/user.jhall.19578833._000001.output.root
/eos/user/j/jhall/BTagging/Productions/October19_ntuples/mc16a/user.jhall.364164.Sherpa.DAOD_FTAG2.e5340_s3126_r9364_p3970.AT21.2.93_28.10.2019_mc16a_v1.0_output_root/user.jhall.19578833._000002.output.root
/eos/user/j/jhall/BTagging/Productions/October19_ntuples/mc16a/user.jhall.364164.Sherpa.DAOD_FTAG2.e5340_s3126_r9364_p3970.AT21.2.93_28.10.2019_mc16a_v1.0_output_root/user.jhall.19578833._000003.output.root
/eos/user/j/jhall/BTagging/Productions/October19_ntuples/mc16a/user.jhall.364164.Sherpa.DAOD_FTAG2.e5340_s3126_r9364_p3970.AT21.2.93_28.10.2019_mc16a_v1.0_output_root/user.jhall.19578833._000004.output.root
/eos/user/j/jhall/BTagging/Productions/October19_ntuples/mc16a/user.jhall.364164.Sherpa.DAOD_FTAG2.e5340_s3126_r9364_p3970.AT21.2.93_28.10.2019_mc16a_v1.0_output_root/user.jhall.19578833._000005.output.root
/eos/user/j/jhall/BTagging/Productions/October19_ntuples/mc16a/user.jhall.364164.Sherpa.DAOD_FTAG2.e5340_s3126_r9364_p3970.AT21.2.93_28.10.2019_mc16a_v1.0_output_root/user.jhall.19578833._000006.output.root
/eos/user/j/jhall/BTagging/Productions/October19_ntuples/mc16a/user.jhall.364164.Sherpa.DAOD_FTAG2.e5340_s3126_r9364_p3970.AT21.2.93_28.10.2019_mc16a_v1.0_output_root/user.jhall.19578833._000007.output.root
