/eos/user/j/jhall/BTagging/Productions/October19_ntuples/mc16e/user.jhall.364163.Sherpa.DAOD_FTAG2.e5340_s3126_r10724_p3970.AT21.2.93_28.10.2019_mc16e_v1.2_output_root/user.jhall.19867164._000001.output.root
/eos/user/j/jhall/BTagging/Productions/October19_ntuples/mc16e/user.jhall.364163.Sherpa.DAOD_FTAG2.e5340_s3126_r10724_p3970.AT21.2.93_28.10.2019_mc16e_v1.2_output_root/user.jhall.19867164._000002.output.root
/eos/user/j/jhall/BTagging/Productions/October19_ntuples/mc16e/user.jhall.364163.Sherpa.DAOD_FTAG2.e5340_s3126_r10724_p3970.AT21.2.93_28.10.2019_mc16e_v1.2_output_root/user.jhall.19867164._000003.output.root
/eos/user/j/jhall/BTagging/Productions/October19_ntuples/mc16e/user.jhall.364163.Sherpa.DAOD_FTAG2.e5340_s3126_r10724_p3970.AT21.2.93_28.10.2019_mc16e_v1.2_output_root/user.jhall.19867164._000004.output.root
